t [ms],T [k],TotalEnthalpy [J/kg],Y-N2,Y-AR,Y-H,Y-O2,Y-OH,Y-O,Y-H2,Y-H2O,Y-HO2,Y-H2O2,Y-CO,Y-CO2,Y-CHO,Y-CH2O,Y-CH4,Y-CH3,Y-CH2(T),Y-CH2(S),Y-C2H4,Y-CH3O,Y-C2H5,Y-C2H6,Y-CH3OH,Y-CH2OH,Y-CH,Y-C2H2,Y-C2H3,Y-CH2CHO,Y-C2H4O,Y-CH2CO,Y-HCCO,Y-C2H,Y-C3H3,Y-C3H4,Y-C3H5,Y-C3H6,Y-N-C3H7,Y-C3H8,Y-I-C3H7,Y-CH3CHO,Y-CH3CO,Y-C4H6,Y-C5H8
6.7638812494150404e-17,2474.9999999982415,3020403.7080542436,0.71804847000000005,0.0,5.811145107867555e-16,0.21825152999999839,3.0352419134960393e-24,7.0414470072512298e-18,2.5415772020234949e-14,1.4445420311832123e-33,1.6667170290447765e-15,3.1763755903724633e-38,1.6616010609704209e-25,3.6294230182022893e-35,6.0908776080702817e-26,2.3382830502008245e-25,3.7002735287782176e-48,1.432435397799803e-26,9.2256989024529966e-27,1.190980109953899e-36,0.06369999999962607,4.2808078167894416e-37,1.3757077714424766e-15,1.9813811385963743e-37,2.2068100742020304e-57,2.8840701903850642e-46,4.0529250771320105e-49,3.282798688140691e-13,1.823890470235862e-14,3.8053878369879574e-24,3.2360675747627136e-27,1.2839074172540743e-31,9.8685562047817629e-38,6.387002658034744e-45,1.5195871481128883e-49,2.9667973828882416e-40,9.3230682518826726e-49,1.0714135009916794e-38,1.9603611322010171e-37,1.6382746185522237e-58,1.0986383371984666e-60,3.7825176525536146e-81,1.9545419455282929e-57,2.9340057289071232e-36,0.0
2.0403950344809838e-06,2482.8451393793594,3020403.7080546417,0.71804847000000005,0.0,0.00019299137089546608,0.19050955831601443,0.0025801745903310867,0.0013658343873178265,0.0017608846354496468,0.0063328483598687176,0.00057177698862195217,4.9943411145483806e-07,0.015923889881472222,0.0035534727266144494,0.00062578858677053868,0.0021278831575649504,0.00017551246653451749,0.0025635057316042774,5.066978040269231e-05,1.9349397136930743e-05,0.023119705431127693,1.8748952474716496e-05,7.7412259843003129e-06,7.3191012714510366e-07,2.0053058160468757e-05,0.00028800721448828549,1.5342686279580819e-05,0.010998325408793547,0.0063475925435147523,4.3294996811795611e-05,8.0914420901350782e-06,0.011184864404629858,0.00042947655916243069,7.9921780677257265e-05,6.5379741515184716e-05,7.0132050281633199e-06,4.5086153777221817e-06,3.5466714220301806e-05,8.2395556594975421e-10,5.9848082047245219e-11,1.5223016837160029e-09,1.8399961896387518e-07,9.8393394164232772e-10,0.00092243690916727348,0.0
2.0791342526110058e-06,2491.2375792472494,3020403.708054604,0.71804847000000005,0.0,0.00020914580066439271,0.18822782602205768,0.0028013823230462593,0.0014534835712862284,0.0018296071997780147,0.006930189454752449,0.00056389994012735951,5.0899418878755673e-07,0.017548123997167337,0.0039749062527726919,0.00064592458964168843,0.0023201272749024189,0.00019243630703514754,0.0026753109863067608,5.6721098981978749e-05,2.2164599393182183e-05,0.021315491264768682,1.9425573506643164e-05,8.2447116718375205e-06,7.503108885696008e-07,2.1355806511773871e-05,0.00031807796101241764,1.7266636553859195e-05,0.011206116828410656,0.0064887000443012771,4.3072393576561597e-05,8.3062604737565873e-06,0.011408885822010805,0.00046446061702418498,8.83125630745968e-05,7.7446896533473684e-05,7.5744922343806664e-06,4.8175066758902416e-06,3.5447904740387251e-05,7.8838881511089204e-10,5.9336937161302967e-11,1.6027764938225925e-09,1.8597201617893396e-07,1.1029078848706009e-09,0.00096582846850153689,0.0
2.1107662914796417e-06,2498.8416527453342,3020403.7080545751,0.71804847000000005,0.0,0.00022323599891142291,0.18626189835981294,0.0029917718973660619,0.0015282689758628102,0.0018854071768330768,0.0074504895787491469,0.0005552983788970785,5.1414499834033842e-07,0.018975201423421035,0.0043474534528247276,0.00066264578992064019,0.0024815864429166379,0.00020663724302772898,0.0027641199189355056,6.2115718476325917e-05,2.4704657777803664e-05,0.019853195322290351,1.9934604402170838e-05,8.6463058829658832e-06,7.5898669924930275e-07,2.2356502919168886e-05,0.0003431863584983355,1.8993765264051569e-05,0.011365426939589489,0.0065826073793371119,4.2679105317825447e-05,8.4673502509020378e-06,0.011545155449571643,0.00049406162410074923,9.5566139559480562e-05,8.8643726101332243e-05,7.9775835215323766e-06,5.0188314046942885e-06,3.5028061837147115e-05,7.5439633193499723e-10,5.8286083453170595e-11,1.648068940040297e-09,1.8613950221881044e-07,1.205942522760397e-09,0.0009922869985243912,0.0
2.1403558981319154e-06,2506.5952836421034,3020403.7080579437,0.71804847000000005,0.0,0.00023719331088845337,0.18433718025169521,0.0031779457155949112,0.0016010278473422097,0.0019371581489496901,0.0079646284247555984,0.00054555901487449068,5.1676319830105e-07,0.02039575029580025,0.0047200270489957275,0.00067859010960697266,0.002635264660354888,0.00022012249763853382,0.0028445917405436109,6.7556002780693795e-05,2.7289055609547982e-05,0.018500404363824018,2.0370921968607504e-05,9.0095860826961207e-06,7.6158867218331024e-07,2.3225182085885817e-05,0.0003668921330730077,2.0746036044807415e-05,0.011504483472458379,0.0066513828564011921,4.2137308927159753e-05,8.606225646326975e-06,0.011631440739173222,0.00052253099006773775,0.00010266703924313234,0.00010030265572118825,8.2953706785640841e-06,5.1542874231232989e-06,3.4305177389953005e-05,7.1890135412026478e-10,5.6775774843218223e-11,1.6714923551374983e-09,1.8510210165386945e-07,1.3066852266861507e-09,0.0010082243205331938,0.0
2.1669398447372643e-06,2514.1100995971933,3020403.7080583624,0.71804847000000005,0.0,0.00025040595377152312,0.1825359027236117,0.0033519534389498916,0.0016688579435304258,0.0019831447588555839,0.008449815934025353,0.00053547649354077347,5.172996779846469e-07,0.021745019748458837,0.0050752439020951357,0.00069321103381351828,0.0027746708154478745,0.00023230979797333863,0.002914282787666026,7.2786579778427745e-05,2.979078243398061e-05,0.017302079925575958,2.0726818330841578e-05,9.3221703117062508e-06,7.5923019983840521e-07,2.3938362046221965e-05,0.00038818108661510401,2.2440053968506315e-05,0.011619935215602097,0.006696218713769065,4.1507478665379422e-05,8.7212506698045275e-06,0.011672938236375904,0.0005486959232139032,0.00010929418980968759,0.000111818697590916,8.5222441467549971e-06,5.2247099478510368e-06,3.33910518607219e-05,6.8427018470747725e-10,5.4988934419565065e-11,1.6757116563782018e-09,1.8318761802571317e-07,1.4003600862921471e-09,0.0010142376447202892,0.0
2.1966924485381342e-06,2523.1591361027881,3020403.7080577617,0.71804847000000005,2.2766116005601116e-29,0.00026598398303868753,0.18043761593815766,0.0035543575535109577,0.0017477219478127101,0.0020338884143364772,0.0090196471616374296,0.00052277617666828013,5.1588506732391911e-07,0.023339559459502276,0.0054964381810313906,0.00070994563622063891,0.0029311562413856509,0.00024591165036050007,0.0029888037084837,7.9044959445179932e-05,3.2800536916262926e-05,0.015985206825081873,2.1081023833266016e-05,9.6523820857129699e-06,7.5126679770531285e-07,2.4648495054596555e-05,0.00041177151551352571,2.4478175452780172e-05,0.011736941877917149,0.006726033136800558,4.0643935524372315e-05,8.8391526386184428e-06,0.011677001096484877,0.00057856618539536234,0.00011696997629225121,0.00012594331043713758,8.7008898280930601e-06,5.2387852277732212e-06,3.2087485438680667e-05,6.4284111267914185e-10,5.2526938935728741e-11,1.6608199075174983e-09,1.7996022699089064e-07,1.5081465156866167e-09,0.0010106232260589047,0.0
2.2227858417424057e-06,2531.6689168782509,3020403.7080577258,0.71804847000000005,2.3837991790178392e-29,0.00028036087073439117,0.17852478458842724,0.0037385839717839365,0.0018196195802569197,0.0020776329141955594,0.0095432424475323484,0.00051048064193449645,5.1293094448278751e-07,0.024813277742941269,0.0058868556968182783,0.00072496313478718414,0.0030678423539245172,0.00025769612379840102,0.0030506389816236765,8.4900481088019835e-05,3.5628118469271324e-05,0.014855713042646067,2.1350308029927591e-05,9.9213155994464776e-06,7.3970533084020464e-07,2.5184763664929739e-05,0.00043205451037762668,2.6395587211932722e-05,0.011827479767789572,0.0067333820812293804,3.9751612719280965e-05,8.9333046048862047e-06,0.0116424045402778,0.00060520061311194063,0.00012390577880571285,0.000139456374174849,8.7857195557108422e-06,5.1903556547089773e-06,3.0720572531920891e-05,6.045761161737861e-10,4.9995614953393443e-11,1.6306250591885777e-09,1.7621406804296948e-07,1.6046138145309098e-09,0.00099775936354466873,0.0
2.2447570545515565e-06,2539.2626512494048,3020403.7080574399,0.71804847000000005,1.4726870113396455e-29,0.00029300153831720075,0.17686090058837903,0.0038986058922978713,0.0018822640714790198,0.0021138300434009045,0.010001739231256909,0.00049934396592611347,5.0923939224766607e-07,0.026109863121274578,0.0062311123028709258,0.00073785737458476768,0.0031818256988294185,0.00026743026665613677,0.0030997885132429651,9.0106286675365772e-05,3.8148106573705415e-05,0.013926004450419844,2.1545014685381042e-05,1.0130251840929714e-05,7.2674933891601976e-07,2.5567273280504442e-05,0.00044869546481617441,2.8108386150603137e-05,0.011893844579537327,0.0067252167085435147,3.8905280725091577e-05,9.0060444153664549e-06,0.011584945067760189,0.00062788664931057528,0.00012987579709405233,0.00015168116504678578,8.8018985355648624e-06,5.1037209087144714e-06,2.9424996602904123e-05,5.7125219864949059e-10,4.7622816728025842e-11,1.593078442949652e-09,1.7242238022596685e-07,1.6867384049495887e-09,0.0009795579387581676,0.0
2.2698858558040012e-06,2548.4408519058575,3020403.7080563898,0.71804847000000005,-4.4716571370269236e-28,0.0003080736774000697,0.17489770411390021,0.0040871395304815017,0.0019564105679844091,0.0021544252523080934,0.01054618933556224,0.00048579120765590447,5.0371855466698996e-07,0.02765617161832315,0.0066424723307165262,0.0007528729834913138,0.0033101474115432767,0.00027825585280681002,0.003152319672324818,9.6377216847492181e-05,4.1187893012148465e-05,0.012889646636065786,2.172962397959223e-05,1.0346863272439844e-05,7.0848580010799313e-07,2.5921386251708533e-05,0.00046708191163440235,3.0181456054761536e-05,0.011957379181700237,0.0066990469023223888,3.7834749068807339e-05,9.0821313444166767e-06,0.011487029730615241,0.00065405173196329337,0.00013682605519933116,0.00016663826317870188,8.7565848989223429e-06,4.9529090742439931e-06,2.7802923003296301e-05,5.322384031783069e-10,4.4676136043389068e-11,1.5372284827531941e-09,1.6740680413525447e-07,1.7810496799304372e-09,0.00095029878966270982,0.0
2.2926866029097502e-06,2557.2354372034674,3020403.7080556708,0.71804847000000005,-1.1442434031498121e-27,0.0003223275091057599,0.1730604873861038,0.0042633079302217469,0.0020261247819207146,0.002190439221744259,0.011058958964445982,0.000472799880449483,4.9756325661132043e-07,0.029118409684596034,0.0070321545595507231,0.00076672317696228074,0.0034239503290567231,0.00028770414145515196,0.0031961989556533901,0.00010236541115105964,4.4091805562812882e-05,0.011976803506079605,2.1860065665198967e-05,1.0520342288679963e-05,6.8892712267936564e-07,2.6161139643953064e-05,0.00048302986689598826,3.2170832209711041e-05,0.012002344560950378,0.0066591331289249959,3.6772832273799845e-05,9.1448376329463105e-06,0.011368296865294732,0.00067792113744237633,0.00014322052760667252,0.00018112793040322764,8.6561966608941682e-06,4.7694885513568663e-06,2.6223012906094057e-05,4.9631987715379598e-10,4.1826242056041216e-11,1.4755245773825013e-09,1.6226630182676055e-07,1.8663580351147748e-09,0.00091597735387946881,0.0
2.3140327941484094e-06,2565.8809140095955,3020403.708055642,0.71804847000000005,-1.140242323540895e-27,0.00033617622817170483,0.17129212031932262,0.0044326355408529257,0.0020936083588964554,0.0022233835279921619,0.011555357498453276,0.00046009198798089527,4.9086437871217142e-07,0.03053877813450747,0.0074112285001234996,0.0007798545550726355,0.0035275606176083402,0.00029614551497042388,0.0032336686184099902,0.0001082315339920184,4.6934974852552735e-05,0.011148053490204002,2.1948620439767949e-05,1.0660793081407803e-05,6.6824346781758154e-07,2.6312043310008552e-05,0.00049720853673855374,3.412875826011365e-05,0.01203233125581882,0.0066073180234575016,3.5704694696803435e-05,9.1983061443219148e-06,0.011231435277425943,0.00070030611242506539,0.00014925806233803001,0.00019549430522580247,8.5119318376956325e-06,4.559894820437808e-06,2.4670376332194861e-05,4.6252047120365966e-10,3.9043090467705375e-11,1.40922520514216e-09,1.5698216413205152e-07,1.9454070927925624e-09,0.00087733366003000114,0.0
2.3353789853870687e-06,2574.9331183483418,3020403.7080556061,0.71804847000000005,-1.1309913942477939e-27,0.00035051435676672788,0.16947699349914427,0.0046062048833219772,0.0021633445889554796,0.00225552379718688,0.012067665450507564,0.00044690799261892089,4.8331295602021209e-07,0.032009007685457454,0.0078041040384960536,0.00079310704468488983,0.003627705783635261,0.00030411866295792286,0.003267316143018189,0.00011434926993781074,4.9896028305589722e-05,0.010346173129549115,2.2003285517903817e-05,1.0778132579723319e-05,6.4548141029375612e-07,2.6389565045681622e-05,0.00051055403387303684,3.6180186025951407e-05,0.012049449824036117,0.0065411077883671068,3.4569348444126573e-05,9.2469333688423839e-06,0.011069980804518806,0.00072265214747334609,0.00015531819612382453,0.00021063751514207145,8.3208342248486445e-06,4.3169634571619089e-06,2.3065531338949828e-05,4.2881006445333585e-10,3.6184831418889162e-11,1.3357463414089009e-09,1.5128007672951136e-07,2.0230773724282827e-09,0.00083274265765665117,0.0
2.352455938377996e-06,2582.4729399657604,3020403.7080555689,0.71804847000000005,-1.1288356722095345e-27,0.00036233604923318252,0.1679913221790568,0.0047481007896904362,0.0022208289444097737,0.0022806208029720414,0.01248900753950616,0.00043605316269139475,4.7669570880884851e-07,0.033221048864137806,0.008128317883209342,0.00080376420690643892,0.0037049033468116348,0.0003101079116651377,0.0032912576634015487,0.00011942308553862989,5.2347071699741222e-05,0.0097251667933373111,2.2021709912996638e-05,1.0854158845314084e-05,6.259331723047819e-07,2.6397732733257798e-05,0.00052056287429246299,3.7888930877126176e-05,0.012053071457365238,0.0064775271779116987,3.3615849414823136e-05,9.2825067598001523e-06,0.010923407906832478,0.00074044450520966559,0.0001601624965270869,0.00022330848159191202,8.1360133684797475e-06,4.1014728677467658e-06,2.1756749182829275e-05,4.0207380010160933e-10,3.3868759821596267e-11,1.2725887323573983e-09,1.4644514246526792e-07,2.0838057333515479e-09,0.00079313081567901594,0.0
2.3698307119393611e-06,2590.4202857541045,3020403.708055404,0.71804847000000005,-1.128932681360969e-27,0.00037468115730120383,0.16644928597589481,0.0048952283096865062,0.0022809263299830474,0.0023055645278857919,0.012928193181840721,0.00042475941881243875,4.6947181037610262e-07,0.034486783033432444,0.0084671766813712423,0.00081462453298953284,0.0037804178832498937,0.00031580147251796523,0.0033127054906149883,0.00012474634848515172,5.4912646405762337e-05,0.0091129429361139769,2.2016631095525926e-05,1.0914236556402487e-05,6.0496791532423935e-07,2.6356448787132178e-05,0.00053008191306379716,3.9688903335258663e-05,0.012046844139795907,0.0064029762799186528,3.2607432395416437e-05,9.3158050335717224e-06,0.010758752149894621,0.00075841638621698497,0.00016506855823181438,0.00023670161552935125,7.9207904424474751e-06,3.865882214247064e-06,2.0413260357473962e-05,3.7521991116170319e-10,3.1506561098516747e-11,1.2050645952445072e-09,1.4130219988742229e-07,2.1439348287917996e-09,0.00074962014289418032,0.0
2.386564431223313e-06,2598.3408435938054,3020403.7080556625,0.71804847000000005,-1.1289328784380432e-27,0.00038686863507378741,0.16493533460074727,0.0050395373953600955,0.0023403988274873816,0.0023289994965507753,0.013361164519447197,0.00041367233117358521,4.6207771812420319e-07,0.035736612082966475,0.008802029374712873,0.0008250669112324704,0.0038499339437322454,0.00032086394147500387,0.0033304122064843336,0.0001300226090616802,5.7448355522918671e-05,0.0085427427282061888,2.1988416073005294e-05,1.0954792324684924e-05,5.838840603948241e-07,2.6269331409244091e-05,0.00053857024664445523,4.1480347543587282e-05,0.012030739964800877,0.0063216478912405073,3.1602531777310161e-05,9.3452416669688474e-06,0.010585763108888469,0.00077554852341864993,0.00016975324613374235,0.00025006930740347356,7.6896451339357412e-06,3.6263532998130401e-06,1.9117383489520779e-05,3.4981226067357285e-10,2.9244310126714597e-11,1.1376041394124136e-09,1.3615973100510962e-07,2.1999223544596168e-09,0.00070506987142457086,0.0
2.4027125484744173e-06,2606.2346288583271,3020403.7080550417,0.71804847000000005,-1.1289328784380432e-27,0.0003989007451760728,0.16344784782966401,0.0051812037747649654,0.0023993241723825982,0.0023510450944841054,0.01378823787481135,0.0004028039958918678,4.5456632687998167e-07,0.036971025560730404,0.0091329703320912978,0.00083509280212242247,0.0039137322713644488,0.00032532175786820791,0.0033445952184721441,0.00013524801995580717,5.9951470742083967e-05,0.008011186891401954,2.1938976229156902e-05,1.0977106927029969e-05,5.6283498531795531e-07,2.614144200284772e-05,0.00054608979623347459,4.3261852283923752e-05,0.012005184342928209,0.0062342211053868987,3.0604225980610947e-05,9.3713183407708555e-06,0.010405858876913922,0.00079186485319834258,0.00017421774687473835,0.00026339352316522631,7.4465144057874961e-06,3.386411611364736e-06,1.787339347346242e-05,3.2581977591196104e-10,2.7089289569613204e-11,1.0708779188929387e-09,1.310444035641593e-07,2.2518389975253106e-09,0.00066005858077843602,0.0
2.4189141013398665e-06,2614.4036589126813,3020403.7080544266,0.71804847000000005,-1.1289328784380432e-27,0.0004112328828887456,0.16192961807550091,0.0053256925264929906,0.0024600102655270464,0.0023725816513901453,0.014225796437860348,0.00039175832769534322,4.4668913417432708e-07,0.038237062951084387,0.0094725892621734357,0.00084506374211478408,0.0039742141557880676,0.00032933842848827712,0.0033558047873183906,0.00014061621716464912,6.2513485321842545e-05,0.0074968438003607677,2.1866997452373058e-05,1.0982239584828941e-05,5.4114758049953367e-07,2.5970387624368984e-05,0.00055293567846738292,4.5099761006861663e-05,0.011969060846253186,0.0061376372486739257,2.9577272656941284e-05,9.3952990667677992e-06,0.010213046710956854,0.00080796727065703231,0.0001786219235264885,0.00027716597720274131,7.1850161615522319e-06,3.1400252239170031e-06,1.6639507689565275e-05,3.0236272607473754e-10,2.4969646903102129e-11,1.0029481025575394e-09,1.2578490134169565e-07,2.3015245276822625e-09,0.00061338358720376912,0.0
2.4357118373821689e-06,2623.1381687546459,3020403.7080532317,0.71804847000000005,-1.1289328784380432e-27,0.0004242843858646371,0.16032867493873396,0.0054779607702437807,0.0025246407912899384,0.0023942749347007288,0.0146889570715738,0.00038018426916297526,4.3819456311131571e-07,0.039578256294387062,0.0098325627681756615,0.00085526427657978338,0.0040328917635677301,0.00033298581130237099,0.00336407125844533,0.000146305915861124,6.5217306466277197e-05,0.006984119585662636,2.176828484684666e-05,1.0968678162987032e-05,5.1819501931571767e-07,2.574867506594753e-05,0.00055926022690460633,4.7056469490022933e-05,0.011919889046372728,0.0060281278756677149,2.8488953312448322e-05,9.4179799191094959e-06,0.010000706752556722,0.00082431653611320132,0.00018308639531906446,0.00029185326843677402,6.8978755992337317e-06,2.8819171624781121e-06,1.538308374547503e-05,2.7878690384442738e-10,2.2831585180029211e-11,9.3213539989439554e-10,1.2022338600528596e-07,2.3501541010222917e-09,0.00056394564243016326,0.0
2.4518126918271878e-06,2631.7639822252158,3020403.7080533658,0.71804847000000005,-1.1289328784380432e-27,0.00043703734820306337,0.15876902787073496,0.0056262380498257472,0.0025882790248611363,0.0024144423668628302,0.015141863610582751,0.00036900041900644805,4.2977187394570517e-07,0.04089045994493784,0.010184922645242976,0.00086486446118668825,0.00408500304845936,0.00033595574123630913,0.0033686375945465009,0.00015186780871075841,6.7847728135502362e-05,0.0065126841646312977,2.1650311893785051e-05,1.0937093533125966e-05,4.9587674978414406e-07,2.5494844790830613e-05,0.00056455386185010406,4.8978123913855127e-05,0.011860966645362131,0.0059142671557613378,2.742652810423607e-05,9.4377548105619096e-06,0.0097859243666233234,0.00083959323182075673,0.00018724561145790289,0.00030629881196717144,6.6098965362166534e-06,2.635172371522073e-06,1.420764259470763e-05,2.5698294899717775e-10,2.0851884566491453e-11,8.6450809162223003e-10,1.1481477204445731e-07,2.3936800807886616e-09,0.00051612712002521276,0.0
2.4679135462722067e-06,2640.6377103028449,3020403.7080533858,0.71804847000000005,-1.1289328784380432e-27,0.00045001595086875966,0.15718540387602167,0.0057767648345564918,0.0026536239560051326,0.0024339802687577696,0.015603396215402347,0.00035775453430847111,4.2110700421263944e-07,0.042227999700785827,0.010544230387899901,0.0008742427412321835,0.0041328015044074864,0.00033838111149853031,0.0033697756006295185,0.00015752373312141215,7.0508679798372037e-05,0.0060611404524791544,2.1509214123719671e-05,1.0886858117586162e-05,4.7337155342328908e-07,2.5201883664133777e-05,0.00056906974365076939,5.094154980105476e-05,0.011789947151734556,0.0057918203169659201,2.6348636354166192e-05,9.4557235779391955e-06,0.0095608052407415139,0.00085441727792127627,0.00019126375521724877,0.00032107842427136395,6.3120052774090223e-06,2.3921211113028566e-06,1.3066762182039057e-05,2.3602828965838402e-10,1.895141082236654e-11,7.977002824054482e-10,1.0935591631036678e-07,2.4338633298584271e-09,0.0004684624664974527,0.0
2.4840144007172256e-06,2649.7578932113342,3020403.7080533961,0.71804847000000005,-1.1289328784380432e-27,0.0004632068410785495,0.15557850318067809,0.0059295142611385616,0.0027207294860537266,0.0024528729394109956,0.016073380797198795,0.00034647219217121971,4.1223248158318539e-07,0.043590013494864584,0.010910236331980218,0.00088334794178678813,0.0041760305525632164,0.00034023483406542591,0.0033673516622211835,0.00016325992920821999,7.3191906496734702e-05,0.005629702353187006,2.1344806714133978e-05,1.0817598001457678e-05,4.5079945768591842e-07,2.4871320177990287e-05,0.00057278630994295014,5.2942714301029935e-05,0.011706316327300499,0.0056609735880917772,2.5258790033030364e-05,9.4720007819133695e-06,0.0093260747286217447,0.00086871896235592226,0.00019511645369630495,0.00033616278336392064,6.0067589279582708e-06,2.1556182346423907e-06,1.1966073901163004e-05,2.1598531756502784e-10,1.7139532186203958e-11,7.3224922006889801e-10,1.038728710107218e-07,2.4703896923716838e-09,0.00042152612087593071,0.0
2.5001152551622445e-06,2659.1218157552139,3020403.7080534259,0.71804847000000005,-1.1289328784380432e-27,0.00047659545941615606,0.15394912513805242,0.0060844606807011065,0.0027896509492005991,0.0024711056379737961,0.016551610713797536,0.00033517874003642466,4.0318127950048728e-07,0.044975515112338479,0.011282654424401536,0.0008921257899520903,0.0042144434241364395,0.00034149225260283122,0.0033612406455910387,0.00016906056245570835,7.5888215169450212e-05,0.0052185015540359867,2.1156987441166433e-05,1.0729025720508394e-05,4.2827675427159545e-07,2.4504897597280389e-05,0.00057568569433920217,5.4976843411525106e-05,0.011609607340243669,0.005521988328346699,2.4160668328517036e-05,9.4866992971894419e-06,0.0090825121961262273,0.00088242500235761133,0.00019877842936266349,0.00035151857340870002,5.6966948609296902e-06,1.9282794824999567e-06,1.0910560189929653e-05,1.9690681079652727e-10,1.5424004185551447e-11,6.6865135637564323e-10,9.8391905337004351e-08,2.5029513763358797e-09,0.00037588124575116936,0.0
2.5132928535278438e-06,2666.964156013184,3020403.7080534268,0.71804847000000005,-1.1289328784380432e-27,0.00048768953873737879,0.15259947593175283,0.0062128937219295749,0.0028474502297250312,0.0024855272363104581,0.016948982180016278,0.00032594491397369718,3.95665193224614e-07,0.046126170477619959,0.011592003129592483,0.00089902651960813249,0.0042421334429504059,0.00034206227396386946,0.0033534148945825208,0.00017384349916917067,7.8097670585051214e-05,0.004897053225044308,2.0985835284636681e-05,1.0642026019377885e-05,4.0995801942545063e-07,2.4179664895183477e-05,0.00057744061620468214,5.6662335563315952e-05,0.01152043924534942,0.0054024183139459387,2.3258437016469697e-05,9.4976317815017657e-06,0.008877176438284581,0.00089314603009450766,0.00020161551426718685,0.00036426239910788153,5.4410738439486976e-06,1.75065293902149e-06,1.0083316496439305e-05,1.8204005377628615e-10,1.409594329174152e-11,6.1829407365712066e-10,9.3925949282335858e-08,2.5264421413004638e-09,0.00033985869331035071,0.0
2.5259897371303982e-06,2674.6693805330797,3020403.7080534301,0.71804847000000005,-1.1289328784380432e-27,0.00049848601515431901,0.15128589797902003,0.0063380086942383248,0.0029043579004231694,0.0024989891554091747,0.017336790663083548,0.00031706925986674819,3.8834956382179693e-07,0.047248400247209957,0.011893741887231248,0.00090540157230504874,0.0042654983253687584,0.00034221003957784655,0.0033434124710519184,0.00017847124708613297,8.0222808805890486e-05,0.0046001705585226272,2.0806121407867721e-05,1.0545789017042245e-05,3.924637285475684e-07,2.384586560982632e-05,0.00057859932811470322,5.8300521599436908e-05,0.011425806403069267,0.0052824859155746768,2.2388325698168322e-05,9.5072905885498071e-06,0.0086747049038142978,0.00090300988238384478,0.00020419841450907962,0.00037666879735619169,5.1945171470843514e-06,1.5877744239047777e-06,9.319449302959311e-06,1.6837094791624743e-10,1.2883575634780156e-11,5.7143634212097844e-10,8.9654090385385418e-08,2.5462279904453786e-09,0.00030655810972647808,0.0
2.539437325004413e-06,2682.9857239695989,3020403.7080534305,0.71804847000000005,-1.1289328784380432e-27,0.00051002621905359049,0.14988116348287192,0.006471975371359978,0.0029659660065564082,0.0025127762422392143,0.017752640764995744,0.00030770486474201422,3.8054098284760147e-07,0.048450746193894292,0.012217038575969973,0.00091182667510753804,0.004286580897925777,0.00034192799533168551,0.0033301329926307133,0.0001833813082435696,8.2463183007962761e-05,0.0042994199953685476,2.0600025548759542e-05,1.0430575557893278e-05,3.7415750644190827e-07,2.3471679586805005e-05,0.00057925292610688621,6.0046927719445008e-05,0.011316102595331863,0.0051506810043393256,2.1468150594604802e-05,9.5166423649247732e-06,0.0084558091408160896,0.00091291388438835466,0.00020675829793282013,0.00038992083087937819,4.934360852179214e-06,1.4249958874587231e-06,8.5475922054855351e-06,1.5460839122631802e-10,1.1673218430270264e-11,5.2377916732255103e-10,8.5176998537724866e-08,2.5639851735052826e-09,0.00027303647105473671,0.0
2.5527687540785601e-06,2691.3833668951634,3020403.7080534329,0.71804847000000005,-1.1289328784380432e-27,0.00052156416693329203,0.14847551936971903,0.0066062553459788377,0.0030284335621095101,0.0025259597089357156,0.018169903069602925,0.00029847105198003889,3.7275731486862134e-07,0.049655872975863581,0.012541080229440508,0.0009178291855625381,0.0043036505180529486,0.00034119572797092364,0.0033141967670817229,0.00018824464144229301,8.4666690728325765e-05,0.0040150684061958028,2.0379849690292036e-05,1.0302915769841051e-05,3.5628798609049337e-07,2.3081046884268052e-05,0.00057931603409632621,6.1785537737722086e-05,0.01119762093883311,0.0050154816011785978,2.0559636388549057e-05,9.5250792937522633e-06,0.0082348059832084569,0.00092213524999720472,0.00020910303920457468,0.00040314576049294638,4.6786527433530687e-06,1.2741878059655201e-06,7.8214624249641179e-06,1.416991493399535e-10,1.0549131380113043e-11,4.787005499549997e-10,8.0800465750503565e-08,2.5781966352956158e-09,0.00024178855173957303,0.0
2.5648937142562466e-06,2699.148587991092,3020403.708053431,0.71804847000000005,-1.1289328784380432e-27,0.00053213395224685988,0.14718640440623662,0.0067296519972999983,0.003086482114182889,0.0025375259529994568,0.018553556876899517,0.00029012666892547386,3.656572231179957e-07,0.050762582786600854,0.012838638165276932,0.00092294060273012061,0.004315776184792207,0.00034013365587339802,0.0032972755313244776,0.0001926521353337766,8.6649432837673638e-05,0.0037682689405570428,2.0166048413729619e-05,1.0175277990892113e-05,3.4031808475499319e-07,2.2709885881245899e-05,0.00057886724643244395,6.3369196038099432e-05,0.011081407003600443,0.0048889082080150114,1.9738535038496807e-05,9.5320790972547228e-06,0.0080308037872520548,0.00092996681860561044,0.00021105653574006293,0.00041522550712150432,4.4489475277120007e-06,1.1465585353917307e-06,7.1956282055596574e-06,1.3059637418808865e-10,9.5925375056687015e-12,4.3968975270489113e-10,7.688476005195125e-08,2.5880748810289105e-09,0.00021522730436533989,0.0
2.5765269812893238e-06,2706.7083414350104,3020403.7080534333,0.71804847000000005,-1.1289328784380432e-27,0.00054233612752448341,0.1459405466416267,0.0068491810856503117,0.0031433091730577838,0.0025482391381369553,0.018925211163828039,0.00028217775461110331,3.5883990326198599e-07,0.051833274191468839,0.013126476345458124,0.00092750690085156027,0.0043242984137722967,0.00033875733833361413,0.0032788466661540631,0.0001968559612440835,8.8527123629928602e-05,0.0035419378477478027,1.9948958049776257e-05,1.0042609942610619e-05,3.2528127589544239e-07,2.2340546073883882e-05,0.00057798416445977243,6.4887198621854374e-05,0.010962333426860305,0.0047645288117916639,1.8957076715328946e-05,9.5382310562745882e-06,0.0078327865508618574,0.00093695038113091457,0.00021276044622057285,0.0004268402198372466,4.2318738757485572e-06,1.0328228058285805e-06,6.6265760657743415e-06,1.205146499078303e-10,8.7333138836812099e-12,4.0411701215259296e-10,7.3194978818996687e-08,2.5947352415580472e-09,0.00019149778827635475,0.0
2.5883936611357801e-06,2714.5249389138166,3020403.7080534305,0.71804847000000005,-1.1289328784380432e-27,0.00055279777759326934,0.14466114776260861,0.0069722580230374932,0.0032024464090154902,0.0025587759146772186,0.01930774625034307,0.00027413527555435749,3.5189353729595721e-07,0.052933702350724914,0.013422255207225106,0.00093179827741866276,0.0043297926357449062,0.00033699166269127482,0.0032578209363679591,0.00020110789063395291,9.0412075248575858e-05,0.0033214765953018684,1.9715650396091178e-05,9.8971386017259558e-06,3.1025940340018731e-07,2.1951418366129413e-05,0.00057662868678339408,6.6430541365905893e-05,0.010833266021835127,0.0046349978160154905,1.8167970861826629e-05,9.5439740017646535e-06,0.0076288790441793397,0.00094350710287051788,0.00021431734943791518,0.00043869138786584253,4.0144569118385342e-06,9.2563723417938246e-07,6.0779779189527221e-06,1.1080281260322939e-10,7.9152171395765762e-12,3.6975558408018395e-10,6.9507161221543191e-08,2.598609852840467e-09,0.0001691180339814924,0.0
2.5998910966815564e-06,2722.1940991257079,3020403.7080534273,0.71804847000000005,-1.1289328784380432e-27,0.00056298028955430125,0.14341388111241699,0.0070926180185301212,0.0032608971297052309,0.0025686043192516311,0.01968150870889103,0.00026641411908431736,3.451828375258544e-07,0.054007158920032272,0.013710715161961859,0.00093557874394906203,0.0043319844749797895,0.00033493258843090597,0.0032352972096674859,0.00020518163829055024,9.2203679868559018e-05,0.0031177478806364341,1.9478403090957391e-05,9.7466114665056565e-06,2.9603423584940728e-07,2.1563401015245767e-05,0.00057488019552198581,6.7917287527315535e-05,0.010700957911215649,0.0045072521743671889,1.7412672566151913e-05,9.5490586833749026e-06,0.0074298428717249829,0.00094928417421587198,0.00021564295141381407,0.00045015591247227974,3.8082383784757093e-06,8.3020754815595451e-07,5.5771186109226525e-06,1.0193805424453784e-10,7.1777359025114477e-12,3.3834835674052929e-10,6.601456455500188e-08,2.5994884946404619e-09,0.00014921653633962335,0.0
2.6113885322273326e-06,2729.9516015056984,3020403.7080534166,0.71804847000000005,-1.1289328784380432e-27,0.0005732022566011715,0.14215962433174184,0.007214080972381731,0.0033205099297921544,0.0025780549159331377,0.020058177929563638,0.00025877001820875261,3.3850297715956642e-07,0.05508707194224359,0.014000823548179515,0.00093896409627253425,0.0043310519132869736,0.0003325320751698401,0.0032106545441300755,0.00020919905584900961,9.3955723975641987e-05,0.0029235636547875776,1.9230387735212664e-05,9.5868751133464368e-06,2.8215417201282341e-07,2.1165467206321243e-05,0.00057270709383697659,6.9391873561999918e-05,0.010561609347718067,0.0043776215844161838,1.6667931235123615e-05,9.5537027545711138e-06,0.0072297240939794187,0.00095446659016417529,0.00021678098683658472,0.00046158150788652756,3.6068794661084329e-06,7.4287330507487544e-07,5.1062170754582555e-06,9.3600994977887243e-11,6.4931783918969568e-12,3.0880872210581849e-10,6.2607700717394658e-08,2.5974853502557899e-09,0.00013106340835309629,0.0
2.6228859677731089e-06,2737.7910916593573,3020403.7080533244,0.71804847000000005,-1.1289328784380432e-27,0.0005834575931845385,0.14089896059363449,0.007336657200308452,0.0033813118131361176,0.0025871245362603726,0.020437572341044624,0.00025120968471738757,3.3186521622231547e-07,0.056172722803067912,0.01429236790891758,0.00094193113370421905,0.0043269596187169804,0.00032979279380950226,0.0031838984372587649,0.00021314870234442096,9.5662753868992154e-05,0.0027387358570341558,1.8971887346391293e-05,9.4181877176741926e-06,2.6863724513940078e-07,2.0758510840000326e-05,0.00057011397854808351,7.0850488873253973e-05,0.010415354518384693,0.004246441512997602,1.59351307592565e-05,9.5579359453480304e-06,0.0070288863295439007,0.00095902751024640209,0.00021772455356953857,0.0004729466125002644,3.4108109397509028e-06,6.63352233548615e-07,4.66486884215682e-06,8.5780603666753268e-11,5.8599138040932168e-12,2.8113236581203036e-10,5.9292347756098674e-08,2.5925601026480157e-09,0.00011462727956104979,0.0
2.6353756601605022e-06,2746.3921093973086,3020403.7080533146,0.71804847000000005,-1.1289328784380432e-27,0.0005946287466080597,0.13952294389889086,0.0074710886506451487,0.0034487405427364413,0.0025965415736736073,0.020852575237347123,0.00024309923756239026,3.2471510011124986e-07,0.057357701102184723,0.014610443747618038,0.00094465361230661659,0.0043189007043216467,0.00032643788856477423,0.0031524522892332368,0.00021734867514842918,9.7459652922591349e-05,0.0025483207098349757,1.8679563213500294e-05,9.2251467581243321e-06,2.5438302341648466e-07,2.0307241665329238e-05,0.00056682756012747814,7.2412319163336477e-05,0.010248846768773176,0.0041025880790644918,1.5154156863449273e-05,9.562101950850715e-06,0.0068103229140364504,0.0009632478903205126,0.00021852194419663795,0.00048519847108329699,3.204247724368118e-06,5.8540230563365543e-07,4.2182509372439931e-06,7.7855961305770846e-11,5.2279315662248391e-12,2.5315564009519701e-10,5.580053846576965e-08,2.5838656088984483e-09,9.8653853449900234e-05,0.0
2.6470096445574875e-06,2754.4754991620007,3020403.7080533016,0.71804847000000005,-1.1289328784380432e-27,0.00060505670950731854,0.13823574861844418,0.0075975226072839425,0.0035128723632749082,0.0026049022918516432,0.021241610957275225,0.00023564697912196718,3.1812320955521897e-07,0.058465925329769471,0.014907761896816054,0.00094669615433168059,0.0043079861099180059,0.00032296346435152794,0.0031209506541936423,0.00022116282535001886,9.9073511093298995e-05,0.0023804186838469899,1.8396859802607663e-05,9.0365268304920744e-06,2.4152116235815818e-07,1.9879238393417437e-05,0.00056333352415747682,7.3841516358322446e-05,0.010086817344882027,0.0039677108499817293,1.4442167180347365e-05,9.5656069567337565e-06,0.0066067589112619981,0.00096646477581512416,0.00021904549218270956,0.00049649853125279637,3.018197919898607e-06,5.2023227624850961e-07,3.8321784158447338e-06,7.0992474243181198e-11,4.6893629003431315e-12,2.290143288344503e-10,5.2655496837972034e-08,2.5726173007779664e-09,8.5453712719724015e-05,0.0
2.6586436289544729e-06,2762.619920636871,3020403.708053295,0.71804847000000005,-1.1289328784380432e-27,0.00061549961168130775,0.13694397840665148,0.0077251452881658056,0.0035783099247889334,0.0026128632537766321,0.021632804521574619,0.0002282996534582484,3.1160815564240318e-07,0.059577582496272173,0.015205830096696139,0.00094823983911695184,0.0042937707582871801,0.00031915919380827803,0.0030873444828312178,0.00022486927869311935,0.00010062362958509478,0.0022213992976692957,1.8104518198205237e-05,8.8398172879462258e-06,2.2907063568387841e-07,1.944476740522287e-05,0.00055942983424814145,7.5241672871455379e-05,0.0099183481429785166,0.0038323628129522209,1.3746327042677728e-05,9.5687769142479914e-06,0.0064035939957528638,0.00096896856391120881,0.00021935264502932831,0.0005076666270338627,2.838552802143774e-06,4.6174442488014173e-07,3.4740701712190789e-06,6.4611298011417571e-11,4.1967420931972454e-12,2.0667373485883531e-10,4.9618039972664739e-08,2.5583297354580384e-09,7.377426727615748e-05,0.0
2.6702776133514582e-06,2770.8171510378138,3020403.7080532787,0.71804847000000005,-1.1289328784380432e-27,0.00062595107850583239,0.13564832110060412,0.0078539774127975547,0.0036450824008556239,0.0026204213004588869,0.022025932332265769,0.00022106281261161055,3.0518016855495673e-07,0.060691828367180706,0.015504400714691129,0.00094926310854010561,0.0042762495258944783,0.00031503345710746851,0.003051667294634366,0.00022845502645508115,0.00010210422404404421,0.002071006705998869,1.7802959820404095e-05,8.6354533143380911e-06,2.1703880083318849e-07,1.9004702437067002e-05,0.00055512498341989179,7.6608525211508449e-05,0.0097437066473055681,0.003696910958047086,1.3067723052164578e-05,9.5716369472322135e-06,0.0062011870912849288,0.00097073750587606852,0.00021943941293676777,0.00051867981681001521,2.6655184998996202e-06,4.094298682782089e-07,3.1429052270180511e-06,5.8693718727893497e-11,3.7476071987350123e-12,1.8607374094640461e-10,4.6691165561688413e-08,2.5410165764054735e-09,6.3506167629151213e-05,0.0
2.6813653914523717e-06,2778.6708960319938,3020403.7080533216,0.71804847000000005,-1.1289328784380432e-27,0.00063591388286702796,0.13441052173655729,0.0079779073077863513,0.0037099889625233696,0.0026272465672839539,0.022402191608667701,0.00021427333136010113,2.9914396664882825e-07,0.061755379414294827,0.015789190244270553,0.00094973512273024507,0.0042564771671548419,0.00031081116340846387,0.003015774730394937,0.00023174802594867229,0.00010344533700071044,0.0019354590981514798,1.7507394147972971e-05,8.4339954965126081e-06,2.0596596525721329e-07,1.858087553785213e-05,0.00055065745295814384,7.7876284103167124e-05,0.0095717888229583676,0.0035680528496924309,1.2437913662637812e-05,9.5740960209689709e-06,0.006009309426247951,0.0009717212504446297,0.00021931411609407855,0.00052901094480425903,2.5069019698514429e-06,3.6484091224863149e-07,2.8513370234634552e-06,5.3469195228616033e-11,3.3576951287467317e-12,1.6799725593249416e-10,4.4006715145355092e-08,2.521726818418846e-09,5.4925934326539124e-05,0.0
2.6925048280749478e-06,2786.5941629334839,3020403.7080534101,0.71804847000000005,-1.1289328784380432e-27,0.00064591920058910989,0.13316467306480734,0.0081035626872462286,0.0037764706237378388,0.002633729254844269,0.022781554015837386,0.00020756227930519329,2.9317635595482175e-07,0.062824694443869233,0.016075312170816928,0.00094969745518114213,0.0042336022776394656,0.00030629375483974357,0.002977899028042204,0.00023492233225701746,0.00010471889314806342,0.0018066848126598782,1.7202850707763398e-05,8.2254811340444606e-06,1.9523112131408657e-07,1.8151469247998595e-05,0.00054581961772904892,7.9111826520746533e-05,0.0093939695653021456,0.0034391371077261185,1.1822574868497724e-05,9.5763243414610962e-06,0.0058178484271996294,0.00097200354124993271,0.00021898177332497321,0.00053920816206121981,2.3538265842730145e-06,3.2476498476662012e-07,2.5809806372274952e-06,4.8604967395473258e-11,3.0011423328573184e-12,1.512979613837314e-10,4.1414309430318107e-08,2.4996449141480204e-09,4.7382887223022814e-05,0.0
2.703425797267804e-06,2794.3865877780577,3020403.708053235,0.71804847000000005,-1.1289328784380432e-27,0.00065571872514889743,0.13194165692788593,0.0082278923003592259,0.003842910747469125,0.0026397176032903189,0.023154583867050906,0.00020109376766603985,2.874273487218934e-07,0.063873068216114548,0.016355609704503442,0.00094914694775992316,0.0042082639626886496,0.00030160735402382877,0.0029390447722788065,0.00023789270627998121,0.00010589093577777537,0.0016874007952590048,1.6897309723575703e-05,8.015567534562657e-06,1.850862393189959e-07,1.7727666685113262e-05,0.00054074584923723319,8.0282434665307289e-05,0.0092149595747681636,0.0033135648183150348,1.1236864228898501e-05,9.5782911245958968e-06,0.0056316955557033305,0.00097157974014606052,0.00021845379420119124,0.00054900971083872386,2.2099171678911853e-06,2.8964443352896475e-07,2.3368241053594459e-06,4.4199176050038652e-11,2.6836030903892225e-12,1.3627852852019669e-10,3.897524246407762e-08,2.4754168510128102e-09,4.0932956156169845e-05,0.0
2.7139366327684256e-06,2801.9023554450146,3020403.7080534259,0.71804847000000005,-1.1289328784380432e-27,0.00066513582715315637,0.13076365197456916,0.0083486377088315081,0.0039080575284372197,0.0026451349152975434,0.023514446687300069,0.00019497515918924499,2.8199567746722041e-07,0.064881393984578428,0.016624979798641231,0.00094812364982480273,0.0041811767630760962,0.00029686660640508057,0.0029000869442987963,0.00024060872222305324,0.00010694315421800367,0.0015788828846258873,1.6597134884069192e-05,7.8088573811881736e-06,1.7567598538574824e-07,1.7317763352246594e-05,0.00053556237293481222,8.1367734360241828e-05,0.0090385733138303621,0.0031937228283302624,1.0690050701036923e-05,9.57999579534311e-06,0.0054542314415247269,0.0009705058885586561,0.00021775607832754502,0.000558243611623305,2.0771937713370325e-06,2.593692617433686e-07,2.1203680137681771e-06,4.0276602001359496e-11,2.4059083034835649e-12,1.2302062362368266e-10,3.6723786257490038e-08,2.4497444882335721e-09,3.5516677783015981e-05,0.0
2.7254859410627907e-06,2810.1707190688303,3020403.7080534203,0.71804847000000005,-1.1289328784380432e-27,0.00067546060328785372,0.12946889200001652,0.0084825635547822499,0.0039810240241344545,0.0026506925798757569,0.023910590434077176,0.00018837647380677235,2.7614902258773583e-07,0.065987760688746788,0.016920278490948366,0.00094642718804448852,0.0041483924331077674,0.00029141000845646169,0.0028555717436972677,0.00024341979025285394,0.00010800886287632597,0.0014664905196638902,1.6260881876539564e-05,7.5769765283861657e-06,1.6573314640218323e-07,1.6865770413671459e-05,0.00052953818503872845,8.2509775766388769e-05,0.0088404530581069531,0.0030634615375756198,1.010877254220951e-05,9.5816725588227162e-06,0.0052614229676803178,0.00096856201079697959,0.00021677509513076367,0.00056814575793387478,1.9378847453756652e-06,2.2969110208364685e-07,1.9023091511809606e-06,3.6308844366067287e-11,2.1300872520284111e-12,1.0972829547313248e-10,3.4358206647041072e-08,2.4189518113215197e-09,3.0359449782128994e-05,0.0
2.7370283088015295e-06,2818.4360118533182,3020403.7080533779,0.71804847000000005,-1.1289328784380432e-27,0.00068574830295845804,0.1281752489790724,0.0086177425938401449,0.0040554183226913718,0.0026558299987812974,0.024307011366872893,0.00018191529682943058,2.7044005146314041e-07,0.067090929373885125,0.017214436171101445,0.00094411986120500617,0.0041125114645540481,0.00028571276687112593,0.0028093649740821721,0.00024603546288463397,0.0001089744206407145,0.0013610451251563523,1.5918652871083864e-05,7.3408759333076256e-06,1.5620729343846136e-07,1.6413099763971685e-05,0.00052318623963035855,8.3594409544333952e-05,0.0086383096390054079,0.002935038962819294,9.5486689016697976e-06,9.5831594707227153e-06,0.0050712925320256863,0.00096581069829727102,0.00021557128148905208,0.00057776784644086724,1.8054439695474891e-06,2.0338955331743485e-07,1.70381650162816e-06,3.2680270102852204e-11,1.8827301160895495e-12,9.7693134922978713e-11,3.2106527546172346e-08,2.3855718160176311e-09,2.5935530655173677e-05,0.0
2.7479125181335816e-06,2826.223784609615,3020403.7080533397,0.71804847000000005,-1.1289328784380432e-27,0.00069541435826582444,0.12695635753166024,0.008746457940534566,0.0041269402318902648,0.0026602889320585009,0.024681070286252632,0.00017594766428324942,2.6518539015936789e-07,0.068128055455720218,0.017490710870813466,0.00094137269682950209,0.0040758709205120734,0.00028013174057297895,0.002764288153281667,0.00024831326577376108,0.00010978946655849927,0.0012676481811740054,1.5590794988712164e-05,7.1148299907402786e-06,1.4759572345791585e-07,1.598601496808245e-05,0.00051690500091038647,8.4561702029479761e-05,0.0084442458943236633,0.0028157871925896375,9.0398094448729464e-06,9.5844029521074485e-06,0.0048945875709529548,0.00096246887013521178,0.00021423289558248593,0.00058657368563457218,1.6867011078002233e-06,1.8132909133979524e-07,1.5332794267539903e-06,2.9548003561262908e-11,1.6732807830048226e-12,8.7409542621200509e-11,3.0085043491524059e-08,2.3518104743723822e-09,2.2346993091090437e-05,0.0
2.7587967274656338e-06,2833.9979662042779,3020403.7080533067,0.71804847000000005,-1.1289328784380432e-27,0.0007050398094026743,0.12573907180005892,0.0088764022436837557,0.0041998114349877727,0.00266436987483954,0.025055143758148889,0.0001701038854291833,2.6006088264700721e-07,0.069161352238704121,0.017765693871973839,0.00093806183336500452,0.0040365607259481434,0.00027436299869233266,0.0027178209004066244,0.00025039734764829971,0.00011050795242637727,0.0011798575978129104,1.5258448087042223e-05,6.8860491025800543e-06,1.3933835806096541e-07,1.5559305059010277e-05,0.00051035272409087889,8.5471830797398496e-05,0.0082471748566817736,0.0026985358672213492,8.5498201242314209e-06,9.5855051139882564e-06,0.0047206022670011781,0.00095839687215239406,0.00021269920126575328,0.00059510493253359575,1.5738367548886646e-06,1.6164109442581027e-07,1.3778017790767918e-06,2.6678673184142924e-11,1.4850093965040807e-12,7.8086090585739378e-11,2.8160852079595473e-08,2.3159387305647903e-09,1.9250785330499054e-05,0.0
2.7696809367976859e-06,2841.7512038663326,3020403.7080532843,0.71804847000000005,-1.1289328784380432e-27,0.00071461803261932519,0.12452402983298769,0.009007595130466832,0.0042740503286549927,0.0026680689373864992,0.025429013915846378,0.00016438604795190669,2.5507113640282119e-07,0.07019005094667341,0.018039177531756736,0.00093417983738122603,0.0039946405211476162,0.00026842172861166056,0.0026700363118102115,0.00025227767117491347,0.00011112627345788567,0.0010974264589060762,1.4922116250841338e-05,6.6551082189919493e-06,1.3142851768446183e-07,1.5133534590528897e-05,0.00050354149125407565,8.632165008303733e-05,0.008047434875642849,0.0025834701232315955,8.0787439932891542e-06,9.5864775036814311e-06,0.0045495291345591616,0.00095359189138022739,0.00021097268016829603,0.00060334797318661252,1.4667457218816675e-06,1.44071085149825e-07,1.2363397400534985e-06,2.4055273267544568e-11,1.3161182066852164e-12,6.9652027103294257e-11,2.6332125426837366e-08,2.2780708743340506e-09,1.65823316822663e-05,0.0
2.780565146129738e-06,2849.4762104338361,3020403.7080532671,0.71804847000000005,-1.1289328784380432e-27,0.0007241422786724253,0.1233118709716286,0.0091400548367702866,0.0043496742070142291,0.0026713820329406068,0.025802461973756449,0.00015879597447591805,2.5022032332284452e-07,0.071213383048333231,0.018310957525090266,0.00092972076874915557,0.0039501768792889998,0.00026232369102495694,0.0026210114046111631,0.00025394455366113054,0.00011164107193769195,0.0010201092912015207,1.458231224081287e-05,6.422591634556134e-06,1.2385888324480607e-07,1.4709250147043481e-05,0.00049648375433171649,8.7108111408653401e-05,0.0078453697093771903,0.0024707578049202217,7.6265461456920977e-06,9.5873308456664536e-06,0.0043815456070419893,0.00094805292459957172,0.00020905636917713881,0.00061129020581351359,1.365305565025645e-06,1.2839089957054893e-07,1.1078805956666107e-06,2.1660886866468519e-11,1.1649058751328806e-12,6.2038850310136283e-11,2.4596770724710641e-08,2.2383292210436413e-09,1.4284396927895653e-05,0.0
2.7914493554617901e-06,2857.1657809574713,3020403.7080532466,0.71804847000000005,-1.1289328784380432e-27,0.00073360569902721808,0.1221032343302105,0.0092737978785210739,0.004426699199685402,0.0026743048875352959,0.026175268837248914,0.00015333522330055063,2.4551218566589105e-07,0.07223058203235147,0.018580833583842233,0.00092468023802858316,0.0039032431676543924,0.00025608512643914569,0.0025708268126457545,0.00025538873517048932,0.00011204926252415528,0.00094766301339416778,1.4239555438060773e-05,6.1890892216329711e-06,1.1662161799762766e-07,1.4286979933233179e-05,0.00048919228850085152,8.7828275373465797e-05,0.0076413273759513723,0.0023605495499906277,7.1931194433776294e-06,9.5880750786903608e-06,0.0042168136342132737,0.0009417808183099295,0.00020695384840631369,0.00061892010884705281,1.2693787164584502e-06,1.1439673296204748e-07,9.9144847760561726e-07,1.9479535353683906e-11,1.0297721692564567e-12,5.5180760861506452e-11,2.2952450045609165e-08,2.1968430361250504e-09,1.2306670998667703e-05,0.0
2.8023335647938423e-06,2864.8128082423582,3020403.7080532797,0.71804847000000005,-1.1289328784380432e-27,0.0007430013743891349,0.12089875722826707,0.0094088387329071699,0.004505140216965616,0.0026768330565031103,0.026547215717652364,0.00014800508972639341,2.4095004413434742e-07,0.073240885206118267,0.018848610223794155,0.00091905545885906555,0.0038539193660244928,0.00024972265611857437,0.0025195664589877319,0.00025660144846736895,0.00011234805717526583,0.00087984783129339914,1.3894369724457211e-05,5.9551925453082951e-06,1.0970847767347811e-07,1.3867233307947678e-05,0.00048168014451305149,8.8479323981801569e-05,0.0074356590200784301,0.0022529790143501999,6.7782904371579394e-06,9.5887193936723253e-06,0.0040554794035292056,0.0009347783112165517,0.00020466922997190414,0.00062622730140777605,1.178814534144884e-06,1.0190696210728758e-07,8.8610885141106763e-07,1.7495723962537986e-11,9.0921964355271483e-13,4.9015005283703351e-11,2.1396629689920992e-08,2.1537473917072066e-09,1.0605215626591819e-05,0.0
2.8132177741258944e-06,2872.4102977832658,3020403.7080533002,0.71804847000000005,-1.1289328784380432e-27,0.00075232234445627268,0.11969907358133178,0.0095451895313938689,0.0045850109000527767,0.0026789619476530854,0.026918084749065815,0.00014280660812641347,2.3653680775999323e-07,0.074243535516367615,0.01911409745630337,0.00091284529519063964,0.0038022918419495884,0.0002432531786931805,0.0024673172071431951,0.0002575744899368122,0.00011253498937889239,0.00081642807255603346,1.3547281317525253e-05,5.7214909157691385e-06,1.0311090845276497e-07,1.345050027492045e-05,0.00047396060071955038,8.905857353273747e-05,0.0072287177723319345,0.0021481631994105911,6.3818253390380218e-06,9.589272272095453e-06,0.0038976731858627136,0.0009270500777884197,0.00020220714705864522,0.00063320259559885704,1.0934512698198344e-06,9.0759916343606922e-08,7.9097181818721606e-07,1.5694442601217938e-11,8.0185575254450041e-13,4.3482119210152495e-11,1.9926587748315798e-08,2.1091820003926686e-09,9.1418415088617108e-06,0.0
2.8241019834579465e-06,2879.9513824279907,3020403.7080533234,0.71804847000000005,-1.4732623738458265e-27,0.00076156163801289643,0.1185048122589752,0.0096828597661841598,0.004666323574210306,0.0026806868509520387,0.027287659603457116,0.00013774055488654255,2.3227498529022041e-07,0.075237783388649282,0.019377111481212343,0.0009060503029063126,0.0037484530831104266,0.00023669376377513063,0.002414168493210717,0.00025830029053688192,0.00011260793735716211,0.00075717295453242128,1.3198816580165297e-05,5.4885674343708857e-06,9.6820132777539444e-08,1.3037250946857187e-05,0.00046604711551348298,8.9563488026495351e-05,0.0070208575847005572,0.0020462028549388333,6.0034359414593297e-06,9.5897415245872548e-06,0.0037435093039735281,0.0009186027709425377,0.00019957274266731192,0.00063983804006354698,1.013117952584188e-06,8.0811723315975116e-08,7.0519440825597662e-07,1.4061618214484288e-11,7.0638999606651363e-13,3.8526085369118986e-11,1.853949092726301e-08,2.0632900068188611e-09,7.8834694998056312e-06,0.0
2.8385043665150053e-06,2889.831891355303,3020403.7080533938,0.71804847000000005,-2.1761169224843281e-27,0.00077365003210340139,0.11693391495399982,0.0098670689068137002,0.0047761544254897384,0.0026823401722273809,0.027774340946103416,0.00013124137831974124,2.2687188376435829e-07,0.076539234200744447,0.019721039423165179,0.00089616411277452818,0.0036739809242620379,0.00022790503171642181,0.0023426138797815067,0.0002588690803675768,0.0001125263243640545,0.00068478326835643051,1.2736491983008308e-05,5.1825244535001793e-06,8.8952306340219399e-08,1.2496541935533487e-05,0.00045530075268336698,9.0113330063709785e-05,0.0067449987405134608,0.0019158168838926614,5.529941813945233e-06,9.5902460555971277e-06,0.0035452781403643285,0.00090633474756025389,0.00019583159925338204,0.00064808472384728761,9.14244902057493e-07,6.9274531982106323e-08,6.0473080571103265e-07,1.2137157405953867e-11,5.9634224429931148e-13,3.2765871713866066e-11,1.6826484666166078e-08,2.0007726735127366e-09,6.4853278037551525e-06,0.0
2.8502942384617305e-06,2897.8272496765894,3020403.7080534007,0.71804847000000005,-1.9910968102933184e-27,0.00078341897598062078,0.11565683971568323,0.010019596458285825,0.0048679714011989183,0.0026831529802807961,0.028170433335256821,0.0001260947782374812,2.2265172459322289e-07,0.077591514969898023,0.019998854150234818,0.00088731894924618524,0.0036104331060746262,0.00022064329130055249,0.0022831377047439617,0.00025899384153818219,0.00011230654898101595,0.00063030589907468856,1.2357761239242114e-05,4.9346586318764003e-06,8.288526463567477e-08,1.2059730422145001e-05,0.0004462908428293133,9.0459938317545566e-05,0.006519011938047649,0.0018130238226484105,5.1648317235516159e-06,9.5905699599685492e-06,0.0033880109069141327,0.00089538406388009625,0.00019256187604531276,0.00065437545541161414,8.3933064454836536e-07,6.1043914057323001e-08,5.3245716751571298e-07,1.0743459416375276e-11,5.1846569228576576e-13,2.8655515475427948e-11,1.5523542742400843e-08,1.948293503693105e-09,5.5316174440611802e-06,0.0
2.8620841104084556e-06,2905.7303349864383,3020403.7080534059,0.71804847000000005,-1.8554261540173077e-27,0.00079306459278231955,0.1143885691438097,0.010173682532033261,0.004961517235218333,0.0026834725340821024,0.028564165758322317,0.00012110446070069568,2.1861593152372181e-07,0.078631036440020799,0.020273097346208895,0.00087780523157621345,0.003544709089403597,0.0002133440396185333,0.002222980074822683,0.0002588049447482195,0.00011194792282477885,0.00057984613955828948,1.1979485954289929e-05,4.6899204977222734e-06,7.7142214684990845e-08,1.1628701462454321e-05,0.00043710802940267953,9.0710715492911098e-05,0.0062933494794001057,0.0017138482857191239,4.8193891647521204e-06,9.5908216516621642e-06,0.0032353360903652809,0.00088363428185932354,0.00018911480507116118,0.00066024701004565992,7.6958112819827702e-07,5.3771808890037741e-08,4.6822439631938098e-07,9.4973464053069881e-12,4.5025336589048226e-13,2.5029236111654472e-11,1.4305809697419233e-08,1.8948415786273856e-09,4.7219270741121626e-06,0.0
2.8738739823551808e-06,2913.5333648132896,3020403.7080534203,0.71804847000000005,-1.8664403724281304e-27,0.00080257840446739759,0.11312984827930783,0.010329320280682775,0.0050567994181445527,0.0026832928320463358,0.028955281164293342,0.00011627003214128032,2.1476564050476173e-07,0.079656916898332139,0.02054358021185624,0.00086763365088259904,0.0034769555374317054,0.00020602828681915819,0.0021622630743168315,0.00025829739085997269,0.00011145000080543532,0.00053314764962269666,1.1602302652186942e-05,4.4489581121983393e-06,7.1711689337147393e-08,1.1203932085055485e-05,0.00042776975098252231,9.0863489213547928e-05,0.0060684468702826488,0.0016183343402640838,4.4930262293244917e-06,9.5910078501229414e-06,0.0030873121449218853,0.00087110553283741422,0.00018549958538339073,0.00066569662794242117,7.0475275554299814e-07,4.7348458425442351e-08,4.1123431456963351e-07,8.385026003222362e-12,3.9059513882826445e-13,2.1835572336497864e-11,1.3169327729347556e-08,1.8406005334733365e-09,4.0344658348382861e-06,0.0
2.8858599554421468e-06,2921.355890463833,3020403.7080534184,0.71804847000000005,-1.8702994037388382e-27,0.00081210680953444831,0.11186072822017805,0.010489124675789337,0.0051554517905150234,0.0026825923770765572,0.029349961091096638,0.00011151426719652821,2.1104217638823694e-07,0.080684993954534948,0.020814526253003493,0.00085663209246186929,0.0034061513846505138,0.0001985950188250197,0.0021000890932223234,0.0002574509872088811,0.00011080117303699308,0.00048927483896631834,1.1220604931443455e-05,4.2084895825225636e-06,6.6499466515381976e-08,1.0778973756428231e-05,0.00041813468683034853,9.0916422031282678e-05,0.0058410226166263944,0.0015250117848066922,4.1801514940582884e-06,9.5911362699771395e-06,0.0029416337440214611,0.00085759362485064673,0.00018166194470974962,0.00067080337932762062,6.4363863186961804e-07,4.1588201670700854e-08,3.5996377696205874e-07,7.3781716765299594e-12,3.3768399315519743e-13,1.8983862017518511e-11,1.209315745207359e-08,1.7848339966308726e-09,3.4417765196031822e-06,0.0
2.897593008904735e-06,2928.8984194405939,3020403.7080534091,0.71804847000000005,-1.8706642204959367e-27,0.0008212857769418064,0.11062938558349113,0.010647079826401404,0.0052537689845591215,0.0026813955310512677,0.029733196326285863,0.00010701319674156945,2.0758395003936476e-07,0.081676024547396725,0.021075651095991108,0.00084523308017292519,0.003335120318862927,0.00019134253273267151,0.0020389134905269141,0.00025629755000789887,0.00011002754036026044,0.00044960999106816646,1.0849284917815561e-05,3.9780671113632915e-06,6.1687297037990917e-08,1.0370114102488438e-05,0.0004085821236123158,9.0866714387801702e-05,0.005620006784528106,0.0014373586031304806,3.8916985339919044e-06,9.5912080383984184e-06,0.0028037446486529126,0.00084363626661607745,0.00017775716764936172,0.00067537983703075703,5.8824935916805488e-07,3.6614922861398013e-08,3.1560985853902558e-07,6.5017994676544456e-12,2.9254778678934087e-13,1.6535262774533436e-11,1.1113113835177356e-08,1.7298116462932332e-09,2.9494974535426028e-06,0.0
2.9096709224764133e-06,2936.5366909100289,3020403.7080531539,0.71804847000000005,-1.9944892668695961e-27,0.00083057305281087398,0.10937392693204218,0.010811226206932537,0.0053567813594862703,0.0026796298975655403,0.030124228980728064,0.00010253798201548973,2.0421684543378469e-07,0.08267948073076474,0.021340055760633882,0.00083286731600525727,0.0032603913419219162,0.00018392143775625356,0.0019757431095549457,0.00025477370937444164,0.00010908952711862716,0.00041193733058779517,1.0470060435515831e-05,3.7465637628876227e-06,5.7021792871461588e-08,9.9570070147401865e-06,0.00039864182761324089,9.0709392728003887e-05,0.0053945815516486494,0.001350944845111576,3.6124788207500752e-06,9.5912313366101652e-06,0.0026666781078344506,0.00082854381950072417,0.00017359588753860979,0.00067965682760005256,5.3556275272634535e-07,3.2103347195327526e-08,2.7533863916363471e-07,5.7011535361044205e-12,2.5212804315306054e-13,1.4328670469129546e-11,1.0176067571939891e-08,1.672902217310774e-09,2.5196111255230937e-06,0.0
2.9218319269116405e-06,2944.091398658099,3020403.708053303,0.71804847000000005,-2.0827897595063657e-27,0.00083975063448050145,0.10812291278440561,0.010978056599884945,0.0054623508140943331,0.0026773001680175921,0.030514154349412664,9.8192410436715781e-05,2.0102361443976473e-07,0.083671892666234177,0.021601631821444995,0.0008197910541635564,0.0031836745488357252,0.00017651436557138375,0.0019120661986329053,0.00025289536740405948,0.00010800209071145118,0.00037701414559613758,1.0091912845593955e-05,3.519821327182504e-06,5.2607677068580118e-08,9.5493990966800723e-06,0.00038854170218438774,9.0441304227218189e-05,0.0051701652440543791,0.0012678231244331406,3.3487514709502803e-06,9.5912077245453268e-06,0.0025336506197062431,0.00081263860993658352,0.00016927286623090514,0.00068352297665866463,4.8669643699426318e-07,2.8111074652919035e-08,2.3970913444923504e-07,4.9883258222698419e-12,2.168578712932864e-13,1.2391231286877773e-11,9.3020764650936787e-09,1.6154995153911634e-09,2.153357666055697e-06,0.0
2.9355227340006283e-06,2952.4246660804661,3020403.7080536769,0.71804847000000005,-2.0946876296759948e-27,0.0008498645416714452,0.10673108437114737,0.011167690275930923,0.0055834133983798263,0.0026740091213858894,0.030948275328994586,9.3490344720971143e-05,1.9766408729749575e-07,0.084766598544247007,0.021890374166220618,0.00080435010909740473,0.0030957643759905512,0.00016827674572919018,0.001840453936690366,0.000250371038758705,0.0001066098878036903,0.00034103769816642944,9.6713460082815945e-06,3.2727719436831992e-06,4.7963961957097384e-08,9.1009628080997834e-06,0.0003770838962130659,9.0007220526361936e-05,0.0049211020194207334,0.0011788608873339662,3.0718057564451142e-06,9.591130016459711e-06,0.0023898298046954604,0.00079392825327427119,0.00016426216214981241,0.00068735486761873461,4.3638816223751392e-07,2.4196218947383075e-08,2.0481542051819696e-07,4.2855449102389143e-12,1.8281038993184885e-13,1.0509039072911813e-11,8.3965306711387403e-09,1.5509637232270177e-09,1.807996976200842e-06,0.0
2.949213541089616e-06,2960.5673761225285,3020403.7080540597,0.71804847000000005,-2.1957641755941051e-27,0.00085973718945600184,0.10535768375972747,0.011359182509456464,0.0057068082276251981,0.0026700053087788042,0.031376943334035755,8.8986589145969197e-05,1.9455204749013638e-07,0.085836383248354797,0.022172888978440081,0.00078818488423935983,0.0030064726233591022,0.00016017000999112084,0.0017690949406670581,0.00024741908544539541,0.00010504486362185039,0.00030831648600242309,9.256988945537326e-06,3.0349898292131686e-06,4.3649266753842457e-08,8.6640158097365668e-06,0.00036555836848872417,8.943305186861232e-05,0.0046763690258346691,0.0010947111218193957,2.8149424045530355e-06,9.5910034377280805e-06,0.0022522335008845042,0.00077442187758053793,0.00015911726576143653,0.00069064664891688935,3.9072342713026021e-07,2.0816650809716813e-08,1.7476747210899195e-07,3.6760798213087357e-12,1.5392763224776559e-13,8.901947376849639e-12,7.5685945023371786e-09,1.4867390521700553e-09,1.5215831410955742e-06,0.0
2.9629043481786038e-06,2968.5112981881935,3020403.7080544559,0.71804847000000005,-2.0415019107601893e-27,0.00086935869477751274,0.1040035790992009,0.011552453911350909,0.0058325181107746838,0.0026652849372478201,0.031799854361495621,8.4677553255466846e-05,1.9168505610032129e-07,0.08688023732473453,0.022449049635579581,0.00077133853399912931,0.0029160620158769036,0.00015221664915073376,0.0016981642949757683,0.00024404885921541832,0.0001033133582378549,0.00027857686713342046,8.849574459220496e-06,2.8069694541454452e-06,3.964738407425885e-08,8.2389428675631488e-06,0.00035399006693960321,8.871952092370237e-05,0.0044364875858656418,0.0010152747718518401,2.5770669586654851e-06,9.5908328253215876e-06,0.0021207691630840751,0.00075418171527165043,0.00015385754832238435,0.00069341246953716037,3.4936122239662941e-07,1.79010064889377e-08,1.4893609814169804e-07,3.1484675414464516e-12,1.2945979896466681e-13,7.5319494391070505e-12,6.8128436750415366e-09,1.4230360137434206e-09,1.283787175312529e-06,0.0
2.9765951552675916e-06,2976.24895088217,3020403.7080548601,0.71804847000000005,-1.9509565922776074e-27,0.00087871992765571031,0.10266957782291551,0.011747413657312886,0.0059605203666349988,0.0026598458049221386,0.032216724041485692,8.0559305890930762e-05,1.8906017615341141e-07,0.087897227963497235,0.02271875874550178,0.00075385766353696791,0.0028247940537595977,0.00014443691514955416,0.0016278304032675197,0.00024027254614678888,0.00010142274987293189,0.00025156481831529234,8.4497801035326138e-06,2.5891095707619664e-06,3.5942460649999187e-08,7.82607226122503e-06,0.00034240330351081996,8.786809381810184e-05,0.004201941538885136,0.00094043513708452634,2.3570959064150009e-06,9.5906224216486807e-06,0.0019953243653109943,0.0007332739058494548,0.00014850274811229256,0.00069566872666022004,3.1197445680867e-07,1.5387204090016944e-08,1.2676538816653148e-07,2.6924937194756154e-12,1.0875911479413205e-13,6.3658282819091007e-12,6.1240773314070931e-09,1.360048134035246e-09,1.0860916602165597e-06,0.0
2.9902859623565794e-06,2983.7736238104831,3020403.7080552643,0.71804847000000005,-2.0893144855019108e-27,0.00088781255684730685,0.10135642421475988,0.011943959660151776,0.0060907865697888766,0.0026536874685133892,0.032627288277367245,7.6627613326999645e-05,1.8667401483590274e-07,0.088886502875439838,0.022981948122874529,0.00073579200367560342,0.0027329272669227556,0.00013684876583086502,0.0015582540800825303,0.00023610509458430509,9.9381396112282246e-05,0.00022704521563907281,8.0582263020684878e-06,2.3817137040383326e-06,3.2519000285188815e-08,7.4256769752613773e-06,0.00033082170359975173,8.6880987901094623e-05,0.0039731748634427369,0.00087006039475649201,2.153964200188991e-06,9.5903759419400045e-06,0.0018757694844178834,0.00071176807180011121,0.00014307283307725947,0.00069743380979837605,2.7825096464835697e-07,1.3221256121983797e-08,1.0776582025922288e-07,2.2990861555937211e-12,9.1267446482608281e-14,5.3746495986702786e-12,5.497341711815577e-09,1.2979516590751316e-09,9.214780503436205e-07,0.0
3.0044951161728979e-06,2991.3516260785223,3020403.7080553547,0.71804847000000005,-2.1008971766674399e-27,0.00089695737673099578,0.10001632662046907,0.012149503376113016,0.0062283420011492218,0.0026465369975520632,0.033046468412207944,7.2739526808875327e-05,1.8444587545408381e-07,0.08988310113330264,0.023248165682903034,0.00071648018091802516,0.0026372208714589792,0.00012919265506100859,0.0014870077969220267,0.00023138510149616422,9.711327141936355e-05,0.00020400079449424703,7.6611636383218988e-06,2.1777555476630463e-06,2.9247368226424343e-08,7.0235492679276593e-06,0.00031883158227136155,8.5716215023395781e-05,0.0037422888124321731,0.00080158802267426914,1.9598359200793692e-06,9.5900854549229837e-06,0.0017577622319853168,0.00068889339699777059,0.00013737937834456892,0.00069876785269926166,2.4680722394728508e-07,1.1290975140712785e-08,9.0940830491157758e-08,1.9483559824529717e-12,7.599409520405344e-14,4.504079021576132e-12,4.9074285246128235e-09,1.2346168643936506e-09,7.7943788855759651e-07,0.0
3.0198040404955233e-06,2999.2457559088712,3020403.7080555456,0.71804847000000005,-2.1007572788371253e-27,0.00090646873652416502,0.098599238890835217,0.012372572500075374,0.0063791791017726506,0.0026379725222295345,0.033489914289763327,6.8763887951927771e-05,1.823230553874204e-07,0.090921629591412728,0.023527069409899435,0.00069510253055474181,0.0025340085346196627,0.00012121077467747188,0.0014115274680748164,0.00022587545496537096,9.4512047782160653e-05,0.0001816599721334871,7.2446219881556074e-06,1.9710272183648151e-06,2.6024615411545849e-08,6.6058113130491323e-06,0.00030597560656282568,8.4306126654209949e-05,0.0035014418232199641,0.00073282480298480915,1.7684331747512633e-06,9.589736536300204e-06,0.0016373463377943253,0.00066371146174097422,0.00013120454256395717,0.00069966504875900891,2.1662915213150705e-07,9.5220439131746396e-09,7.5638445934114887e-08,1.6271641897894307e-12,6.230417091790997e-14,3.7189870257075961e-12,4.3352394452027717e-09,1.1678273232038218e-09,6.5326042856927854e-07,0.0
3.0350924485769494e-06,3006.8436490629001,3020403.7080556285,0.71804847000000005,-2.1007639715855353e-27,0.00091560645557709787,0.09721245378156973,0.012596832585017098,0.0065324767079348372,0.0026285367367267203,0.033924029471936804,6.5007742293172617e-05,1.8048440522961417e-07,0.091921530902697973,0.023797429305641781,0.00067323992920695992,0.0024311579712367765,0.00011353054060379382,0.001337654005169665,0.00021996482317947905,9.1766062372809448e-05,0.00016167606950460295,6.8408826123105384e-06,1.7780828466553536e-06,2.3099352418935213e-08,6.2048443497758713e-06,0.00029323009486211416,8.274347189326103e-05,0.0032695259458462842,0.00066911601369379651,1.5943403855064329e-06,9.589354195356063e-06,0.0015238261662023761,0.00063811276582818812,0.00012502273349481547,0.00070003302342065449,1.8996393730698888e-07,8.0297516084596837e-09,6.2840896796378015e-08,1.3567022505893411e-12,5.102458918028648e-14,3.0680437867275196e-12,3.823743203148175e-09,1.1027935019726359e-09,5.4984034312681579e-07,0.0
3.0534385382746607e-06,3015.5778542277258,3020403.7080556219,0.71804847000000005,-2.1007648096196014e-27,0.00092608676191405085,0.095586679899158505,0.012867624516114604,0.0067198374073929026,0.0026160659748022804,0.034433101311847812,6.077285377880832e-05,1.7863947203535439e-07,0.093071360395387284,0.024111182979302967,0.00064644234312029802,0.0023084798240735191,0.00010471445235290505,0.0012512287994597669,0.00021238256142862391,8.8298092510187432e-05,0.00014044177302882714,6.373272071708945e-06,1.5642348165707652e-06,1.994843559797406e-08,5.7451794772753573e-06,0.00027809816969569918,8.0675013586640733e-05,0.0030030865319556205,0.00059887779923266371,1.4061073402548192e-06,9.5888547760673121e-06,0.0013961421660516695,0.00060695439366558531,0.00011762235130726706,0.00069982471763097411,1.620683994047001e-07,6.5427708671652244e-09,5.0220859135862094e-08,1.0881022091618168e-12,4.0078556420561091e-14,2.4319877028666908e-12,3.2813662670649609e-09,1.0271571372063107e-09,4.4953069737645375e-07,0.0
3.0703834897653095e-06,3023.26901084467,3020403.7080556182,0.71804847000000005,-2.1007648484294385e-27,0.0009352900090317354,0.094122996502937636,0.013119057351405802,0.0068960624104080952,0.0026034574246346998,0.034891500741092658,5.7115165173201862e-05,1.7727541603675197e-07,0.094084151092926144,0.024390784369388283,0.00062126358160258786,0.0021963139474594435,9.6971122739165677e-05,0.0011737704557084761,0.00020495844939073874,8.4951473626657852e-05,0.00012319957342456157,5.9583212607529257e-06,1.3835553125520083e-06,1.7360007365665689e-08,5.3414578312922023e-06,0.00026431725130165356,7.8589285226753297e-05,0.0027688873790872458,0.00053968243997720223,1.2505675410825428e-06,9.5883576261755677e-06,0.0012861314211242067,0.00057790515296862147,0.00011084107426855245,0.00069905042393386132,1.3983860762506372e-07,5.4147963869645116e-09,4.0761007178973061e-08,8.8536293151360258e-13,3.2010236971618049e-14,1.9596724473616397e-12,2.8425877096594189e-09,9.5979860891043578e-10,3.7518649148853016e-07,0.0
3.0882930569506013e-06,3031.0026330024898,3020403.7080556187,0.71804847000000005,-2.1007648484632504e-27,0.00094451486129885844,0.092616215932088464,0.013385827244447425,0.0070854762866078749,0.0025890237182833063,0.035363417512044755,5.3502647654862022e-05,1.7617662727596701e-07,0.095102677883607864,0.024675902054764168,0.00059433467114017801,0.0020793892799926676,8.9211644415519302e-05,0.0010945763853009913,0.00019673491258191865,8.1291757226083789e-05,0.00010716420619589842,5.537939892019454e-06,1.2096611351740839e-06,1.4932225720887295e-08,4.9363993478199839e-06,0.00024999464627232365,7.6216794174923473e-05,0.0025340860286287956,0.0004826660238446645,1.1035191480915635e-06,9.5877979610169869e-06,0.0011777308967791998,0.00054709039516662302,0.00010376841676057536,0.00069767775646712468,1.1959170526722769e-07,4.433903303435286e-09,3.2637254471760927e-08,7.1018363083450955e-13,2.5194179212963439e-14,1.5576721902527072e-12,2.4365970812722111e-09,8.9136718245149693e-10,3.1162479678643363e-07,0.0
3.1090425089518133e-06,3039.4536406729853,3020403.7080557733,0.71804847000000005,-2.1007648484632497e-27,0.00095455435301458559,0.090922799684525629,0.01369571118359407,0.0073087460211673054,0.0025709284559167303,0.035893720309077101,4.9627311243768217e-05,1.7532737741251151e-07,0.096215634325535301,0.024993265819331884,0.00056290187520627202,0.0019465464384199615,8.077112402426978e-05,0.0010064911622756664,0.00018681139889030517,7.6931488688687484e-05,9.105827848906679e-05,5.0747428708758411e-06,1.0292412442384674e-06,1.2479348641738325e-08,4.494636083362956e-06,0.00023376150441381584,7.3274335431329119e-05,0.0022786669442477307,0.0004232323646365711,9.5323079185882844e-07,9.5871092112235791e-06,0.0010617236391728818,0.00051147077645457466,9.5744043054906046e-05,0.00069544603147656849,9.977319828343257e-08,3.5193526257736826e-09,2.5173866364212737e-08,5.4828476724316721e-13,1.9044424165725772e-14,1.1918343799744264e-12,2.031825740623169e-09,8.1578589925323692e-10,2.5304899468966715e-07,0.0
3.1288962196053386e-06,3047.0305859817854,3020403.7080559498,0.71804847000000005,-2.1007648484632497e-27,0.0009635102632622604,0.089355410998692986,0.013992481750385274,0.007525938899178279,0.002552297360096907,0.036384384555413214,4.6214304544832327e-05,1.7492203777422751e-07,0.097213139553436967,0.02528440282234886,0.00053277082749128427,0.0018225802578492394,7.3244628099645921e-05,0.0009260913964810692,0.00017701430260621951,7.2678166177123654e-05,7.781485622564118e-05,4.6557893799438997e-06,8.7663923990786435e-07,1.0457899573955191e-08,4.0991519820075201e-06,0.00021863871304301873,7.0289579987018757e-05,0.0020510665908246468,0.00037249481907889582,8.2745125845255544e-07,9.5864128620222826e-06,0.00095979331189686588,0.0004777009967295921,8.8283331643996169e-05,0.00069273934745766631,8.3960538782240431e-08,2.824284681274698e-09,1.9594522116247061e-08,4.2662207157941126e-13,1.4534644686659623e-14,9.2095813600243744e-13,1.7021940386579062e-09,7.4729952120286695e-10,2.0871218690935865e-07,0.0
3.1512316440905546e-06,3054.9661190445354,3020403.708056096,0.71804847000000005,-2.1007648484632497e-27,0.00097283225430734273,0.087654099176812397,0.014325942305044739,0.0077740568654093185,0.0025298888585057713,0.036916631218438384,4.2698955712722567e-05,1.7491779601752755e-07,0.098257041415298882,0.025598011681477389,0.00049902708582816508,0.0016873498016700607,6.5409496752391022e-05,0.00084036957113006706,0.00016576133135396206,6.7847110905180428e-05,6.5101041529179983e-05,4.2129118296597027e-06,7.2677579519504219e-07,8.5215262110744906e-09,3.685296090213455e-06,0.00020215799925376779,6.6767858313230649e-05,0.0018145463387917308,0.00032194047426966363,7.0454686957309113e-07,9.5855891805592945e-06,0.00085503229321703088,0.00044034970992858573,8.019610893357153e-05,0.00068911490456166895,6.9291634838429917e-08,2.2091914400339654e-09,1.4745162685732085e-08,3.2044540827592066e-13,1.0692730541968153e-14,6.8772316420764726e-13,1.389521124051376e-09,6.7481494864920216e-10,1.6927212282100095e-07,0.0
3.1760487824074613e-06,3063.0667187842187,3020403.7080561896,0.71804847000000005,-2.1007648484632497e-27,0.00098227022044102539,0.085840481676814101,0.014694988251069513,0.0080538697135682409,0.0025033281583220273,0.037483389725087343,3.9168970767108004e-05,1.7544095071262395e-07,0.099321049954570834,0.025930239759955617,0.00046199766549908348,0.001542974308346526,5.7466597114088462e-05,0.00075116151228376605,0.00015312952951292472,6.248430057429788e-05,5.3290631905617377e-05,3.7559472866605105e-06,5.8505741173833777e-07,6.7368230072139952e-09,3.2628379906954334e-06,0.00018456978810214468,6.2698454772530156e-05,0.0015755811391430087,0.00027306468662040279,5.8815198459884767e-07,9.5846276085824155e-06,0.00075005525120826991,0.00039997832949944639,7.1649072275332127e-05,0.0006844779278832718,5.6223179461087871e-08,1.687468531017536e-09,1.0718124842928262e-08,2.3201988406908442e-13,7.5742818163582332e-15,4.9594464956081744e-13,1.1036291000352323e-09,5.9997858483285289e-10,1.3524149074432069e-07,0.0
3.2033476345560586e-06,3071.1321749051945,3020403.7080562143,0.71804847000000005,-2.1007648484632497e-27,0.00099156453093325299,0.083937847976107469,0.015097855891399134,0.0083658525938575343,0.0024722953562997716,0.038076922964287815,3.5707949754753998e-05,1.7661220821494904e-07,0.10037761239034838,0.026277508874217811,0.00042216876025160299,0.0013919949404135347,4.961703897871935e-05,0.00066048722125502403,0.0001392835586724691,5.666986651063564e-05,4.2656965435539259e-05,3.2952831243435805e-06,4.5608898635853981e-07,5.15448421716501e-09,2.8417114313738235e-06,0.00016617453038115598,5.8097117776986009e-05,0.0013407686450607904,0.0002271477950261426,4.811310194539777e-07,9.5835175969259617e-06,0.00064732953675640309,0.00035734825974202596,6.2844275304389647e-05,0.00067877166834113753,4.5033600852549285e-08,1.2625266481473704e-09,7.5182458519108167e-09,1.61688590541163e-13,5.159692451762789e-15,3.4510181461406074e-13,8.5141952720588431e-10,5.245473417606573e-10,1.0660318377021621e-07,0.0
3.2319775396893447e-06,3078.6795553244729,3020403.708056129,0.71804847000000005,-2.1007648484632497e-27,0.0010001370971536912,0.082044548144699275,0.015515334367061968,0.0086966729742090181,0.0024379788106006681,0.03866599772479682,3.2511903069964885e-05,1.7845377139397171e-07,0.10136197821545423,0.026623230195651829,0.00038178454226338733,0.0012430997648307373,4.2325787832728463e-05,0.00057378251388871262,0.00012504879953054913,5.0753379996119504e-05,3.3688736738520403e-05,2.8580732933018497e-06,3.4718331458521254e-07,3.852171396867747e-09,2.4465398163179582e-06,0.00014802432849268142,5.3209926475789789e-05,0.0011245357552839646,0.00018667302541815499,3.8882177574356702e-07,9.5822987726798387e-06,0.00055263039248076612,0.00031506018933599662,5.4338008710962636e-05,0.00067225308409330029,3.6131028077817297e-08,9.4056338392384566e-10,5.1613882360343652e-09,1.0997065221432431e-13,3.4317156001159563e-15,2.3511489051818045e-13,6.440380590280993e-10,4.5303338215780924e-10,8.3778614356646916e-08,0.0
3.2671776591012367e-06,3086.7552732063041,3020403.7080560843,0.71804847000000005,-2.1007648484632497e-27,0.0010091231516117332,0.079856115646429873,0.016019180837903692,0.0091066655101650299,0.0023937657239199721,0.039344113723132415,2.9129282187571885e-05,1.8148614439456579e-07,0.10240731273611027,0.027025567843804346,0.00033457498427661055,0.001073944303425033,3.4579198483501298e-05,0.000478739620880874,0.00010826889591574418,4.3849389862104947e-05,2.5115734911705709e-05,2.38209929499525e-06,2.4424363055988921e-07,2.6534045511296199e-09,2.0215077855635558e-06,0.00012739281194398914,4.7235224319219515e-05,0.00089782008961701966,0.00014605107733909004,2.9828956383001289e-07,9.5807290136376512e-06,0.00045255518734240227,0.0002669813903696664,4.4952011411425589e-05,0.00066368877603463917,2.8201363895629221e-08,6.6761083348259024e-10,3.2308401523788404e-09,6.7830546424410653e-14,2.0633556819194639e-15,1.4594749877861362e-13,4.5229338523407477e-10,3.7536211608711819e-10,6.2912077596828271e-08,0.0
3.3060667804372454e-06,3094.2567357824973,3020403.7080560564,0.71804847000000005,-2.1007648484632497e-27,0.0010172174831400813,0.07761009662784582,0.016560535582485113,0.00956102670837106,0.0023430253511616999,0.04003558677702649,2.6010450533800645e-05,1.856871941015826e-07,0.10336534463052677,0.027445513271392944,0.00028611432856463613,0.00090535017363303988,2.7425871759446768e-05,0.00038795803309609638,9.1028166738002267e-05,3.6826171594778652e-05,1.8082896581889234e-05,1.9301735774752807e-06,1.6223973250623841e-07,1.724840236916006e-09,1.6232048429342485e-06,0.00010682723879867694,4.0836413532172772e-05,0.00069260172355799503,0.00011082735157608923,2.2173157706540539e-07,9.5789101990208278e-06,0.00036040332376058775,0.00021938460174703042,3.5974785667409981e-05,0.0006537568617184013,2.2237543262518069e-08,4.7247347898726201e-10,1.9104834150998422e-09,3.9313389294219963e-14,1.1653666198875878e-15,8.5613058737808521e-14,3.0196041686948996e-10,3.0192361206514463e-10,4.6278715694273314e-08,0.0
3.3567689210768081e-06,3102.0531224289725,3020403.7080559568,0.71804847000000005,-2.1007648484632497e-27,0.0010252185056260036,0.074937296526193325,0.017236839067683713,0.010150214989173127,0.0022752344447150986,0.040849673306157408,2.2774579368025817e-05,1.922504495828812e-07,0.10433537693439202,0.027962593239305365,0.0002294939045837613,0.00071428829774066729,2.0013012182612764e-05,0.00029036346774452001,7.1088484456269976e-05,2.8782414202000928e-05,1.1718430745613352e-05,1.4465249385782839e-06,9.2210112001474631e-08,9.5529850028035771e-10,1.2030592965600475e-06,8.3552141098028513e-05,3.3065181542210744e-05,0.00048629916404986542,7.6805920767637409e-05,1.4981802486722786e-07,9.576416964734766e-06,0.00026487435878155656,0.000166454491784135,2.6390235520516074e-05,0.00064040730366795261,1.7384934663557622e-08,3.2175248169340067e-10,9.5115397641642478e-10,1.8973208447252197e-14,5.4562209004758685e-16,4.2252160612734486e-14,1.744127644865871e-10,2.2388297272351983e-10,3.1307234461290906e-08,0.0
3.4280585149333413e-06,3109.8685934442542,3020403.7080557095,0.71804847000000005,-2.6141823931335742e-27,0.0010324644388849627,0.071627153318549019,0.018120806325270009,0.010959608542519038,0.002179943085345159,0.041837380787560254,1.9503318509985415e-05,2.0294888864075672e-07,0.1052470636506847,0.028649313900404354,0.00016322846266133713,0.00049808940640722239,1.2548233196938689e-05,0.00018778136695454545,4.8451126924438103e-05,1.9741183741968065e-05,6.3192492021638153e-06,9.3926770052019098e-07,3.9319747504919191e-08,3.9430119336372009e-10,7.7003376470198429e-07,5.7355633066743493e-05,2.3660544374069348e-05,0.00028886362005516367,4.5349567297575278e-05,8.5584657316770544e-08,9.5727028065793071e-06,0.00016822888446012857,0.00010906638545426962,1.6537495424581071e-05,0.00062142843850332755,1.3785662160227556e-08,2.1661234428325781e-10,3.4843230039473991e-10,6.6090780512874794e-15,1.8316995454948246e-16,1.533123206441898e-14,7.7193079678332583e-11,1.4306335593434618e-10,1.821169555900574e-08,0.0
3.5567959571580797e-06,3117.4617061308395,3020403.7080563465,0.71804847000000005,-3.719582223206824e-27,0.0010375988567514944,0.06678452249368802,0.019491203129260948,0.012313897364774208,0.002019910420076577,0.043210892716660877,1.6228322670759589e-05,2.2411049918659498e-07,0.10591782986283621,0.029831465715158632,8.1162340813945038e-05,0.00024057668166125833,5.0694005695338315e-06,7.9435451282927369e-05,2.2528090996634265e-05,9.4893431393813688e-06,2.0546029418870978e-06,4.0155955451306054e-07,7.2482142990686371e-09,6.9164345629307421e-11,3.2148029431285797e-07,2.671006834767854e-05,1.1827367745692675e-05,0.00010937078260851799,1.7072497865286268e-05,3.0585295214552999e-08,9.5654801212913611e-06,7.0247333218602579e-05,4.7301296502805476e-05,6.7244375351757244e-06,0.00058784254920032388,1.1259959138957485e-08,1.5017965823834037e-10,5.3351849548505755e-11,9.1768359329757693e-16,2.4122229602469719e-17,2.321502997173833e-15,1.5642029418221899e-11,5.9546785579968913e-11,6.8018660743601413e-09,0.0
4.9775597887384838e-06,3124.9775101402879,3020403.7080566846,0.71804847000000005,-3.7195692052932427e-27,0.0010849799951635553,0.05137855103466251,0.023462290191494518,0.017368348077064819,0.0016066715166001312,0.045085900374720281,1.4822212770897848e-05,3.0916729452061291e-07,0.099994150890337752,0.041608300521320279,1.784351600057418e-06,3.6511537364899783e-06,4.2305621515948689e-08,1.2271708833760117e-06,1.7259047338512863e-06,1.0979479621818737e-06,1.9468472601111064e-09,5.3987324306290025e-09,1.2121939033385233e-12,9.4341162532654892e-15,2.726053482643969e-09,3.8972424241948879e-07,8.5249719160379713e-07,6.8679854473844229e-06,5.4880745216613239e-09,5.5674052606984461e-11,9.4700083996277993e-06,1.7799746438314e-06,3.0570192844437485e-06,4.6713148912340384e-07,0.00031477121293239463,5.8859685413143956e-09,7.4662385562999356e-11,1.1394616502793399e-15,1.4571276284482725e-20,3.0341043189812061e-22,5.1000617751841741e-20,5.1168339221048979e-15,1.1922859659266071e-12,5.1969044212816608e-11,0.0
