t [ms],T [k],TotalEnthalpy [J/kg],Y-N2,Y-AR,Y-H,Y-O2,Y-OH,Y-O,Y-H2,Y-H2O,Y-HO2,Y-H2O2,Y-CO,Y-CO2,Y-CHO,Y-CH2O,Y-CH4,Y-CH3,Y-CH2(T),Y-CH2(S),Y-C2H4,Y-CH3O,Y-C2H5,Y-C2H6,Y-CH3OH,Y-CH2OH,Y-CH,Y-C2H2,Y-C2H3,Y-CH2CHO,Y-C2H4O,Y-CH2CO,Y-HCCO,Y-C2H,Y-C3H3,Y-C3H4,Y-C3H5,Y-C3H6,Y-N-C3H7,Y-C3H8,Y-I-C3H7,Y-CH3CHO,Y-CH3CO,Y-C4H6,Y-C5H8
7.2479929745024597e-17,2449.9999999983647,2983343.2494726065,0.71804847000000005,0.0,5.1485104085756969e-16,0.21825152999999844,2.8277286964226814e-24,6.0034808399528101e-18,2.3718188526370531e-14,1.4143212108459056e-33,1.6009305527678446e-15,2.9267027017878559e-38,1.5375548933952415e-25,3.3349107399433664e-35,6.0751677726967084e-26,2.2107313273014101e-25,3.0928751925213051e-48,1.2382036532785292e-26,7.85522797073436e-27,1.0773430404617649e-36,0.06369999999965173,3.7529815432720752e-37,1.3021476710387812e-15,1.7895621571739148e-37,1.8868361646553206e-57,2.6306335591753963e-46,3.3218810129140377e-49,3.0635322868616399e-13,1.6338509197999073e-14,3.6724411355985927e-24,3.2469155880916998e-27,1.3027361798905382e-31,8.3137938088106949e-38,5.721594610342247e-45,1.3629680249831108e-49,2.9833649500365969e-40,7.8333724327669294e-49,9.8748380816726303e-39,1.7799920081924235e-37,1.4218848454941291e-58,9.7330069174911152e-61,3.3795745862351532e-81,1.7576777438484649e-57,2.5487028901032694e-36,0.0
2.1217332155212436e-06,2458.1217312915396,2983343.2494729036,0.71804847000000005,0.0,0.00018147604363897492,0.19151767433651937,0.0024449191150774049,0.0013079360236219512,0.0016897035717769653,0.0060874101253496982,0.0005958658091395942,5.2261345643261168e-07,0.015194643374104443,0.0032762673151447265,0.00061423465268580055,0.0021158592653522643,0.0001689869555381796,0.0025452747619647336,4.5875510176109953e-05,1.7472837305036901e-05,0.024386383177038139,1.8938607014591021e-05,7.7716981590678069e-06,8.3808313184308871e-07,1.966549289219003e-05,0.00027887734157261673,1.305719415261812e-05,0.010358829375064126,0.0062014402681672826,4.3748965848488402e-05,8.5058889170135624e-06,0.011242863755615569,0.00039072476532515059,7.098106240325428e-05,5.7915078377082246e-05,7.6802029610467924e-06,5.2289668876411566e-06,4.1570851543798701e-05,9.1266818832794343e-10,6.7749286474839451e-11,1.8182529537305566e-09,2.1613147339853603e-07,9.0303168366337683e-10,0.00099216708090192683,0.0
2.1633268037588242e-06,2466.5058007502298,2983343.2494727829,0.71804847000000005,0.0,0.00019718566047793027,0.18921810742996575,0.0026638709445791419,0.0013945754864111033,0.0017616441319043962,0.0066915251338526913,0.00058852207931433501,5.339873225609327e-07,0.016819565671054956,0.0036879253689881398,0.0006348115537252913,0.0023188563420784162,0.00018665643216443103,0.002662605230685408,5.1629479720677512e-05,2.0131161639911336e-05,0.022495511449476393,1.9664949335870247e-05,8.3083178540365185e-06,8.6270488517129892e-07,2.1095673945141095e-05,0.00030995053248194311,1.479018457324908e-05,0.010584317351714471,0.006359739649138752,4.3637942552057578e-05,8.7538476588129321e-06,0.011506096984711382,0.00042465658824314759,7.8910407563686293e-05,6.9248392094694398e-05,8.3764330690385184e-06,5.6614912049096005e-06,4.1760429878388345e-05,8.7669419100391794e-10,6.7833367277381924e-11,1.9281978532304362e-09,2.1901082421026603e-07,1.0196967293702118e-09,0.0010518176724879757,0.0
2.2049203919964049e-06,2475.95282338985,2983343.2494725282,0.71804847000000005,0.0,0.00021412362318550836,0.18677273092630581,0.0028963762066106496,0.0014855096984697756,0.0018333966198803319,0.0073424475839862537,0.00057789880497915883,5.4128672854147379e-07,0.018587902161515513,0.0041394532414168799,0.00065573341855619657,0.002528823190299595,0.00020499958869352709,0.0027764459912040401,5.7994432099996091e-05,2.3112043647436266e-05,0.020614848254583044,2.03263020839313e-05,8.8311682767717342e-06,8.7669642871163946e-07,2.2446635190578109e-05,0.00034193341726079313,1.6726176114659462e-05,0.010797912266676127,0.0064892291965232742,4.3221393333315901e-05,8.979937526540962e-06,0.011702870242321884,0.00046009913700920189,8.7402116735711796e-05,8.2406495418467396e-05,8.9912407077075223e-06,6.0190616459020403e-06,4.1264376489770149e-05,8.3258693966276832e-10,6.6874489536462155e-11,2.0034980270952946e-09,2.1941593756886806e-07,1.1448569932158966e-09,0.0010994336043410285,0.0
2.2373298773036537e-06,2484.088649643491,2983343.2494724947,0.71804847000000005,0.0,0.00022823658420707065,0.18476339084311336,0.0030871342565603143,0.0015595869591749519,0.0018889207983673181,0.0078834084814250263,0.00056744395569213952,5.4409183760058738e-07,0.020070174168262643,0.0045202357772256407,0.00067238067978682816,0.0026958534704192142,0.00021961738735268557,0.0028619598741400228,6.3410767485716992e-05,2.5674139192734702e-05,0.019164954606293617,2.0790503378619738e-05,9.222537267020931e-06,8.7964435037118367e-07,2.3421452248382621e-05,0.00036717142819326753,1.8388049313819501e-05,0.010954242390114128,0.0065679206613195916,4.2682395018680224e-05,9.140618844279229e-06,0.011805500882152811,0.00048869653181857567,9.4398895836126403e-05,9.4048302655082628e-05,9.390633100260791e-06,6.2263930840378727e-06,4.0398415511462607e-05,7.930179984816588e-10,6.5367839023173235e-11,2.0342328060752764e-09,2.1798790124743952e-07,1.2477688682240766e-09,0.0011258612969684927,0.0
2.2674078674174013e-06,2492.2724547151893,2983343.249472925,0.71804847000000005,2.101162409724649e-32,0.00024209776738865244,0.18281525545031641,0.0032718220686312458,0.0016310623262674503,0.0019399653554534229,0.0084128149732421078,0.00055611830302563028,5.4443633169337556e-07,0.021530972019261144,0.0048971894796935346,0.00068816451339178287,0.0028523888465876003,0.00023331574637646156,0.0029382235961724263,6.8819528653017121e-05,2.8250186556955053e-05,0.017837665742713022,2.117701263557289e-05,9.5682970086019309e-06,8.7590964853568249e-07,2.4248689323417566e-05,0.00039059035228543727,2.0059866997963134e-05,0.011089897486715312,0.0066219957197236464,4.2014572405286752e-05,9.2775490823423848e-06,0.011858125008943987,0.00051594697461141684,0.0001011782944845977,0.0001060271088850557,9.6832948451435314e-06,6.3498906796592294e-06,3.9230460168857008e-05,7.5264201092269605e-10,6.3371004960823526e-11,2.0389380203425312e-09,2.1530517217123631e-07,1.346986088506573e-09,0.0011403936643840228,0.0
2.2971969190734472e-06,2501.0000572476179,2983343.2494762396,0.71804847000000005,-2.3183506006803441e-28,0.0002565895495105859,0.18080524677914542,0.0034621082440215653,0.0017046322014717178,0.0019899029805780098,0.0089638224860359699,0.00054344242571096029,5.4266430519426787e-07,0.023061171975296741,0.0052935599772706695,0.00070415349915659605,0.0030077543060178609,0.00024688688497255789,0.0030102645767261229,7.4559123674058667e-05,3.0997825658962697e-05,0.016545763335399439,2.1514234882419488e-05,9.8898545460888487e-06,8.6602362605659492e-07,2.498083902195529e-05,0.0004135479723701789,2.1846524428779114e-05,0.011213844130593108,0.0066562795549509699,4.1196297221158923e-05,9.4016798171739645e-06,0.011867722757801562,0.00054354967059275813,0.00010814911926897894,0.00011907417776461088,9.8875993759193111e-06,6.3971628107019412e-06,3.7748744345105834e-05,7.0963212743156039e-10,6.0842747171468721e-11,2.0201929877382228e-09,2.1138929291874457e-07,1.448194642204575e-09,0.0011440191934753183,0.0
2.3216572757812471e-06,2508.644015195764,2983343.2494759578,0.71804847000000005,-4.7187526894524335e-28,0.00026908340297026104,0.17909388477171412,0.0036239132692127544,0.0017672563071134124,0.002030342607290877,0.0094365872961219115,0.00053200943884291042,5.3967395251269682e-07,0.024381370229998919,0.0056365887451114028,0.00071756359597640619,0.003134746703738167,0.00025794051863412985,0.0030664177234673426,7.9570217616342724e-05,3.3404938896925376e-05,0.015505408391364807,2.1754825259260131e-05,1.0135320073466404e-05,8.5336505562454029e-07,2.5508256743443346e-05,0.00043205424895469564,2.3416447716959739e-05,0.011306756356016433,0.0066692312669222355,4.0410202589682105e-05,9.4951923849997899e-06,0.011842808175407013,0.00056662286985315372,0.00011405040401187457,0.00013071134447143886,9.9852927714893556e-06,6.3749040501118624e-06,3.6310513440703734e-05,6.7241792443572427e-10,5.8381754830681513e-11,1.9873716221305825e-09,2.0726899602115358e-07,1.5330047089052181e-09,0.0011382116620829454,0.0
2.3446890807768986e-06,2516.245997811619,2983343.2494750125,0.71804847000000005,-7.7397287895731385e-28,0.00028135618039863269,0.17743162587767092,0.0037808994959550304,0.0018281671487174055,0.0020678746777017146,0.0098988202023937485,0.00052044977257413745,5.3563142304037728e-07,0.025678100753577349,0.0059743413227728477,0.00073042461007626232,0.0032531670573862415,0.0002681966564390579,0.0031164901377559984,8.4543963371576665e-05,3.5798927970952737e-05,0.014545388806364551,2.1949628523219774e-05,1.0348796788588386e-05,8.3781675361292516e-07,2.5937732619563948e-05,0.00044906246273677242,2.4983523614360313e-05,0.011385988788899605,0.0066682594443896823,3.9578522067172031e-05,9.5764560069734327e-06,0.011791644149976039,0.00058864132548526297,0.00011974025734655028,0.00014246004966978699,1.0015958133274885e-05,6.3008843932802448e-06,3.4792794812715265e-05,6.3610724157184427e-10,5.5774821249834016e-11,1.942468319975959e-09,2.0267536287350942e-07,1.613830580692422e-09,0.001125023261691023,0.0
2.3667232386905389e-06,2523.8946078716067,2983343.2494750256,0.71804847000000005,-1.4668889387997354e-28,0.00029357295973100249,0.17579475850090359,0.0039353261692505652,0.0018883079229323372,0.0021032208891901259,0.010356779364118562,0.00050871371523746912,5.3068949239855426e-07,0.026968137411920581,0.0063110588862115577,0.00074293438867233585,0.003364821743180018,0.00027780157625544358,0.003161565998754758,8.9541042140944761e-05,3.8206697223067929e-05,0.013646919762778899,2.2105716391939907e-05,1.0535061030374713e-05,8.1979007134531453e-07,2.6282909684538821e-05,0.00046484351125704689,2.6566530794109406e-05,0.011453437487821317,0.0066548658898331666,3.8702497910792129e-05,9.6481927018004308e-06,0.011717169265434719,0.00060993010669468343,0.00012529144427693599,0.00015443893389144897,9.9878434565325868e-06,6.1808382296135803e-06,3.3210563288040874e-05,6.0047633269140321e-10,5.3046967745597683e-11,1.887387488851242e-09,1.976643196934604e-07,1.6916217740496486e-09,0.0011051138023864663,0.0
2.3887573966041792e-06,2531.9190108121825,2983343.2494749441,0.71804847000000005,6.1489782338173913e-30,0.00030626627059005392,0.1741119589122079,0.0040939286186391791,0.0019503784666879279,0.0021379591933656391,0.010830343815225071,0.00049635980959887311,5.2473998621982181e-07,0.028307168940698332,0.0066612246781929136,0.00075563077370369549,0.0034742944184801335,0.00028713449275633588,0.003203593125622798,9.4777248258342409e-05,4.0730253562648178e-05,0.012770007841249726,2.2230824715730853e-05,1.0701917699962879e-05,7.9885677265201556e-07,2.6559838030527572e-05,0.00048003828346344566,2.823426212228795e-05,0.011511828091807298,0.0066288142296267978,3.7750888295040751e-05,9.7142290613418315e-06,0.011617539890587667,0.00063139235894226148,0.00013093311002246397,0.00016715663981934728,9.902950945445819e-06,6.0128043330087784e-06,3.1519889505047162e-05,5.6423039742468333e-10,5.0123064565507107e-11,1.8212414147599377e-09,1.9208523988764583e-07,1.7694288322975569e-09,0.0010779230451611025,0.0
2.4107915545178195e-06,2540.3272134622171,2983343.2494747625,0.71804847000000005,-1.0554022201088558e-30,0.00031944528046717272,0.17238296623304242,0.0042567294957330023,0.0020144845060314164,0.0021720313396198176,0.011319687599977297,0.00048343429376714161,5.1783090799320344e-07,0.029695659883693375,0.007024954044668001,0.00076849043036464164,0.0035809879689234127,0.00029612291499032814,0.003242277787178699,0.00010025687106475067,4.3369590254590055e-05,0.011916601355647692,2.232362030253045e-05,1.0847559604070403e-05,7.7522616136025893e-07,2.6765110495488944e-05,0.00049454160413075566,2.9989141749091296e-05,0.011560200412797376,0.0065896559388490851,3.6727092550462359e-05,9.7747600595148682e-06,0.011492734343553268,0.00065297613358411631,0.00013664778174288873,0.00018062488020644278,9.7617850228433411e-06,5.7981537896850733e-06,2.974074485662333e-05,5.2763377362599306e-10,4.7039440956059669e-11,1.7450187072230022e-09,1.8597668914556683e-07,1.8467698198857271e-09,0.0010434381410626124,0.0
2.4328257124314599e-06,2549.127113597669,2983343.2494746484,0.71804847000000005,-4.1554176623231196e-30,0.00033311652357875972,0.17060762271875504,0.004423744274224756,0.0020807356591445577,0.0022053803372390217,0.011824951379194515,0.00046998602206014362,5.1001533032668537e-07,0.031133913378053362,0.0074023207263137413,0.00078148054452049963,0.0036842852341267217,0.00030469100081476129,0.0032773128547181501,0.00010598256626235088,4.6123618295177439e-05,0.01108857685471579,2.2382798804387393e-05,1.097020042895006e-05,7.4914003385566708e-07,2.6895937629664827e-05,0.00050824949327018664,3.1833178281093513e-05,0.011597509654861541,0.0065369620414654486,3.5634942953993586e-05,9.830001909273811e-06,0.011342907427248691,0.00067462154913062252,0.00014241489815835162,0.00019485050706915001,9.5659464423162108e-06,5.539527776739708e-06,2.7894004298226984e-05,4.9095296524314893e-10,4.3835702535494073e-11,1.6598856186534191e-09,1.7938145450091103e-07,1.9231160597556873e-09,0.0010018015436458428,0.0
2.4531343978903718e-06,2557.5914501890843,2983343.2494745208,0.71804847000000005,-3.2597810170259959e-30,0.00034615604463962855,0.16893022330000054,0.0045814185196557337,0.0021437958405476337,0.0022354294735548968,0.012304835491119982,0.00045717225522973426,5.0205874087849299e-07,0.032503713874993796,0.0077622367472334371,0.00079353211853287547,0.0037759396433786848,0.00031214817094083353,0.0033060970281886329,0.00011147835420777538,4.8761523749350472e-05,0.010349414256736397,2.2406482017681549e-05,1.1061359576367264e-05,7.2315460191806309e-07,2.6948771101980283e-05,0.00052009192073584009,3.361303547420485e-05,0.011621126100857925,0.0064760598163112974,3.4571456574939285e-05,9.876436008586435e-06,0.011182944569588654,0.00069456726170199232,0.00014775619345950056,0.00020863400122863091,9.3393144971166695e-06,5.2655769558730872e-06,2.6150441388113144e-05,4.5730580431887174e-10,4.0812505779930903e-11,1.5746784198741097e-09,1.7291203150372897e-07,1.9921091320074041e-09,0.00095736242953207182,0.0
2.4720497330087804e-06,2565.7853698895706,2983343.2494745106,0.71804847000000005,-3.2017351816176105e-30,0.00035867949092316604,0.16733253187775932,0.0047314993962161347,0.0022043344371317519,0.0022627848618988989,0.012764077965644731,0.00044491454883209693,4.9404208836789346e-07,0.033817594841884867,0.0081078825310140126,0.00080478744065249415,0.0038577833877583849,0.00031865723445210088,0.0033296472371343376,0.00011678432087629846,5.1301657657675079e-05,0.0096828808962775379,2.2401057418783694e-05,1.1126189603364632e-05,6.9748321992177768e-07,2.6938540442434723e-05,0.0005303691595825176,3.5340568176311633e-05,0.011632973407240687,0.0064084323151065246,3.3535183597087853e-05,9.9159942471142626e-06,0.011015455547112623,0.00071308509440933129,0.00015273379352619427,0.0002220480701343685,9.090992258757867e-06,4.9833299429501065e-06,2.4505944206600493e-05,4.2629344007269615e-10,3.7966390080849385e-11,1.49052139595068e-09,1.665851929719141e-07,2.0547499677369619e-09,0.00091109056684896168,0.0
2.4909650681271891e-06,2574.2831370674526,2983343.2494745003,0.71804847000000005,-3.1865209457651203e-30,0.0003715654419049069,0.16570088043455469,0.0048846836581294632,0.0022666900781466164,0.0022894966559741251,0.013235174694527502,0.00043238154798942979,4.8548341995421591e-07,0.035167997857904719,0.0084635295197471282,0.00081603166404490125,0.0039358079260691193,0.00032469261867929786,0.0033498358806292009,0.00012226792959610082,5.391858086094188e-05,0.0090384997884870796,2.2368386532871513e-05,1.1170607801397047e-05,6.7059574719991355e-07,2.6870557261101323e-05,0.00053985994489671064,3.7135421516995573e-05,0.011634202681119886,0.0063300771877932444,3.2458077805341359e-05,9.9521631568602712e-06,0.01083057530208484,0.00073148833185639661,0.00015769378955199907,0.00023601042982370225,8.8096476357752778e-06,4.6789422084849916e-06,2.2855368284370404e-05,3.9576490332702072e-10,3.5118797176460127e-11,1.4027343910282009e-09,1.6000282679015438e-07,2.1154119319898375e-09,0.00086054885240175914,0.0
2.5098804032455977e-06,2583.0888368396918,2983343.2494744617,0.71804847000000005,-3.1838305231046409e-30,0.00038480875840288156,0.16403552753351108,0.0050409594382719537,0.0023309382917414542,0.0023155328099453776,0.013718101117917804,0.00041960991385878746,4.7642613546520838e-07,0.036554597923419557,0.008829089642279131,0.00082721899223096081,0.0040096001321882849,0.0003302028430181841,0.0033664469359997082,0.00012792432806537591,5.6607829544969217e-05,0.0084171781856467228,2.2307800046013645e-05,1.11936466295524e-05,6.4269561451262813e-07,2.6744877117808923e-05,0.00054850872250105309,3.8997024543078967e-05,0.01162396573242586,0.0062408226234478715,3.1343607489853785e-05,9.9851142099355459e-06,0.010628856534972021,0.00074971438486096467,0.0001626139727619642,0.00025050923841932649,8.4985605486841984e-06,4.3568764380800667e-06,2.1211788704192763e-05,3.6588225157573225e-10,3.2296235948558057e-11,1.312322477729475e-09,1.5320115123280339e-07,2.1736703321162688e-09,0.00080627861176994265,0.0
2.5258928419554629e-06,2590.7864869547152,2983343.2494747736,0.71804847000000005,-3.1832862052732271e-30,0.0003962931877939607,0.16259968495746618,0.0051756555624697369,0.0023868623295702301,0.0023370222099954592,0.014136116133036973,0.00040863975240427021,4.684025937967811e-07,0.037756339716051045,0.0091462014576953118,0.00083660664624052143,0.0040684544172490313,0.00033441917467281438,0.0033775515217293745,0.00013284251201656344,5.8936743845161437e-05,0.0079098397155229396,2.2234242124756206e-05,1.1195772231477425e-05,6.1844017777842818e-07,2.6593769471505611e-05,0.00055513378070475125,4.0624198265945372e-05,0.011605687535680892,0.0061566502771045126,3.0373725028836585e-05,1.0010623599798038e-05,0.010445422472757931,0.00076495342864208978,0.0001667297057918066,0.00026318994587765229,8.2146724828433537e-06,4.0740590048022474e-06,1.9835248406521815e-05,3.4119594242433509e-10,2.9945257409588774e-11,1.2344900893452265e-09,1.4730010066720607e-07,2.2207849523380556e-09,0.00075790253577666812,0.0
2.5432109240150394e-06,2599.3651462928333,2983343.2494727862,0.71804847000000005,-3.1832862037686684e-30,0.00040898857056277579,0.16102022047395842,0.0053237993919589425,0.0024489888823972261,0.0023596729096221065,0.014597642410906152,0.00039664004894111209,4.5939171762566551e-07,0.039084440543390435,0.0094969435621271494,0.00084663172536197484,0.0041280758423564903,0.00033847961511821497,0.0033863488093880275,0.00013828880076428106,6.1504564091472506e-05,0.0073808986987958687,2.2131302843982692e-05,1.117952539260516e-05,5.9170570624917288e-07,2.6384904150079059e-05,0.00056154512961584181,4.2435515244060589e-05,0.011575332637212679,0.0060566632466552859,2.9300408300117607e-05,1.0035884282274932e-05,0.010234516698040014,0.0007811824403537301,0.00017111004070888766,0.00027730868126706092,7.8893548698070918e-06,3.7615572903395276e-06,1.8370628314253763e-05,3.1523746090059423e-10,2.7459934311130364e-11,1.1497314183290185e-09,1.407994978742579e-07,2.2691361206186719e-09,0.00070362153723229357,0.0
2.5613212100350214e-06,2608.6195752170925,2983343.2494721641,0.71804847000000005,-3.1832862037686684e-30,0.00042255909607244002,0.15933949543133114,0.0054814387060814589,0.0025158466191676845,0.0023826794615521185,0.015090649232029714,0.00038397313450444113,4.4963725770057782e-07,0.040504183966509448,0.0098721963105164838,0.00085692195039064375,0.0041856173089252638,0.00034213115711590549,0.0033918039333850048,0.00014411577623902518,6.4237751016024165e-05,0.0068502370406732481,2.1997291519433183e-05,1.1141325769011141e-05,5.6336191936383729e-07,2.6117116789315273e-05,0.00056737711650124191,4.438464418067417e-05,0.01153108792083371,0.0059421370986417399,2.8154356407502454e-05,1.005985818325413e-05,0.010000750880478308,0.00079780533784110704,0.00017558797366886046,0.00029250057169364534,7.5322008084985645e-06,3.4317953690900323e-06,1.6874983884128281e-05,2.8902018019351355e-10,2.4942492846555251e-11,1.0612637504203207e-09,1.3390326380217134e-07,2.3164365838361923e-09,0.00064535205781722645,0.0
2.5783413030578629e-06,2617.5818062352328,2983343.2494715322,0.71804847000000005,-3.1832862037686684e-30,0.0004355748123015492,0.1577334869665134,0.0056320998786963446,0.0025805013630974404,0.0024036456792812778,0.015563503581706729,0.00037198902541382987,4.4019890205302662e-07,0.041866502756875534,0.01023254737445811,0.00086635985872287441,0.0042349129014156613,0.00034497321446166126,0.0033932804734424509,0.0001497032225304341,6.6843779035684971e-05,0.0063728609341528334,2.1846497819697473e-05,1.1085173802797602e-05,5.3652467428856899e-07,2.5820846194604777e-05,0.00057201580090679655,4.6264820126929608e-05,0.01147716571265065,0.0058252595290235231,2.7058722423555839e-05,1.0080252018765586e-05,0.0097694807605218596,0.00081303312121388052,0.00017967616153647704,0.00030715118119469399,7.1840432725550628e-06,3.1233270459974516e-06,1.5510904177703309e-05,2.6533737358435873e-10,2.2667804893884838e-11,9.7902519853113982e-10,1.2736310433071714e-07,2.3575004939514985e-09,0.00058987961275278056,0.0
2.5960882669321763e-06,2627.1999532106051,2983343.2494708211,0.71804847000000005,-3.1832862037686684e-30,0.00044940202267985317,0.15603230272660557,0.0057917620268133655,0.0026498616770541839,0.0024248095452905427,0.016066201565776837,0.00035944272926980765,4.3011765382758814e-07,0.043315012588231033,0.010615969066275809,0.00087590171379524286,0.0042810749782502076,0.00034729354561013843,0.003390892830653434,0.00015562983061727194,6.959096314590353e-05,0.0058974378159420762,2.1663413568362346e-05,1.1005313680841458e-05,5.0849821014426766e-07,2.5467679876608115e-05,0.00057595769531591735,4.8271454879456373e-05,0.011407507936561012,0.0056939625749388026,2.5900940973092132e-05,1.0099455609696876e-05,0.0095172276153035959,0.00082842603323928432,0.00018378779836966864,0.00032278190944995915,6.8115867802522981e-06,2.8074522517051476e-06,1.4138971840363434e-05,2.4171388872768129e-10,2.0403827803617188e-11,8.9494358508062194e-10,1.2051716510638621e-07,2.3964608862157213e-09,0.00053206385479947018,0.0
2.6118428277693602e-06,2635.9707846161291,2983343.249470789,0.71804847000000005,-3.1832862037686684e-30,0.00046188190181656113,0.15450004447496654,0.0059356743869662283,0.0027131521557061163,0.0024429837158252759,0.016520538803462027,0.00034828782771659505,4.2099610158760091e-07,0.044623983547717211,0.010962674852045193,0.0008840653506436329,0.0043173348204674084,0.00034877727823264898,0.0033852897807686989,0.00016096336363897234,7.2047220873413807e-05,0.005494679609606039,2.1478676713669188e-05,1.0915938114030934e-05,4.8371002756605367e-07,2.5118015892999121e-05,0.00057867417122432502,5.0088517626431185e-05,0.011333639582472865,0.0055694985510907086,2.4863285747115516e-05,1.0114856337231377e-05,0.0092845356747994594,0.00084160757909455591,0.00018728514034010784,0.00033693200854401897,6.4756984451080338e-06,2.5352869602519836e-06,1.29696560917046e-05,2.2171725875729922e-10,1.8495707521672324e-11,8.2228939551987397e-10,1.1444560644766859e-07,2.4274591713646673e-09,0.00048139562835634246,0.0
2.6275973886065441e-06,2644.9580924052461,2983343.2494708356,0.71804847000000005,-3.1832862037686684e-30,0.0004745408648190893,0.15294775463721894,0.006081614218290214,0.0027781080673967996,0.0024605658782815344,0.016982277916817012,0.00033714036190249131,4.1174322219908254e-07,0.045953742611422647,0.011315080483257731,0.00089189093621202089,0.0043489477007848994,0.00034969775505128885,0.0033763048299149628,0.00016635039894831411,7.4511708159181366e-05,0.0051101569418518858,2.127304171619976e-05,1.0809031825200879e-05,4.5912105085532937e-07,2.4736106604711324e-05,0.00058064179696690763,5.1935028497194042e-05,0.01124800018109914,0.0054378074920406133,2.3819517403060056e-05,1.0128812865755236e-05,0.0090443320271597679,0.00085426853999633274,0.00019061650451152582,0.00035130986493157548,6.1374030425396393e-06,2.2736637687840296e-06,1.1850409281943846e-05,2.0268181661041913e-10,1.6690191070367498e-11,7.5197314097225245e-10,1.0840559083855622e-07,2.4548257316483891e-09,0.00043192257192559152,0.0
2.6423323447604654e-06,2653.5567731929268,2983343.2494709059,0.71804847000000005,-3.1832862037686684e-30,0.00048653014104980258,0.15147848414761694,0.0062199299557989911,0.0028404114950410916,0.0024764622714559289,0.017420642908633484,0.00032674075620673244,4.0299636083651298e-07,0.047215378038336087,0.011649594430410842,0.00089886041847626452,0.0043741425763806387,0.00035003296634698926,0.0033647590799470201,0.00017142329918959465,7.6816476398288512e-05,0.004767040377573006,2.1061857733520729e-05,1.0693125841447411e-05,4.3639447550733598e-07,2.4351358800601532e-05,0.00058179653754972444,5.3684599471361341e-05,0.011156906731870624,0.005308337097479964,2.2840561765608008e-05,1.0140646218899583e-05,0.0088135265789866073,0.0008655802535966591,0.00019356249910149057,0.00036493483600763923,5.8208896622545296e-06,2.04060438040592e-06,1.0852048721363463e-05,1.8577958377859301e-10,1.5098889304569488e-11,6.8867877008146286e-10,1.0280694612598743e-07,2.4769246087316292e-09,0.0003872048696864588,0.0
2.6569275223906326e-06,2662.254057735764,2983343.249470917,0.71804847000000005,-3.1832862037686684e-30,0.00049853603340518145,0.150007239823957,0.0063586576484085432,0.0029036443185312556,0.0024916749815867452,0.01786085133142724,0.00031648286172386195,3.9426823234085388e-07,0.048481234421258672,0.011985367709819296,0.00090538867075377893,0.0043947879958656424,0.00034985151617574107,0.003350261382666927,0.00017646659331985152,7.9091456175574805e-05,0.0044428812314694296,2.0834823237744105e-05,1.0563172148901039e-05,4.1422085867744091e-07,2.3945621497451605e-05,0.0005822823530645928,5.5434753104734016e-05,0.011055928971610543,0.0051743688574005433,2.1870970145570627e-05,1.0151283734970709e-05,0.0085796845969890265,0.00087622336079364439,0.00019630032770348092,0.00037857079403970308,5.5090947238146491e-06,1.8224871912061881e-06,9.9117131328979728e-06,1.6991570608544159e-10,1.361839337584558e-11,6.2862698779699434e-10,9.7329453367990618e-08,2.4952968795450627e-09,0.00034479971693475827,0.0
2.6715227000207997e-06,2671.1259269574698,2983343.249470924,0.71804847000000005,-3.1832862037686684e-30,0.00051065947267185099,0.14852091274543139,0.0064990933440670397,0.0029684326701378615,0.0025063472176562198,0.018306816171715586,0.00030628468291357593,3.8549954623207575e-07,0.049762247313299049,0.012325284899677248,0.00091150185810827411,0.0044110140966048001,0.00034914916482473599,0.0033326607389929297,0.00018151304012367186,8.135053517764005e-05,0.0041342597277717035,2.059019353699001e-05,1.0418234086079385e-05,3.9245415004020274e-07,2.3517010630742182e-05,0.00058211110996184178,5.7197315749909381e-05,0.010944047096802918,0.0050350301190365612,2.0904133046259585e-05,1.0160917005353322e-05,0.0083412759629403685,0.00088625177178718723,0.00019884084629912067,0.00039231585220264153,5.2006608645598612e-06,1.6183194514807329e-06,9.0215009901502682e-06,1.5493943102462108e-10,1.2234828502923733e-11,5.7144044662159873e-10,9.1938398469371397e-08,2.5100004030928539e-09,0.00030462813572509521,0.0
2.6861178776509668e-06,2680.1664995765491,2983343.2494709445,0.71804847000000005,-3.1832862037686684e-30,0.00052288811229215593,0.14702031850077235,0.0066412327473201411,0.0030348203330877259,0.0025204692389126397,0.018758298504407384,0.00029616247009462001,3.7671344653785655e-07,0.051057384968586535,0.012669055577580007,0.00091715760007834903,0.0044227033798365165,0.00034791853327579501,0.0033119114202669335,0.00018654612383764972,8.3585237048223004e-05,0.0038410355732822962,2.0328205786234694e-05,1.0258474878724069e-05,3.711593325627975e-07,2.3067229907319631e-05,0.00058128289290945451,5.8967130450311611e-05,0.010821117408267699,0.0048907062815178332,1.9942772982613925e-05,1.0169617504175303e-05,0.0080989512304971232,0.00089560877654567227,0.00020116634513724861,0.0004061374663116998,4.897107341363895e-06,1.4290377781601422e-06,8.1826960222572166e-06,1.4085552572488178e-10,1.0948760088998797e-11,5.173092047941826e-10,8.6651645030991926e-08,2.5208800851038732e-09,0.00026699129106578313,0.0
2.6982899685600498e-06,2687.8300728815325,2983343.249470796,0.71804847000000005,-3.1832862037686684e-30,0.00053315804975067336,0.145758575085636,0.0067610769322095175,0.0030914422247776412,0.0025318191432584704,0.01913885689095533,0.00028779014082654087,3.6938924992909898e-07,0.052147506856525257,0.01295847447675978,0.00092149357523012483,0.0044289061836145808,0.00034648468293483302,0.0032921736382154937,0.00019072061005375189,8.5423859704901749e-05,0.0036081320450890571,2.0096655760423073e-05,1.0114074942278886e-05,3.5380330706549432e-07,2.2677192342146438e-05,0.00058009137542264569,6.0444618060471935e-05,0.010710092053989746,0.0047668494200675867,1.9147195404642782e-05,1.0176209999393911e-05,0.0078943423587612867,0.00090285771755200151,0.0002029288288507219,0.0004176980553725815,4.6486811043929717e-06,1.2829986126178812e-06,7.5230366191816866e-06,1.2979473214715069e-10,9.950447178506261e-12,4.7460682800369215e-10,8.2334542298551197e-08,2.5269274987185799e-09,0.00023771646321760209,0.0
2.7101835877859693e-06,2695.4222972781131,2983343.2494710688,0.71804847000000005,-3.1832862037686684e-30,0.00054324851884180922,0.14451722302560849,0.0068793262299270347,0.0031478999484571674,0.0025425283329159548,0.019514082928857288,0.00027967922211349005,3.6224888057708028e-07,0.053220778782081271,0.013243464383025335,0.00092537025870284432,0.0044317966093701967,0.00034472421206282089,0.0032707355609543983,0.00019476824882118585,8.7192893094944056e-05,0.0033906451924272888,1.9859147249008187e-05,9.9633538993341756e-06,3.3723009580661056e-07,2.2284011536606928e-05,0.00057848968462374795,6.1886054270648166e-05,0.010594130836562571,0.0046430494096061257,1.8376883747568156e-05,1.0182108089944049e-05,0.0076926052845675075,0.00090941995217743159,0.00020448564948836456,0.00042900225736260594,4.4108331427839166e-06,1.1508487959435216e-06,6.9137078108104264e-06,1.1958461164235341e-10,9.039401775991232e-12,4.3508803869605549e-10,7.8206367174818323e-08,2.5301038293230301e-09,0.00021107485064877083,0.0
2.7218352053872707e-06,2702.9547910296124,2983343.2494705226,0.71804847000000005,-3.1832862037686684e-30,0.00055318044851297157,0.14329352434632794,0.0069962733291408907,0.0032043187148285269,0.0025526497259056803,0.019884749629132285,0.00027180785137816924,3.552810902706117e-07,0.054279315300927021,0.013524571355515767,0.00092880031517334665,0.0044315467263756009,0.00034265511164677964,0.0032476644665879757,0.00019869313553829833,8.889452481722747e-05,0.0031871106937449403,1.9615904752106453e-05,9.8066735430973545e-06,3.2138842940740814e-07,2.1888199152167469e-05,0.00057650452440216149,6.329266210522071e-05,0.010473395746019935,0.0045193901826172623,1.7630458264419697e-05,1.0187398663007211e-05,0.0074935964383074172,0.00091532004909372286,0.00020584396140862341,0.00044006446952695892,4.1830982686114933e-06,1.03149085967064e-06,6.3505041139053321e-06,1.1014491129147322e-10,8.2075350013705481e-12,3.9852173602228916e-10,7.4256248511847226e-08,2.5305390442931068e-09,0.00018691859016762067,0.0
2.7348393913690373e-06,2711.4658783871505,2983343.2494708849,0.71804847000000005,-3.1832862037686684e-30,0.00056431243820747809,0.14191953600511281,0.0071280947004563593,0.0032686153918293206,0.002563508297968118,0.020301837942412256,0.00026311843784130478,3.4755009092207522e-07,0.055468216485127494,0.013840316517997348,0.00093217188661300499,0.0044276231306790139,0.00033994485330414735,0.0032194959216983081,0.00020301352489530917,9.0750821640189774e-05,0.0029708906886376811,1.9332377862916575e-05,9.6215377799176586e-06,3.0419436170940297e-07,2.1435128377375442e-05,0.00057380758550633413,6.4851933942054667e-05,0.01033038996993528,0.0043789608866466522,1.6808680229341092e-05,1.0192772072379931e-05,0.0072703064518886045,0.00092125287565355055,0.00020715556794430938,0.00045237248001604393,3.9357018394980891e-06,9.0990912542919628e-07,5.7610319300813295e-06,1.0026143871107948e-10,7.3482120188739571e-12,3.602378798393909e-10,6.9965880200720042e-08,2.5278392950592651e-09,0.00016226335881121335,0.0
2.7462671971021795e-06,2719.0297871432053,2983343.24947089,0.71804847000000005,-3.1832862037686684e-30,0.00057412965687866381,0.14070551423678193,0.0072450772802509795,0.0033263027877884011,0.0025726648016551642,0.02067113823574919,0.00025557274026408937,3.4080755988236976e-07,0.05651878488908537,0.014119324463055952,0.00093471427443603966,0.0044209710591441237,0.00033721668844364036,0.0031926408513594036,0.00020674634772497897,9.2339366686114562e-05,0.0027902248891689594,1.9073019496520797e-05,9.4501836762757705e-06,2.8952718841612848e-07,2.1028081221448129e-05,0.0005710235640754614,6.6209188423381799e-05,0.010197638318917297,0.0042537835339870166,1.609777878416936e-05,1.0197063094644681e-05,0.007073426099055524,0.00092586994874026523,0.00020812271030918718,0.00046313365828372534,3.7246485923994772e-06,8.1291471863080249e-07,5.2766087833566888e-06,9.2131102058909618e-11,6.6513978275193159e-12,3.2879038843597092e-10,6.6305055493280263e-08,2.522653789732043e-09,0.00014260052133804239,0.0
2.7576950028353216e-06,2726.6665452551838,2983343.2494709077,0.71804847000000005,-3.1832862037686684e-30,0.00058397347739261502,0.1394858922332044,0.0073631386933293644,0.0033851251529069129,0.0025814562292244257,0.021042852746966743,0.00024811779337703975,3.3412351355483084e-07,0.057574061038384347,0.014399568729756826,0.00093684247616781298,0.0044113001119225875,0.00033416821183594329,0.0031638313979392529,0.00021040842883036351,9.3882847271112963e-05,0.0026181130661595644,1.8804416695738066e-05,9.2710234674622025e-06,2.7528871619731063e-07,2.0613583996955789e-05,0.00056785783054251319,6.7550677107227751e-05,0.010058396458592935,0.0041272725492381675,1.5398688184159511e-05,1.0200979026681933e-05,0.0068762721289758692,0.00092990334947565343,0.0002089100029146313,0.00047382322450541573,3.5198959479038034e-06,7.2477038223288595e-07,4.8230053852114429e-06,8.4507209609286904e-11,6.0071871558133982e-12,2.9937538624641929e-10,6.2751900784639481e-08,2.5148106721195012e-09,0.00012477971206176976,0.0
2.7691228085684637e-06,2734.3697529901583,2983343.2494709101,0.71804847000000005,-3.1832862037686684e-30,0.00059383841766745115,0.13826122879792896,0.0074822924722246498,0.0034451084549661339,0.0025898786344753706,0.021416802496089724,0.00024075919952462252,3.2750769179913439e-07,0.058633346881158455,0.014680849299229993,0.00093853704430478914,0.0043985962932325635,0.00033080424816693337,0.0031330841559681359,0.00021398896553897288,9.5376351661181027e-05,0.0024543626532722326,1.8526881291604714e-05,9.0843738708321083e-06,2.6149018354632558e-07,2.0192458598927455e-05,0.00056431647174014709,6.8872864638917322e-05,0.0099128243229459883,0.0039997471930882413,1.4712573568628545e-05,1.020454548980145e-05,0.0066791684229702813,0.00093332979780248748,0.00020951202768776733,0.00048442152330051204,3.3217250362259639e-06,6.4504663944929175e-07,4.399491051868378e-06,7.737570952528442e-11,5.4134817822102901e-12,2.7195779380217745e-10,5.9310738259049744e-08,2.5042955071566065e-09,0.00010874474721287729,0.0
2.7805506143016059e-06,2742.13262873339,2983343.2494708905,0.71804847000000005,-3.1832862037686684e-30,0.00060371905154635774,0.13703210021801257,0.0076025543333890092,0.0035062790868279348,0.0025979281061488282,0.021792801045727644,0.0002335022397878099,3.2096952635986123e-07,0.059695923564446689,0.014962960300156498,0.00093977910325393607,0.0043828521796387765,0.00032713079702041854,0.0031004215245148689,0.00021747693575548897,9.6814949297495306e-05,0.0022987688784267372,1.8240750406688389e-05,8.8905844428702215e-06,2.481402157445889e-07,1.9765511081014167e-05,0.00056040627956143428,7.017214868247801e-05,0.0097611112844768495,0.0038715331335567732,1.4040533984891628e-05,1.0207786882844439e-05,0.0064824347442393026,0.00093612733417610045,0.00020992404223643468,0.00049490877786351412,3.1303612385453405e-06,5.732520995084731e-07,4.0052026606377956e-06,7.0720990949711153e-11,4.8680156731894099e-12,2.4648976975785797e-10,5.598518307431876e-08,2.4911046933815812e-09,9.4418050351220443e-05,0.0
2.7921209858664966e-06,2750.0458531895156,2983343.249470883,0.71804847000000005,-3.1832862037686684e-30,0.00061373341034764073,0.13578369499304341,0.0077254635906655843,0.0035694497947170991,0.0026056940703255605,0.022175379610173809,0.00022626336378644532,3.1443821145655311e-07,0.060774353925397227,0.015249220858667889,0.00094055703619463395,0.0043638135869902995,0.00032310355751672418,0.0030654289719328864,0.00022090265611449008,9.821051590013748e-05,0.0021493231284927445,1.7942663129686506e-05,8.6874945018322468e-06,2.3508692647792414e-07,1.9328111965602898e-05,0.00055607919646609362,7.1460574224642049e-05,0.0096014715006204707,0.0037413538511602805,1.3375495443470077e-05,1.0210761243340445e-05,0.006283945245570452,0.00093829808340748974,0.00021014349402938962,0.00050539349231656363,2.9437215041105712e-06,5.0809176065000707e-07,3.634767477017105e-06,6.4451632074467923e-11,4.3624371643115022e-12,2.2262971153307086e-10,5.2738852701448841e-08,2.4750314285455078e-09,8.1555354447350865e-05,0.0
2.8036913574313873e-06,2758.0052511683516,2983343.2494708663,0.71804847000000005,-3.1832862037686684e-30,0.00062375269146320938,0.13453195049716404,0.0078495473555121563,0.0036338928808279554,0.0026130696923198468,0.022559652219236424,0.0002191385707586398,3.0800487418022675e-07,0.061854617197650494,0.015535892703599669,0.00094083439965527251,0.0043416643179439718,0.00031877507811494066,0.0030285374252089956,0.00022421024227800722,9.953966384545312e-05,0.0020077833619367453,1.7636535884574026e-05,8.4779074675384612e-06,2.2250351679825214e-07,1.8886350206266298e-05,0.00055139015274598504,7.2717963588091644e-05,0.0094360114996413259,0.0036111448630914149,1.2726903408844496e-05,1.0213448921375617e-05,0.0060864763518679059,0.00093978352923768213,0.00021016061636392532,0.00051572366764080684,2.7643640166150777e-06,4.4992571832047188e-07,3.2921649923297322e-06,5.8634846160617138e-11,3.9012624198267988e-12,2.0063607232646177e-10,4.9616241989891784e-08,2.4562439399012689e-09,7.0232613642943331e-05,0.0
2.8152617289962781e-06,2766.0028783175853,2983343.2494708458,0.71804847000000005,-3.1832862037686684e-30,0.0006337712055595828,0.13327751157202447,0.0079748277174574809,0.00369963622034592,0.0026200508893474885,0.022945404569258206,0.00021213234100768896,3.0167814816807129e-07,0.062935913078633277,0.015822748366019795,0.00094059409159664379,0.004316418464727835,0.00031415522700348311,0.0029897885514937081,0.00022738783806516467,0.00010079736388833562,0.0018739063904827831,1.7322793127113676e-05,8.2622863140611962e-06,2.103914020726251e-07,1.8441002099391304e-05,0.00054634829903069983,7.3940491416337744e-05,0.0092650080701263387,0.0034812407703981615,1.2095628587734129e-05,1.0215871449211486e-05,0.0058903386321625317,0.00094056585908397028,0.00020997277553731381,0.00052587911429004101,2.5923680993375667e-06,3.9815799947474667e-07,2.9761860323809096e-06,5.3250866978671439e-11,3.4818387643127156e-12,1.8042896701989992e-10,4.6618866514865747e-08,2.4347757186262475e-09,6.0326446980741684e-05,0.0
2.8268321005611688e-06,2774.0305937570379,2983343.2494708239,0.71804847000000005,-3.1832862037686684e-30,0.00064378315476827132,0.13202103592093728,0.0081013281611819719,0.0037667075129337508,0.0026266335225625637,0.023332416393177187,0.00020524882502799226,2.9546622181546248e-07,0.064017426974170011,0.016109557425914037,0.0009398200725190761,0.0042880977675930814,0.00030925505180413756,0.0029492301298115202,0.00023042354293687243,0.00010197866644917125,0.0017474413699826838,1.7001882183631686e-05,8.0411255250197233e-06,1.9874977455475073e-07,1.7992821895811317e-05,0.00054096345325981606,7.5124342428365849e-05,0.009088759942111611,0.0033519673815606212,1.1482435063764779e-05,1.021804912061335e-05,0.0056958327509954287,0.00094062913433480718,0.0002095781225602872,0.00053584000141137437,2.427768977245196e-06,3.5219678595340575e-07,2.6855531063469418e-06,4.8279180271845352e-11,3.1014842569441609e-12,1.619218739174671e-10,4.3747516997512817e-08,2.410673403826388e-09,5.1707959421238465e-05,0.0
2.8393416500851012e-06,2782.734203009637,2983343.2494707918,0.71804847000000005,-3.1832862037686684e-30,0.0006545935205082182,0.13066105294352645,0.008239497778313478,0.0038407486413675768,0.0026332971924454261,0.023751998446691451,0.00019794903841688754,2.8888813110513509e-07,0.065186017960262396,0.016419325960886091,0.00093836562224942899,0.0042540531867292187,0.00030365585770016898,0.0029034059971950444,0.00023353228180643303,0.00010316431070083269,0.0016187526000704497,1.6647400250851825e-05,7.796386976601599e-06,1.8668917761019954e-07,1.7505921515736697e-05,0.00053476773625664149,7.6356398682684087e-05,0.0088926728686247319,0.00321327241151246,1.0840561960533828e-05,1.0220150099270416e-05,0.0054877087082489439,0.00093987244151741997,0.00020891753857707639,0.00054636818887422419,2.2581245264280535e-06,3.0837433755321041e-07,2.3983105272890734e-06,4.3343567659142516e-11,2.7311160056896394e-12,1.4371943845691316e-10,4.0785010955125112e-08,2.3817206554100918e-09,4.3688204808467568e-05,0.0
2.851446253547824e-06,2791.1703600035189,2983343.2494707927,0.71804847000000005,-3.1832862037686684e-30,0.00066503271087760892,0.12934438073684706,0.0083746096858520244,0.0039139329999042559,0.0026392917930554288,0.024158874171518126,0.00019103051373321826,2.8266789454277089e-07,0.066315106287967301,0.016718478371280591,0.0009363316950857382,0.00421776678993543,0.00029795540855802062,0.0028571827464872776,0.00023635517858504261,0.00010421556838352971,0.0015018790734212849,1.6297521139061958e-05,7.5546479992586659e-06,1.7553372252909067e-07,1.703328915656256e-05,0.00052841577214566237,7.749686525603722e-05,0.0086978499797350037,0.0030804724920809861,1.0240948985616076e-05,1.0221953065230002e-05,0.0052887887284391718,0.00093831031626099345,0.00020804667139667513,0.00055629525738196562,2.1021468523404754e-06,2.7114407237403708e-07,2.1454762703128064e-06,3.8977851786532192e-11,2.4100844764014717e-12,1.2778354934017495e-10,3.8058140492866675e-08,2.3509280483417081e-09,3.7064278414632009e-05,0.0
2.8635508570105468e-06,2799.6108206497479,2983343.2494707955,0.71804847000000005,-3.1832862037686684e-30,0.00067544364991104953,0.12802780395451957,0.0085111427185716165,0.0039886621459572485,0.0026448353323128807,0.024566339439190534,0.00018425821596246983,2.7659791928993159e-07,0.067441568492266388,0.01701678114280555,0.00093366752129953306,0.0041782448869726449,0.0002919937951541141,0.002809184216636504,0.00023898236184535045,0.00010516714375065209,0.001392220981044181,1.5941472127727994e-05,7.3087375747548268e-06,1.648770654882611e-07,1.6559981893755897e-05,0.00052172645153787591,7.8582215473559271e-05,0.0084984325434609223,0.0029493783550686818,9.6629439008586211e-06,1.0223549078192583e-05,0.0050925983409790014,0.00093592055803788199,0.00020694851516155091,0.00056594550774728334,1.9541219059072136e-06,2.3841525782050172e-07,1.9157490500129024e-06,3.4990792412333262e-11,2.1227974846887002e-12,1.1338585153828949e-10,3.5467380659130677e-08,2.3175045968800668e-09,3.1417133175335181e-05,0.0
2.8752068579218245e-06,2807.7335365449881,2983343.2494707974,0.71804847000000005,-3.1832862037686684e-30,0.00068543500301654066,0.12676085354074199,0.0086439857704487862,0.0040621085603228082,0.0026497422098592112,0.024959006141517005,0.00017787811931051711,2.7090147155306816e-07,0.068522890797326777,0.017302976675915481,0.00093049516092163435,0.0041371879614631336,0.00028602278193073336,0.0027613631630205634,0.00024131490611570359,0.00010598460105010772,0.0012931590668631835,1.5593349410894832e-05,7.0686412461882339e-06,1.5507831843958296e-07,1.6104286530319054e-05,0.00051497936342339472,7.9571400296431813e-05,0.0083024503114341036,0.0028250318509587691,9.1270988438975216e-06,1.0224906897188127e-05,0.0049065220072367173,0.00093282895955354352,0.0002056775599088996,0.00057495824259113932,1.8189860841638473e-06,2.1065756501741832e-07,1.7149098861359305e-06,3.148668071705817e-11,1.8753826292243402e-12,1.0087241485576577e-10,3.3099440578764628e-08,2.2829397756581648e-09,2.6781511905061302e-05,0.0
2.8864295367935602e-06,2815.5415977989342,2983343.2494707797,0.71804847000000005,-3.1832862037686684e-30,0.00069501703066204487,0.12554245291375724,0.0087731840175157717,0.0041342261000432345,0.0026540623001967772,0.025337122244483243,0.000171868549860395,2.6555995222181801e-07,0.069560041448109081,0.017577333895801187,0.00092686939458745459,0.0040949367343490993,0.00028007597265906523,0.0027139094711268238,0.00024336696114221284,0.0001066760369000379,0.0012035751364542703,1.5253805938069333e-05,6.835010864675991e-06,1.4606426857245218e-07,1.5666217722928464e-05,0.00050821211916460989,8.0468549251450016e-05,0.0081104462742186256,0.0027072899142404714,8.6305818726263812e-06,1.0226062160017795e-05,0.0047302217367022727,0.00092911410778716546,0.0002042577782621427,0.00058336088102332829,1.69561100852857e-06,1.8700980596267186e-07,1.5391190821449402e-06,2.8403423715244437e-11,1.6619477520088731e-12,8.9984310598856264e-11,3.0934995613433986e-08,2.2475607088275713e-09,2.2962086421144558e-05,0.0
2.8972499182140478e-06,2823.0507800643531,2983343.2494707475,0.71804847000000005,-3.1832862037686684e-30,0.00070421428948996281,0.12436968388678217,0.0088989729152717557,0.0042050801641516106,0.0026578476507449944,0.025701517555909627,0.00016620017168429387,2.6054729729023947e-07,0.070555581563843658,0.017840545030584395,0.00092283649337693752,0.0040517335388127115,0.00027417340564950097,0.0026669171755664082,0.00024515598264673844,0.00010725049070489938,0.0011223528379240414,1.4922859356585467e-05,6.6080184154060529e-06,1.3775518410378458e-07,1.5245025944315891e-05,0.00050144723359257857,8.1279244367497231e-05,0.0079225804932958974,0.0025957977661366289,8.1699659608808998e-06,1.0227046310762758e-05,0.004563081697930218,0.0009248436176731539,0.00020270896906548043,0.00059119377468805703,1.5827849099164644e-06,1.667426459375713e-07,1.3848185640291772e-06,2.5677487682008966e-11,1.4772139620307271e-12,8.0483710351639751e-11,2.8953145426734968e-08,2.2116047139040946e-09,1.9797213129954471e-05,0.0
2.9083648184977009e-06,2830.737780391758,2983343.2494708151,0.71804847000000005,-3.1832862037686684e-30,0.00071361340027400794,0.12316760678711693,0.0090294537489054444,0.0042792326133714803,0.0026613433294692315,0.026075448482613929,0.00016050771770078644,2.5554263254227731e-07,0.07157294313435178,0.018109384268848873,0.00091813981625067501,0.0040049007421244899,0.00026795294931303667,0.0026174533659509163,0.00024679082281430089,0.00010774318562881634,0.0010439510016063659,1.4579739793985817e-05,6.373631543173375e-06,1.296008291683864e-07,1.4814091593617606e-05,0.00049426458416593373,8.2053621842379125e-05,0.0077271309393221318,0.0024835162397493808,7.7153104145732214e-06,1.0227935482059826e-05,0.0043944673361939104,0.00091975145936091108,0.00020093685075263233,0.00059895321178381243,1.4730015819619241e-06,1.4821984215599249e-07,1.2407270279294915e-06,2.3128434212068503e-11,1.307091550033965e-12,7.1665434584672696e-11,2.7022151161468641e-08,2.1728972582269859e-09,1.7003298598204525e-05,0.0
2.9217418437866151e-06,2839.9434240684313,2983343.2494707997,0.71804847000000005,-3.1832862037686684e-30,0.00072485107081866527,0.12172527188571422,0.0091882190153163273,0.0043703425719315916,0.0026650162757743622,0.026524663151992381,0.00015383368368672014,2.4971856552361054e-07,0.072789205986007688,0.018430599033149472,0.00091173786908990142,0.0039453455005210233,0.00026027805284067901,0.0025564323734521177,0.00024847318318281443,0.00010820113800138672,0.00095602256407712393,1.4163244232350122e-05,6.0907155197470865e-06,1.2028446995718993e-07,1.4298487260414193e-05,0.00048532369007265431,8.2903167769929353e-05,0.0074890689604774153,0.0023516185885812083,7.1928594019110887e-06,1.0228856289708896e-05,0.0041958917763650645,0.00091267570572270526,0.00019856535395967951,0.00060789076842283993,1.3488575980596418e-06,1.2864196579350909e-07,1.085133999059233e-06,2.0353443974316983e-11,1.1262173817077046e-12,6.220928679458755e-11,2.4834953428074519e-08,2.1241020119513805e-09,1.4164791026021359e-05,0.0
2.9340999429081404e-06,2848.3933039470076,2983343.2494708002,0.71804847000000005,-3.1832862037686684e-30,0.00073515108182046509,0.12039795063833818,0.0093365911253677266,0.0044563474471787223,0.0026678842101571492,0.0269385571917754,0.00014784140024486387,2.445359313041563e-07,0.073903839081567946,0.018724804790458602,0.00090509346745074786,0.003887346245162866,0.00025302856356674631,0.0024987312632648445,0.00024973850670182942,0.00010848937703519421,0.00088070229023076067,1.3775758502684892e-05,5.8293662455984702e-06,1.121457116154498e-07,1.3825804711697594e-05,0.00047679425641823598,8.3604125602481033e-05,0.0072668847997939988,0.0022331025906356075,6.7339888721704778e-06,1.0229575333901582e-05,0.0040168722704184267,0.00090522292663846205,0.00019614831635030841,0.00061574378411003057,1.2416646895355099e-06,1.1286132224561156e-07,9.5720750886201256e-07,1.8056907695077773e-11,9.7991441030337214e-13,5.4492888228261728e-11,2.2942738166007266e-08,2.0770614839688583e-09,1.1972247552345237e-05,0.0
2.9464580420296658e-06,2856.7809564253571,2983343.2494708118,0.71804847000000005,-3.1832862037686684e-30,0.00074536308136185299,0.11907645421282775,0.0094866138445285231,0.0045441356891984235,0.0026702409183063012,0.027351085809928507,0.00014201684273152849,2.3954708772899845e-07,0.075008785783702361,0.019016307752415345,0.00089774774059408146,0.0038266104230292326,0.00024565019624743403,0.0024398767358415306,0.0002507152649619688,0.00010864485558943697,0.00081073592296870118,1.3386389230464988e-05,5.5688412372971675e-06,1.0444104207923842e-07,1.3357294674238474e-05,0.00046802431859740897,8.4220891579552161e-05,0.0070430293678454305,0.0021179553593635774,6.2976395669422397e-06,1.0230180081569352e-05,0.0038422846066807387,0.00089689681576233344,0.00019352032927926602,0.00062319650636034776,1.1414029528530845e-06,9.901073679444191e-08,8.4307226628389485e-07,1.5994867675695353e-11,8.5140264432356605e-13,4.7658937261403873e-11,2.1169186133932081e-08,2.0283256435155079e-09,1.0125649406035015e-05,0.0
2.9594786121594202e-06,2865.5406392344198,2983343.2494708146,0.71804847000000005,-3.1832862037686684e-30,0.00075601697123380614,0.11769135123452751,0.0096464788894902488,0.0046385796163129246,0.0026721635481895128,0.027783926948290839,0.00013606235389672475,2.345038467476432e-07,0.076161368228532589,0.01932024343577135,0.00088925217938935818,0.0037598029664862665,0.00023776289533522453,0.0023767544690206964,0.00025142135546025345,0.00010866210826875789,0.00074247306138001826,1.2974884847381874e-05,5.2960944885181702e-06,9.6776229117875027e-08,1.2868867418881268e-05,0.00045854407272491162,8.477598209830745e-05,0.0068058967330188779,0.0020004287638571349,5.8618225570122378e-06,1.0230705413357827e-05,0.0036632946004506446,0.00088718969706941405,0.00019053080250062957,0.00063060436171553751,1.0429655083080242e-06,8.6241838396371311e-08,7.3633364571150483e-07,1.4053694557916989e-11,7.3311296299513503e-13,4.1316822361949783e-11,1.9423746832101289e-08,1.9753514011008093e-09,8.4940739840651768e-06,0.0
2.9708811464410731e-06,2873.1381446622559,2983343.2494708169,0.71804847000000005,-3.1832862037686684e-30,0.00076524949523611488,0.11648522510526499,0.0097880026830869018,0.0047229450654512617,0.0026733689230215548,0.028161198129871723,0.00013100180722071646,2.3026910547981647e-07,0.077160044991942969,0.019583505993446264,0.00088117962772406245,0.0036990507145036032,0.00023078159241473784,0.00232065213656555,0.00025175950174277509,0.0001085517715632812,0.00068701924455261772,1.2614086515549151e-05,5.0593947182399118e-06,9.0431718784896934e-08,1.2446051476727492e-05,0.00045005609206365981,8.5179457484617374e-05,0.0065975905969032755,0.0019008040274902972,5.4998968188910759e-06,1.0231080056683317e-05,0.0035108362569866427,0.00087791212534844767,0.00018773365074167684,0.00063670955002831982,9.6257378178573738e-07,7.6408443854337174e-08,6.5317028340408875e-07,1.253152408483349e-11,6.4234201910636724e-13,3.6412522976905979e-11,1.7994640605243886e-08,1.9277636414629976e-09,7.2881244347898524e-06,0.0
2.9823908080273614e-06,2880.7298937355122,2983343.2494708188,0.71804847000000005,-3.1832862037686684e-30,0.00077446867426426199,0.11527494709955374,0.0099323029600417723,0.0048096847760370461,0.0026741271227270643,0.02854008624522298,0.00012603956552699645,2.261683431855078e-07,0.078157172179916634,0.019846305054156077,0.00087243830206261397,0.0036357230965520832,0.00022368423793964957,0.0022633494374589892,0.00025182906680037997,0.00010832028369713057,0.00063489840379421286,1.2250070627812182e-05,4.8231227049705767e-06,8.4363093579949025e-08,1.2024388100181677e-05,0.00044132784303467233,8.5506094307178499e-05,0.0063871197667838969,0.0018034393029098892,5.1528091164468146e-06,1.0231384790174496e-05,0.0033610912490343466,0.00086782446252621796,0.00018474748466937836,0.00064250479231748214,8.8669173158516815e-07,6.760751156687253e-08,5.7806064055307617e-07,1.1148437534994547e-11,5.6150977616627546e-13,3.2014531340868923e-11,1.6642131968225329e-08,1.8787573921104847e-09,6.2492673922675793e-06,0.0
2.9938929242262416e-06,2888.2323360709443,2983343.2494708188,0.71804847000000005,-3.1832862037686684e-30,0.00078357390583660578,0.11407332024803581,0.01007795943176364,0.0048979645475557094,0.0026744194127764531,0.028916564375303683,0.00012122671151630241,2.2224581646410882e-07,0.079141899536112614,0.020105813669872713,0.00086311555407939881,0.0035705486237192843,0.00021655965082535599,0.002205512848486333,0.00025162062374717097,0.0001079675744895651,0.00058645421678605735,1.188701544794779e-05,4.5902323823918659e-06,7.8622935127654408e-08,1.1608572752195138e-05,0.00043245907540619621,8.5749517104860852e-05,0.0061769588370062601,0.0017094000345581264,4.8237818804145115e-06,1.0231622135574188e-05,0.003215668705848601,0.00085703227488411046,0.00018160707588344284,0.00064792381980515888,8.1591052544657901e-07,5.9812948835517605e-08,5.1103927615829555e-07,9.9067573367446587e-12,4.9038659786351562e-13,2.8118242137961805e-11,1.5376867381323946e-08,1.8289631675770599e-09,5.3636281509132062e-06,0.0
3.0074242526852667e-06,2896.9413660165596,2983343.2494708207,0.71804847000000005,-3.1832862037686684e-30,0.00079413742064564602,0.11267062403568548,0.01025116131167597,0.0050038726185953021,0.0026741607836145605,0.029356392813081958,0.0001157510774830329,2.1785694412107428e-07,0.080284294936085021,0.020406896722167903,0.0008514102238275119,0.0034916339300560583,0.00020816235060599946,0.00213688421326985,0.00025101404618900323,0.00010739685495937943,0.00053382951901979067,1.1461565500700743e-05,4.3211157054246597e-06,7.226890696211214e-08,1.1127076570453032e-05,0.0004218587054744505,8.5927161466482457e-05,0.0059304505215255852,0.0016029953529881295,4.4588389254869534e-06,1.0231823394832676e-05,0.003050059346760497,0.00084344891754845942,0.00017772310381258561,0.00065381922122038699,7.3878789426222747e-07,5.1770698671734142e-08,4.4144268753582067e-07,8.6088196147627799e-12,4.1763154077475401e-13,2.4103777309185591e-11,1.3993469115993273e-08,1.7695426722121225e-09,4.4864688713832269e-06,0.0
3.0215983308330146e-06,2905.9175996538638,2983343.2494708193,0.71804847000000005,-3.1832862037686684e-30,0.00080501890429179206,0.11121501030474681,0.010434714810436192,0.0051172016357514914,0.002673183306664544,0.029813190724031276,0.0001102299824782968,2.1352179611818968e-07,0.081461100190971927,0.020717151483158634,0.0008383139504633991,0.003406596207408334,0.0001993781249816471,0.002064491627107957,0.00024995473909805206,0.00010661874417251749,0.0004834146645143867,1.1018711821520293e-05,4.0457028101295053e-06,6.6055244363352984e-08,1.0632244441886958e-05,0.0004105862307238324,8.5984534271272875e-05,0.00567369920380796,0.0014964702383180287,4.1013073338171541e-06,1.0231952821646313e-05,0.0028829716501953336,0.00082822455471071195,0.00017344866024645404,0.0006594374838833774,6.6473185242799939e-07,4.448728558415008e-08,3.7807950001214586e-07,7.4184423113229306e-12,3.5247191969873159e-13,2.0480523038224111e-11,1.2659466765846827e-08,1.7065773877665615e-09,3.7268543635629292e-06,0.0
3.0337454751224735e-06,2913.4823655719674,2983343.2494708244,0.71804847000000005,-3.1832862037686684e-30,0.00081418486698297155,0.10997955857621777,0.010593726255506565,0.0052162747483020253,0.0026717641241152958,0.030201177970758934,0.00010567168278065711,2.1002001088502288e-07,0.082452463688032857,0.020978671459059288,0.00082643062255145663,0.00333197720222829,0.00019188393491651124,0.0020021880613336836,0.00024869942506525086,0.00010580614976896006,0.00044376590335556862,1.0642181240929822e-05,3.8156092331311947e-06,6.1073800843888255e-08,1.0216424488496379e-05,0.00040080900970592347,8.5927102499105224e-05,0.0054553585645456615,0.0014092034815231845,3.8142640365790174e-06,1.0232004139634719e-05,0.0027449956255208379,0.00081439724938092283,0.00016962980676523979,0.00066379996598802098,6.06421780394503e-07,3.9054280818846202e-08,3.3065341071867124e-07,6.5212328099512837e-12,3.0444829975434085e-13,1.7791006347246237e-11,1.1604487362465559e-08,1.6522317204732249e-09,3.1835353377069022e-06,0.0
3.0468986676996343e-06,2921.5322074267538,2983343.2494708295,0.71804847000000005,-3.1832862037686684e-30,0.00082393427788398168,0.108655114965704,0.010767651571921132,0.005325584414051788,0.0026696164116382843,0.030617377751049869,0.00010091428303533781,2.0644975179523921e-07,0.083507098893840143,0.021257127847324041,0.00081289995652192185,0.0032495669300471198,0.00018382804501616902,0.0019346005942734556,0.0002469780289607024,0.00010477642702503609,0.00040426353096707324,1.0238284371133162e-05,3.5732478185121589e-06,5.6020951145768219e-08,9.7752108438421605e-06,0.00039012141205670495,8.5752550672017427e-05,0.0052211977618689667,0.0013188851032503385,3.5227587329278083e-06,1.0232003801555833e-05,0.0026010163262723787,0.000798648198252801,0.00016534570598552173,0.00066805654335088565,5.4832041326118678e-07,3.3905575012416298e-08,2.8562653679326402e-07,5.6636785034611364e-12,2.5951115326759079e-13,1.5257676545941612e-11,1.05484452799905e-08,1.5931862994125004e-09,2.6884774228160572e-06,0.0
3.0599995722098203e-06,2929.3958861347901,2983343.2494707233,0.71804847000000005,-3.1832862037686684e-30,0.00083345393228592365,0.10735051932020871,0.01094264755876031,0.0054365562788073873,0.0026668407178051159,0.03102758863675105,9.6357943660000184e-05,2.0312159030574383e-07,0.084537134683365087,0.021529437175492366,0.00079876448434064722,0.0031660252753485251,0.00017588769657898365,0.0018673027318501765,0.00024489080589143371,0.00010359864956396203,0.00036820530588214804,9.8406143715175651e-06,3.3394174285750624e-06,5.1324600810376838e-08,9.3455185074291747e-06,0.00037939301947174047,8.5461612666184997e-05,0.0049907900941793676,0.0012332088777763277,3.251510206466894e-06,1.0231951166234448e-05,0.0024631873823283265,0.00078219834568549044,0.0001609383872795369,0.00067181910468322686,4.9533464655271583e-07,2.9441916435674129e-08,2.4656704779381826e-07,4.9148213586014572e-12,2.2110369520216956e-13,1.3078006702731344e-11,9.5804000513732949e-09,1.5343632833825791e-09,2.2760448787787505e-06,0.0
3.0728113298873877e-06,2936.9298688149229,2983343.2494706241,0.71804847000000005,-3.1832862037686684e-30,0.00084257030949414261,0.10608954683848636,0.011115433720419588,0.0055470965184879414,0.0026635078588855268,0.031424298016753352,9.2075440982768465e-05,2.0008535744340402e-07,0.085523863294654182,0.021790735791485469,0.00078433441230508485,0.0030831237959145978,0.00016822396823047415,0.0018016536684315832,0.00024249351225365495,0.00010230345228528508,0.00033587642474559355,9.4568104025200427e-06,3.1185279733645998e-06,4.7041089230714956e-08,8.9351070083247357e-06,0.00036884101210679789,8.506363662045684e-05,0.0047686454573989895,0.0011535080668679078,3.0038260451413396e-06,1.0231854013350759e-05,0.0023337375662230643,0.00076541655253163556,0.0001565069310264423,0.00067504579912684725,4.4792488682326774e-07,2.5637090982156327e-08,2.1329289373307023e-07,4.2724431701318362e-12,1.888527196970931e-13,1.1236026694999958e-11,8.7094584552853733e-09,1.4770060893313696e-09,1.9376453590126955e-06,0.0
3.0873213949957511e-06,2945.2676704617224,2983343.2494707135,0.71804847000000005,-3.1832862037686684e-30,0.00085265417155559655,0.10468001258378686,0.011313026914600885,0.005674686553786037,0.002658990994707712,0.03186797329519539,8.7428670504051089e-05,1.9690515454289818e-07,0.086615804290910273,0.022080558355884867,0.00076730653875785228,0.0029880495433017534,0.00015968911361927192,0.0017276697999743132,0.0002393601708295441,0.00010067054991027932,0.00030248783737906262,9.0289374579631644e-06,2.87814978812393e-06,4.2540311416475736e-08,8.4823947844048462e-06,0.00035684230999949408,8.4477496293856527e-05,0.0045213793465348822,0.0010680383578684967,2.7432386542340743e-06,1.0231694682461607e-05,0.0021934212569251718,0.0007456360840197839,0.00015136085342521926,0.00067817134601998478,3.9912465915802538e-07,2.1909654990192376e-08,1.8075515977848715e-07,3.6399393943397529e-12,1.5778076966154377e-13,9.4497970466131602e-12,7.80736826507816e-09,1.412453296329275e-09,1.6186808329211775e-06,0.0
3.1025232682892631e-06,2953.7717179657561,2983343.2494708016,0.71804847000000005,-3.1832862037686684e-30,0.0008629327448166006,0.10322544700530739,0.011522110746220875,0.0058110689895326069,0.0026534105199078101,0.032326047810208022,8.278749754849556e-05,1.9386439804426717e-07,0.087729518168498846,0.022377096588528114,0.00074873756480776509,0.0028873976006566077,0.0001509381421490191,0.0016507767196059788,0.00023561253967218751,9.8778125601763631e-05,0.00027087261292953137,8.5892344920698659e-06,2.6379588558997886e-06,3.820261004768222e-08,8.0223050432335456e-06,0.00034424521226630379,8.3710044102714817e-05,0.0042678486635999574,0.00098383842110380342,2.4916676980480553e-06,1.0231477117073429e-05,0.0020534641851345883,0.00072410225479174479,0.00014584636246881038,0.00068086029693773724,3.5315017833788437e-07,1.8576526407581196e-08,1.5175361650039491e-07,3.0719861904720478e-12,1.3052183666279044e-13,7.8719444014018714e-12,6.9512723733921181e-09,1.3455171963848887e-09,1.3446852027593851e-06,0.0
3.117725141582775e-06,2962.0300658846445,2983343.24947089,0.71804847000000005,-3.1832862037686684e-30,0.00087290712161185613,0.10179456334245061,0.011733191631937451,0.0059501929199164494,0.0026469614356425522,0.032776858254663387,7.8373362281601098e-05,1.9111714114280881e-07,0.088811110430158186,0.02266625569620475,0.00072948173177979781,0.0027860017257220863,0.00014240740296971027,0.0015747225406811615,0.00023140534458646923,9.6709163606311765e-05,0.0002423904236436286,8.1591091273448179e-06,2.4100956573433785e-06,3.4228600988558362e-08,7.5771314406021434e-06,0.00033165090111820822,8.2787572609420361e-05,0.0040205668548514541,0.0009049569635525181,2.2606864173768915e-06,1.0231212955079575e-05,0.0019205657264988599,0.00070182165131957178,0.00014023000480538431,0.00068297105543784951,3.1201142685945917e-07,1.5744095534328344e-08,1.2722061832518356e-07,2.5880002929153738e-12,1.078277775563157e-13,6.5492616896778051e-12,6.179006617627974e-09,1.2795187659665565e-09,1.1207166993367454e-06,0.0
3.132927014876287e-06,2970.0345995712883,2983343.2494709874,0.71804847000000005,-3.1832862037686684e-30,0.00088256676362462327,0.10038828481762752,0.011946131199022055,0.0060920187714275428,0.0026396457254269749,0.033220074347265018,7.4180402525320297e-05,1.8865837609188418e-07,0.089859547427820624,0.022947961707152124,0.00070960316794328141,0.0026841865383989906,0.00013411904842891507,0.0014997057977847834,0.00022675865970008812,9.4474437008157936e-05,0.00021675074340266105,7.7393035334372136e-06,2.1948472059631042e-06,3.059592087372175e-08,7.1471827385862847e-06,0.00031908858697490231,8.1713028320007833e-05,0.003780084139422441,0.00083122164803757503,2.0489522794388579e-06,1.0230906791539504e-05,0.0017945469916128493,0.00067888246900288515,0.00013453648006643405,0.00068452754218350283,2.7528843209750572e-07,1.3338683000075223e-08,1.0650446058443747e-07,2.1763509131960844e-12,8.8962589303380848e-14,5.4422718660931048e-12,5.4836183241246204e-09,1.2146654951660546e-09,9.3727540762652301e-07,0.0
3.1481288881697989e-06,2977.7782960708737,2983343.2494710893,0.71804847000000005,-3.1832862037686684e-30,0.00089190231693612499,0.099007445346303041,0.012160775863505708,0.0062364981964009468,0.0026314681949281748,0.033655394490245308,7.0202425551144212e-05,1.8648255449548718e-07,0.090873913259229458,0.023222179668679562,0.00068916935372264167,0.0025822687029530963,0.0001260919652750082,0.0014259128056982563,0.00022169608984564119,9.2085894745822677e-05,0.00019368697905367777,7.3304791367860356e-06,1.9923752748359034e-06,2.7282958392349966e-08,6.7326933356069355e-06,0.00030658643635691135,8.0490369062638493e-05,0.0035468926838515043,0.00076244416396227641,1.8551603165536454e-06,1.0230562597192097e-05,0.0016752109058758026,0.00065537681972512539,0.00012879055589973064,0.0006855558474881218,2.4258563494946607e-07,1.1297254019454878e-08,8.9040880184430781e-08,1.8265215308182711e-12,7.3301937394881642e-14,4.5172022759764123e-12,4.8585619779386307e-09,1.1511416864791263e-09,7.8668864087546043e-07,0.0
3.1652309956249999e-06,2986.1708499721944,2983343.2494711834,0.71804847000000005,-3.1832862037686684e-30,0.00090200737138609324,0.097485329631095324,0.012404079390080602,0.0064021375117206004,0.002621248152653501,0.034135353315532066,6.5976110880171262e-05,1.8436542914140211e-07,0.091973365227001169,0.023521729737931985,0.00066560516821941235,0.0024678696155755442,0.00011739317746283978,0.001344573501044143,0.00021553719884947616,8.923114988301667e-05,0.00017051631102849965,6.8843967913647845e-06,1.7799148419362709e-06,2.3912085405889175e-08,6.2850712708264555e-06,0.00029262708829347892,7.8944044594392545e-05,0.0032938031586523982,0.00069074511644131144,1.6570236973492529e-06,1.0230134168788442e-05,0.0015486817733142632,0.00062837455836404447,0.00012229440394580785,0.00068611607828532339,2.1013962201488452e-07,9.3689049270100068e-09,7.2678584450919139e-08,1.4967620298289424e-12,5.8861520974600318e-14,3.6582625739085575e-12,4.2318219741255536e-09,1.0814668917682838e-09,6.4888386567763087e-07,0.0
3.1836298188754385e-06,2994.8151269795339,2983343.2494714903,0.71804847000000005,-3.1832862037686684e-30,0.00091239821598784981,0.095885848468248547,0.012667704334739271,0.0065838942743245421,0.0026090646091453179,0.034639767990837622,6.1713089123817603e-05,1.8246848978429117e-07,0.093105838632116397,0.023833485986869556,0.00063968716286782112,0.0023455621549086821,0.00010844611412752179,0.0012592980771883398,0.00020841081768560192,8.5983758396338073e-05,0.00014852449783730171,6.4216302081349679e-06,1.5693311190437779e-06,2.0675280984650656e-08,5.8257287068831163e-06,0.00027777463665999089,7.7087993526153711e-05,0.0030330319629084624,0.00061998822418342684,1.4654761424508325e-06,1.0229629104315134e-05,0.0014213395941183131,0.00059881831777530866,0.00011530591123248122,0.00068605946499093067,1.7983072669746811e-07,7.6585603606348169e-09,5.8311423560164161e-08,1.2050349892009305e-12,4.6400922280801105e-14,2.911313939305929e-12,3.6390293097360752e-09,1.0088406598676278e-09,5.3031840554097399e-07,0.0
3.203428125781938e-06,3003.6649005645691,2983343.2494714707,0.71804847000000005,-3.1832862037686684e-30,0.00092301300210258751,0.094209807688933625,0.012953158839665241,0.0067834390426292921,0.0025946079681274502,0.035168321862002756,5.7440636344910094e-05,1.8085422959547001e-07,0.094265162568825292,0.024156959531525621,0.00061128823710315946,0.0022153859621681961,9.9312039581933651e-05,0.0011703984795823519,0.00020022879609373921,8.2314804947015819e-05,0.00012786609082102843,5.9442959068981329e-06,1.3631616171915829e-06,1.7605349910700811e-08,5.3571947931758095e-06,0.00026203223902682366,7.4882033072686726e-05,0.0027663272853601607,0.00055080185530392498,1.282120558416236e-06,1.0229039369299672e-05,0.0012940170660138697,0.00056662416549068328,0.00010783269841341858,0.00068529529114311476,1.5191379685892738e-07,6.164864853942165e-09,4.5913660721808398e-08,9.5144356943934404e-13,3.5845272725324533e-14,2.2732074721912835e-12,3.0851183334435657e-09,9.336145896082266e-10,4.295295808936435e-07,0.0
3.221134310801483e-06,3011.1789418553062,2983343.2494715042,0.71804847000000005,-3.1832862037686684e-30,0.00093200246977818892,0.092751225275632149,0.013209638199104494,0.0069652174537274151,0.0025805300386385266,0.035628224848061357,5.3883750107710862e-05,1.7977249982183805e-07,0.095249295439418055,0.02443593530050556,0.0005855747524605721,0.0021006781059138241,9.1586138115602926e-05,0.0010936222623492853,0.00019252341397276942,7.89075401007512e-05,0.00011171937956576833,5.5360572883301204e-06,1.1961851432472573e-06,1.5190337683861659e-08,4.9606745919401291e-06,0.0002482042297180095,7.2740256643732645e-05,0.002540395195775209,0.00049464170419705135,1.1362445580972342e-06,1.0228474956881253e-05,0.0011882544202870588,0.00053766488695629203,0.00010122991112245469,0.00068404853156386306,1.3056650945479409e-07,5.0784504221190384e-09,3.7011909622869147e-08,7.6812386986092565e-13,2.8402188591254841e-14,1.8194125974884443e-12,2.6550936149545091e-09,8.6906495260687099e-10,3.5771326439538892e-07,0.0
3.2401033185939154e-06,3018.8078663656652,2983343.2494713878,0.71804847000000005,-3.1832862037686684e-30,0.00094110191684168565,0.091231464999913831,0.013485241383532985,0.0071632466207244205,0.0025642870815233481,0.036107263518128409,5.03366416922024e-05,1.7897840065072583e-07,0.096248063035733328,0.024724300116521429,0.00055783595206344513,0.001980022624648475,8.3777660077979764e-05,0.0010144230905919571,0.00018393242131454105,7.5154843237744799e-05,9.6568317013149497e-05,5.1186462365844671e-06,1.0347972465890216e-06,1.2916976623616759e-08,4.5592093455776568e-06,0.0002336924811539189,7.0285757045789889e-05,0.0023118039313955417,0.00044005054691027357,9.9707533143731753e-07,1.0227834734961137e-05,0.0010829958777165405,0.00050664833117163553,9.4280179621137407e-05,0.00068217996196683051,1.1100589714693398e-07,4.1279641657728362e-09,2.9328095287737215e-08,6.0923116281950668e-13,2.2090490665355053e-14,1.4311972980130504e-12,2.2548283083091678e-09,8.0289669783283247e-10,2.9572944286274123e-07,0.0
3.2610464741440541e-06,3026.7261989620088,2983343.249471338,0.71804847000000005,-3.1832862037686684e-30,0.00095050970279246278,0.089605482150448224,0.01378999601214196,0.0073855698985137719,0.0025450202882245933,0.036619499013585403,4.6720724664162851e-05,1.7852154456824479e-07,0.097283949195226205,0.025030494833630804,0.00052714809863575426,0.0018499793045158659,7.5718280414446121e-05,0.00093084279274089081,0.00017413289834899333,7.0925121204329345e-05,8.2103862838064828e-05,4.6820454134571112e-06,8.7655516841417233e-07,1.0746718760554382e-08,4.1435614368032573e-06,0.00021807865143085018,6.7406422297938451e-05,0.0020757444494584878,0.00038597605234827204,8.6188163233930364e-07,1.0227088439399217e-05,0.00097591065935271248,0.00047263224167149901,8.6800677133910082e-05,0.00067954558622937737,9.2855871300046085e-08,3.287031472105358e-09,2.2635026680076065e-08,4.700148236713482e-13,1.6695578733209537e-14,1.096173043613668e-12,1.8766705050709915e-09,7.3353944708651247e-10,2.412920771652551e-07,0.0
3.282592917837734e-06,3034.324991828214,2983343.2494714856,0.71804847000000005,-3.1832862037686684e-30,0.00095949296326250594,0.087989797656018942,0.014103403940293271,0.0076179921652313578,0.002523820471558674,0.037128053525378214,4.3310816229449146e-05,1.7848914749251984e-07,0.098276824181913178,0.025332767995415627,0.0004956980972107254,0.0017201622959735197,6.8034028191445942e-05,0.0008492582608997729,0.00016381257307144151,6.6521186492793995e-05,6.9376346483124656e-05,4.259542227177176e-06,7.3417241466546909e-07,8.8449485786839189e-09,3.7455009575937434e-06,0.00020250959451960756,6.428720725607461e-05,0.0018507526754381728,0.00033656367162012259,7.4076349877342103e-07,1.0226280644740223e-05,0.00087511736845920663,0.00043813092258719664,7.9364532732527343e-05,0.00067628731703735072,7.7408090808343827e-08,2.6047114976044174e-09,1.729928172976723e-08,3.5859740960380402e-13,1.2483163440948311e-14,8.3160447293986636e-13,1.5481971552380724e-09,6.6631325587317462e-10,1.9708509173699607e-07,0.0
3.3071493267525329e-06,3042.3195119130191,2983343.2494716258,0.71804847000000005,-3.1832862037686684e-30,0.00096888273611890402,0.086219001208583931,0.014459559239095032,0.0078869458488977657,0.0024980803851908412,0.037684712814810513,3.9783191412143732e-05,1.7896242197783122e-07,0.099319368959683116,0.025662416625322065,0.00046024914839054581,0.0015777016081955548,6.0008367653929943e-05,0.00076188428380101144,0.0001518974236886621,6.1492658774440774e-05,5.7152351332159841e-05,3.8108566461511999e-06,5.9506877418369598e-07,7.0354826893236169e-09,3.3272922630591537e-06,0.00018543398079247134,6.0578826417484503e-05,0.0016161563069017389,0.00028720356333965491,6.2220667270074931e-07,1.0225314124819671e-05,0.00077102670463131853,0.0003997296840728037,7.1264493850136363e-05,0.00067199543543854632,6.3143062019509232e-08,2.0042703141279188e-09,1.2697542114846375e-08,2.6224088094282817e-13,8.9312380284898369e-15,6.0561881437100825e-13,1.2377712331623113e-09,5.9484473886266534e-10,1.577388546140108e-07,0.0
3.334434225546754e-06,3050.3925158243374,2983343.2494716775,0.71804847000000005,-3.1832862037686684e-30,0.00097828065320158678,0.084339023408508962,0.014852783464831589,0.0081901031428012559,0.0024676982736805677,0.038274536137720132,3.627851616771854e-05,1.8008222092024091e-07,0.10036880074506815,0.026011488469893772,0.00042166393599656743,0.0014269203799902217,5.1969969615755345e-05,0.00067192739854317644,0.0001386545496066925,5.5965133640968446e-05,4.5973297120774526e-05,3.3527487657811866e-06,4.6648892616625897e-07,5.4080963267007148e-09,2.9051747336808009e-06,0.00016736278235532031,5.632412924486901e-05,0.0013820509263157892,0.00024009775843415642,5.1148126386174729e-07,1.0224186954141225e-05,0.00066777898722876852,0.00035859179261058189,6.2794380566303658e-05,0.00066662925525020895,5.0709150119004724e-08,1.5064347530117793e-09,8.9727764296024997e-09,1.8416526051194605e-13,6.1299057560094424e-15,4.2454337168651985e-13,9.597276218813186e-10,5.2184351953066464e-10,1.2427010013727993e-07,0.0
3.3643257035080278e-06,3058.2963695765138,2983343.2494716672,0.71804847000000005,-3.1832862037686684e-30,0.00098737093712873681,0.082383708615216253,0.015278934233538851,0.0085263403725936871,0.0024325403624316346,0.038886224270128736,3.2897402624054892e-05,1.8196676852948253e-07,0.10139104130242117,0.026375049278730738,0.00038073696917443738,0.0012714731680235189,4.4167108185381869e-05,0.00058200689975976261,0.00012437729960838119,5.006915341033762e-05,3.6121830553983629e-05,2.8984160293210379e-06,3.5299729700929744e-07,4.0108578167197302e-09,2.4915167919528416e-06,0.00014872767256048037,5.1578469273420822e-05,0.001156279980683735,0.00019665653281757247,4.1163148138228022e-07,1.0222892290927087e-05,0.00056830673036324816,0.00031581531495671766,5.4217505111858745e-05,0.00066017980656122004,4.0362048312471172e-08,1.1124285499474015e-09,6.1069778488801762e-09,1.2418166382304591e-13,4.0371825033040037e-15,2.8665362477487386e-13,7.2106558117908913e-10,4.4947292341524685e-10,9.6600219217187961e-08,0.0
3.397105712634011e-06,3065.8943808784725,2983343.2494710656,0.71804847000000005,-3.1832862037686684e-30,0.00099596577360622977,0.080361827723935478,0.015738622277322627,0.0088984641391597705,0.002392129681985395,0.039516088242938764,2.9686601319541442e-05,1.8474353383513034e-07,0.10236585451524889,0.026753707413919466,0.00033789742601732117,0.0011133096253851992,3.672843586977537e-05,0.00049361641585488677,0.00010927440665976355,4.3895147126518426e-05,2.7641561348679473e-05,2.4549670653289542e-06,2.5629654686802979e-07,2.8527882288632646e-09,2.0927225651153687e-06,0.00012976086065372852,4.6372664810418903e-05,0.00094325198172153738,0.00015740940348972328,3.2347362731651011e-07,1.0221405657335061e-05,0.00047394503463387636,0.00027213017978985616,4.5708034586692936e-05,0.00065259428676425692,3.2035138478460675e-08,8.1058888617462841e-10,3.9834917979261784e-09,7.9947954849538463e-14,2.5374899401777021e-15,1.8552355207473377e-13,5.2228686570214322e-10,3.789393966235023e-10,7.3973356337827647e-08,0.0
3.4380807240414899e-06,3073.9369373250511,2983343.2494698698,0.71804847000000005,-3.1832862037686684e-30,0.001004839198706543,0.078008148063202915,0.01629870249396103,0.009365839115081466,0.002339590277182823,0.040244524736258551,2.6319042980646911e-05,1.8912125910791354e-07,0.10338336108762419,0.027202014010998397,0.00028793053673189432,0.00093422802780864509,2.8915210956463984e-05,0.00039760238589236992,9.1596475157686968e-05,3.6741055115205151e-05,1.9700472155982919e-05,1.9763277486565965e-06,1.6821247802771173e-07,1.8282795375487206e-09,1.6680599415972518e-06,0.00010828726730448995,4.0019949277968539e-05,0.00072315255760276118,0.00011857342687591633,2.3840257839177847e-07,1.0219456261476276e-05,0.0003750501247423171,0.00022282962864640158,3.6422150019638244e-05,0.0006425993567385379,2.4861127662205386e-08,5.6331823667170769e-10,2.3166403483668742e-09,4.5564609802091618e-14,1.4069567657620991e-15,1.0697910252523755e-13,3.4425975469306088e-10,3.0304167637018109e-10,5.3551890899904949e-08,0.0
3.4866585377489811e-06,3081.5991408406526,2983343.2494689068,0.71804847000000005,-3.1832862037686684e-30,0.0010129567597092924,0.075454963645124523,0.016936802431928404,0.0099182970451973992,0.00227559627340021,0.041026304107520409,2.312439715360086e-05,1.9538291198124602e-07,0.10432737781765304,0.027704735376803281,0.00023453994282688918,0.00074876676914050226,2.1513807736291897e-05,0.00030319876777074056,7.2838023857049782e-05,2.9225465522832212e-05,1.3116822286838114e-05,1.5081545739336705e-06,9.9130560854135049e-08,1.0499572364593693e-09,1.2589240663458363e-06,8.6080166388433836e-05,3.2938570652944036e-05,0.00052005120383852548,8.4190639042353667e-05,1.6519000719234497e-07,1.0217024741084602e-05,0.00028125422314216749,0.00017251021682740175,2.7317560829789269e-05,0.00063032668769094462,1.9504856584426325e-08,3.8817450164238071e-10,1.2043451659286918e-09,2.3019414027932202e-14,6.9027451320757801e-16,5.5147244440013222e-14,2.0578965041769745e-10,2.2921729418209935e-10,3.6888677730289096e-08,0.0
3.5515081641425935e-06,3089.1571725877498,2983343.2494684663,0.71804847000000005,-3.1832862037686684e-30,0.0010203950852167871,0.072417313651489512,0.017736154102077614,0.010642892012981098,0.0021897674267731429,0.041939305043393715,1.9959936205657354e-05,2.0506778420406416e-07,0.10520618350571349,0.028341067458217732,0.00017389600543095895,0.0005448800657221896,1.421475262434349e-05,0.00020620428640186227,5.2037167015326323e-05,2.0972171423338505e-05,7.5702873864376847e-06,1.0285930514355963e-06,4.6639735978155008e-08,4.7890179554149632e-10,8.4696762144491429e-07,6.1782154090599654e-05,2.4601338871583365e-05,0.00032799795500658039,5.278906662539525e-05,1.0047892675511246e-07,1.0213595515489952e-05,0.00018823344467612613,0.00011903501082193848,1.8105388439840379e-05,0.00061369169696578031,1.5529160856935978e-08,2.6532623520687155e-10,4.9319478036440658e-10,9.0216531473724538e-15,2.6144518360040468e-16,2.2383432619353458e-14,9.9927519017999495e-11,1.543305604730182e-10,2.2622922540792978e-08,0.0
3.6610778888658894e-06,3096.7794034270783,2983343.2494692286,0.71804847000000005,-3.1832862037686684e-30,0.0010266023805657254,0.068130043184745706,0.018929338131599256,0.011799611126890644,0.0020517147761223691,0.043175826074674337,1.670294531664579e-05,2.2319937497651307e-07,0.10593096028659152,0.029366591993261242,9.8594087830962892e-05,0.00030098802319335324,6.7316822388992182e-06,0.00010171251340784638,2.7750680896777766e-05,1.1428981840478723e-05,2.9659032742030034e-06,5.1131088278471267e-07,1.1642890658372186e-08,1.142910039064394e-10,4.1227775290366402e-07,3.3131342737082339e-05,1.4009264316116099e-05,0.00014581671403576053,2.3518934851379184e-05,4.2761138603661078e-08,1.02073940582915e-05,9.1648693367934575e-05,5.9919941215805273e-05,8.598606205009284e-06,0.00058589209274502116,1.2639861887389461e-08,1.8321106968194212e-10,1.0407087591681104e-10,1.7557052014820154e-15,4.8544822688867164e-17,4.6749706518831461e-15,2.6907008980135037e-11,7.5085102235444695e-11,9.9085466100666382e-09,0.0
4.6197243730639131e-06,3104.2940532705275,2983343.2494697939,0.71804847000000005,-3.1832862037686684e-30,0.0010492597385845658,0.053545253623877145,0.02289925881741171,0.016592983803661206,0.0015989535709519174,0.045717110803549454,1.4587223326157654e-05,3.0992719087779337e-07,0.10215035156922878,0.037956563812314825,2.1455254410940854e-06,4.6499285640744754e-06,5.6350125572831404e-08,1.5540602507631016e-06,2.0683764363714439e-06,1.2903356890277038e-06,3.2748087037367605e-09,6.9288635416758928e-09,1.9833648886321567e-12,1.5922924660964159e-14,3.6189965793107729e-09,4.9754508794727016e-07,9.8385897190217262e-07,8.592034567673978e-06,2.0192491651779578e-08,8.8342480191826608e-11,1.0142938783839634e-05,2.2819564766304407e-06,3.7135234334075803e-06,5.5598002892471924e-07,0.00038832254145778261,7.8528709023746117e-09,1.0279730421225666e-10,2.8484931461465451e-15,3.2991052572864609e-20,7.454300347202859e-22,1.2863275192168838e-19,8.6123933792575404e-15,1.4674629866029036e-12,9.1941165881597234e-11,0.0
7.0214281716780279e-06,3111.8059298076087,2983343.2494699406,0.71804847000000005,2.0625167338777992e-26,0.0011508288742020853,0.048337941433113263,0.023507511679598386,0.017935823532118481,0.0016536493086073492,0.044191325884337697,1.4282990384837832e-05,3.1893503974527562e-07,0.095185505267425752,0.049825915710506666,8.8290149975235275e-07,1.578110527059933e-06,1.7754375212090583e-08,5.219639999911898e-07,7.5700291303681183e-07,4.7980403220493958e-07,1.8223715488241965e-09,2.2080370503674411e-09,2.390649486143689e-13,1.8160003275330433e-15,1.076483786572114e-09,1.5918426586919534e-07,3.7897773103271135e-07,2.9060919569511588e-06,4.1372412356347274e-09,3.1893616314878487e-11,9.9690205073548786e-06,7.1825298018803303e-07,1.2796791440525797e-06,2.0224420206902764e-07,0.00012856333525201218,2.7364393121309225e-09,3.8333298530381342e-11,5.4503369761088537e-16,6.3140773558491389e-21,1.4147740144397553e-22,2.6575267854832472e-20,1.1475055185831658e-15,4.7606698593548217e-13,9.7626964486295568e-12,0.0
