t [ms],T [k],TotalEnthalpy [J/kg],Y-N2,Y-AR,Y-H,Y-O2,Y-OH,Y-O,Y-H2,Y-H2O,Y-HO2,Y-H2O2,Y-CO,Y-CO2,Y-CHO,Y-CH2O,Y-CH4,Y-CH3,Y-CH2(T),Y-CH2(S),Y-C2H4,Y-CH3O,Y-C2H5,Y-C2H6,Y-CH3OH,Y-CH2OH,Y-CH,Y-C2H2,Y-C2H3,Y-CH2CHO,Y-C2H4O,Y-CH2CO,Y-HCCO,Y-C2H,Y-C3H3,Y-C3H4,Y-C3H5,Y-C3H6,Y-N-C3H7,Y-C3H8,Y-I-C3H7,Y-CH3CHO,Y-CH3CO,Y-C4H6,Y-C5H8
1.2289705149521295e-16,2274.999999999055,2724963.8727732324,0.71804847000000005,0.0,2.0444076288809344e-16,0.21825152999999886,1.6409101116194617e-24,1.7729164047803939e-18,1.3988070642485629e-14,1.205061064374016e-33,1.1762182487524714e-15,1.5887108019003199e-38,8.4737813678916869e-26,1.7333959373904007e-35,6.1840471065415555e-26,1.5176957513864926e-25,8.0920414887311338e-49,4.162230337342875e-27,2.2892726790732911e-27,4.971292602025521e-37,0.063699999999797002,1.4025695956817005e-37,8.554913199278692e-16,8.3741434017988376e-38,5.851944677140626e-58,1.3271818413071486e-46,7.2207789305354629e-50,1.8067529059712835e-13,7.2456579528753679e-15,2.86179646546507e-24,3.3200671640920246e-27,1.4554228372824837e-31,2.2342180739543035e-38,2.4712058166505163e-45,6.1899310324374562e-50,3.2313085206014358e-40,2.063452427630969e-49,5.2539763522208041e-39,8.7486047031770524e-38,5.0022294962124641e-59,3.809099283602423e-61,1.4489857106241895e-81,7.8158885440074469e-58,9.1528932567251096e-37,0.0
2.7618726476799432e-06,2282.5348418950762,2724963.8727729521,0.71804847000000005,0.0,0.00011450683895477729,0.19883320832966064,0.0015804369855383484,0.00092477913452357883,0.0011657121231252049,0.0042563212648282283,0.00075000911164009587,7.2402789729548972e-07,0.010072005144167786,0.0016443658316299509,0.00052837272893897595,0.0018094825400997337,0.00010946506450692906,0.002257665195118518,2.0298074475098134e-05,7.5876669369245311e-06,0.034461561839284706,1.946755114079016e-05,7.4428408907654112e-06,2.0172133969108203e-06,1.426325122093506e-05,0.00019256151553439537,3.435821053536981e-06,0.0061074737549278481,0.0048502197824848419,4.5025576717341604e-05,1.0714533443887087e-05,0.010744414996428446,0.00017472209797739658,2.6078336944594513e-05,1.8988547522733198e-05,1.1884174559082505e-05,1.0702405581019605e-05,0.00011984776855002379,1.7902297329602823e-09,1.3835218848812602e-10,6.1398542916475328e-09,6.9128075729764084e-07,5.8535622710348925e-10,0.001055067995748351,0.0
2.8319788126612201e-06,2290.6723573757413,2724963.872773008,0.71804847000000005,0.0,0.00012721192025751791,0.19642402739566264,0.00178006217352627,0.0010060651202817149,0.0012580186800367683,0.0048898780046797404,0.00075458487601825087,7.6239038585656657e-07,0.011637058796536084,0.0019734980850188337,0.0005546600427467494,0.0020913277699539544,0.0001301970711490361,0.002424319248616432,2.4086627168918212e-05,9.2564777449618643e-06,0.031959034403916335,2.0784484131012768e-05,8.3071202512150561e-06,2.1996068176872975e-06,1.6552241189573766e-05,0.00022834772998711069,4.1444448005177298e-06,0.0064116847325418266,0.0051270880001526523,4.6096728420524637e-05,1.1340250671402086e-05,0.01138651314976896,0.00019970584561665734,3.0763662618677772e-05,2.5020073193969624e-05,1.4626185408805405e-05,1.3029760980260018e-05,0.00012806883235019829,1.8015484249158325e-09,1.5485532612484115e-10,7.0577591083674766e-09,7.2599769393014764e-07,6.9876159300293521e-10,0.001232472356779921,0.0
2.8920698112166004e-06,2298.8792623613617,2724963.8727731789,0.71804847000000005,0.0,0.00013895993718196584,0.19419300530224229,0.0019631612695374979,0.0010782336372842662,0.0013393529954960439,0.0054903758952632303,0.00075287568745302914,7.8666945846680323e-07,0.013137411245767528,0.0022955401094215291,0.00057677488536548758,0.0023500932633099907,0.00014989429196711162,0.0025646734999319768,2.7765707268026049e-05,1.090697439301513e-05,0.02976715701506933,2.1812619604750113e-05,9.0474802973866724e-06,2.3265800993292974e-06,1.8593836223941125e-05,0.00026146722506776855,4.8525396138273887e-06,0.0066757139006105842,0.0053421404917683045,4.6604915501086449e-05,1.1843414713501514e-05,0.011874468927271684,0.00022278067245596611,3.5243280606255423e-05,3.1487692483554838e-05,1.7156978284889674e-05,1.5137347021691325e-05,0.00013256640958824958,1.7871354885956242e-09,1.6757616569895553e-10,7.728181481196851e-09,7.4377960508208523e-07,8.0345098535626886e-10,0.0013905630364266287,0.0
2.9409288124764844e-06,2306.442200079523,2724963.8727732175,0.71804847000000005,0.0,0.00014915123076849262,0.19226307142438648,0.0021202502777225227,0.0011387060950956364,0.001406678988444731,0.0060197142268878069,0.0007477484185227256,8.0020617523983953e-07,0.014472935893017014,0.0025864884630188551,0.00059461983181615134,0.0025703170043574423,0.00016716481978279476,0.0026760974756237167,3.1077389071331245e-05,1.2412051554156178e-05,0.027964409343044103,2.2567976021326107e-05,9.6366668573254757e-06,2.4044143948105319e-06,2.0275970906810459e-05,0.00028974849173230791,5.5057049552454116e-06,0.0068915052390657091,0.0054990611697493781,4.6724969985805797e-05,1.2227148135187053e-05,0.012219229391847964,0.00024265348246688183,3.9210185337642706e-05,3.778549159132615e-05,1.9261928538930411e-05,1.6862130919852523e-05,0.00013418890925849237,1.7577936584146707e-09,1.7623349866031945e-10,8.1542853826289505e-09,7.4948766743389732e-07,8.930364845048287e-10,0.0015202771199287989,0.0
2.9857204843428597e-06,2314.1084103707854,2724963.8727732566,0.71804847000000005,0.0,0.00015904403772160224,0.19040050034935901,0.0022708240390681956,0.0011956782745589046,0.0014691167073713483,0.006538680224656989,0.00074019281630135591,8.0764321242969553e-07,0.01579342153040908,0.0028774180232702439,0.00061097877830855864,0.0027783394082096552,0.00018391650229854169,0.0027754093183113321,3.4385786883552387e-05,1.3929657009315325e-05,0.026303671835128658,2.3189791930639858e-05,1.0157697502100946e-05,2.4526368613566879e-06,2.1810035416183396e-05,0.00031647353236259704,6.1723079183946321e-06,0.0070893609469786451,0.0056270309725134924,4.6599447029112904e-05,1.2557443293136919e-05,0.012488137215544544,0.00026173349652515996,4.3107618534386395e-05,4.4491888802078795e-05,2.1158832210917793e-05,1.839541405525294e-05,0.00013394916086613274,1.7166389974423161e-09,1.8233247492442523e-10,8.4281650273577935e-09,7.4769792744361906e-07,9.7824456627050547e-10,0.001637677626268015,0.0
3.0308384991456539e-06,2322.5637271246028,2724963.8727733558,0.71804847000000005,0.0,0.00016958875049558986,0.18843244941488638,0.0024289727573894326,0.0012547037837659734,0.0015324976418724164,0.0070951385447715239,0.00072991159870107133,8.1035934945408984e-07,0.017220819888688191,0.003194945456949063,0.00062754647689601637,0.0029921333361857846,0.00020158909142359196,0.002872047608897609,3.800103826502833e-05,1.5599897283470846e-05,0.024630445828275581,2.3742342886746259e-05,1.0655961395327057e-05,2.4767573486857541e-06,2.3322662704199125e-05,0.00034389016247737071,6.9159784411448363e-06,0.0072878597430275013,0.0057391561768669348,4.6245154196979108e-05,1.28683809137957e-05,0.012708340228486719,0.00028177374208181562,4.7289126386508132e-05,5.2253535824359244e-05,2.2963604057236146e-05,1.9836164228976011e-05,0.0001320046890189318,1.6615245019796631e-09,1.8627667238660648e-10,8.5764660842988727e-09,7.3920658500081232e-07,1.0666657760398625e-09,0.0017519834180420477,0.0
3.0709434011925821e-06,2330.7146143369832,2724963.8727734596,0.71804847000000005,0.0,0.00017949429133597508,0.18660428003869359,0.0025751586848500665,0.0013087126780412107,0.0015890818057338191,0.0076190468710907308,0.00071859848285119054,8.0884266635656558e-07,0.018574928761175228,0.0034986392355097983,0.00064241176821109702,0.0031842547001832934,0.00021787788500069743,0.0029545433495709243,4.1469519386754917e-05,1.721047063633721e-05,0.023148811733503052,2.4167507597102721e-05,1.1070122927063332e-05,2.4765098012654688e-06,2.4618625232723468e-05,0.00036843543765030534,7.6436617573327775e-06,0.0074629074999552937,0.0058236639188314517,4.5740957649050167e-05,1.3125889007527257e-05,0.012857711053604412,0.00030027069441725725,5.1223688775786522e-05,6.0084665466927321e-05,2.4413329268853534e-05,2.0980531992310633e-05,0.00012887384722282363,1.6014770006314238e-09,1.8764412817177035e-10,8.5941761511559698e-09,7.2624500494502557e-07,1.1471329015842164e-09,0.0018480551649667258,0.0
3.106681433879975e-06,2338.4928804946717,2724963.8727737889,0.71804847000000005,0.0,0.00018878027979213628,0.18491166073785509,0.0027100230935536177,0.0013582114776120467,0.0016395747502502391,0.0081097625524218578,0.00070685054208165015,8.0447966485013141e-07,0.019851642187886511,0.0037868631177425858,0.00065580569513883427,0.0033558809627759548,0.00023276745467720424,0.003024935694605537,4.4775837650724355e-05,1.8750431211052161e-05,0.021837517650054084,2.4491537053928127e-05,1.1411815674344714e-05,2.4587251471838791e-06,2.5718583267033742e-05,0.00039025085390097014,8.3496678584870778e-06,0.0076171965939845288,0.0058862577115573935,4.5145334614488071e-05,1.3340136801625415e-05,0.012951604234610229,0.00031729012797785967,5.4903739183072396e-05,6.7863821685520715e-05,2.5532638822121296e-05,2.1855298188795938e-05,0.00012503529884378708,1.5397875967695569e-09,1.8700906379305522e-10,8.5183767376277644e-09,7.1065071243633554e-07,1.2200755413921094e-09,0.0019274948198927547,0.0
3.1414107839414593e-06,2346.5247332681215,2724963.8727745526,0.71804847000000005,0.0,0.00019825246232133304,0.18320858527420913,0.0028453830752547512,0.0014076968153462228,0.0016886014662613319,0.0086086799338606999,0.00069397798996504367,7.9763291279849865e-07,0.021157477382068898,0.0040833145032911919,0.00066897607044693707,0.0035219488461402998,0.00024749056748732601,0.0030901594773545807,4.819523245567371e-05,2.0345526765750424e-05,0.02057512824283169,2.4755054095510887e-05,1.1715515513877394e-05,2.4256462490595516e-06,2.6724054959085579e-05,0.00041122645789704336,9.09195976053698e-06,0.0077650547886464099,0.0059350871656756784,4.4438784989671014e-05,1.3534504939107307e-05,0.013005669685377098,0.00033430985074377271,5.8637683265481521e-05,7.6195970003356187e-05,2.6424387470270285e-05,2.2544858778592905e-05,0.00012043924267964204,1.4731200961533248e-09,1.8464269260158705e-10,8.3641519094461115e-09,6.9210787957821635e-07,1.291852257414172e-09,0.0019975404683350399,0.0
3.1764019512957938e-06,2355.0956681202542,2724963.8727756622,0.71804847000000005,0.0,0.00020827822005238341,0.1814337446975294,0.0029862249608578069,0.0014590953952706384,0.0017378567135572021,0.0091338200526395047,0.00067960453542360627,7.8826092977899786e-07,0.022539850925295767,0.0043987489700847036,0.00068240991479891937,0.0036874449252248479,0.00026248468287784238,0.0031523407533332014,5.1858078028432101e-05,2.2054689044527869e-05,0.019318668855940781,2.4967772392074165e-05,1.1989960514164231e-05,2.3769633828631069e-06,2.7660547732733961e-05,0.0004319651152708471,9.9002563152299507e-06,0.0079113836281064515,0.0059718736016445874,4.3604754701348763e-05,1.371656330809908e-05,0.013021644872657079,0.00035193382769268308,6.2557374418590442e-05,8.5405877273965196e-05,2.7092888355038996e-05,2.3053644558588931e-05,0.0001150442116383429,1.400046284905147e-09,1.8050061044419247e-10,8.1330243769083783e-09,6.7033890262291496e-07,1.36481726644163e-09,0.0020594020918562324,0.0
3.2074879728930647e-06,2363.1178609709045,2724963.8727756198,0.71804847000000005,0.0,0.00021762173894845102,0.17980662786041085,0.0031152657257127996,0.0015062012372314558,0.0017814150063039924,0.0096196405702251402,0.00066569355078618096,7.7796479596171294e-07,0.02382543587377706,0.0046934229373817868,0.00069448191054352951,0.0038319948545683107,0.00027585517261430591,0.0032043018682881711,5.5305498265429187e-05,2.3661957902212655e-05,0.018218330667673255,2.5111165652532589e-05,1.2204723509239149e-05,2.3213502240768794e-06,2.8417425034105543e-05,0.00044991392889905671,1.0672989963589754e-05,0.0080386405088635482,0.0059937720569260737,4.2765806621580396e-05,1.3866788798229785e-05,0.013002474429151081,0.00036798907182911795,6.617219534663137e-05,9.4307577415131134e-05,2.7469887603544342e-05,2.333085044712786e-05,0.00010970046495057518,1.3308929110143684e-09,1.7537692979764644e-10,7.8693177911209784e-09,6.486608757237565e-07,1.4299573900775156e-09,0.0021057049169145429,0.0
3.2423525011086977e-06,2372.576477803746,2724963.8727755249,0.71804847000000005,0.0,0.00022862659714563855,0.17792449814659977,0.0032645811472129349,0.0015608327586720859,0.001829952662213651,0.010186511910229087,0.00064886224221908382,7.6434965553562282e-07,0.025333043605820622,0.005040452719263384,0.00070816289051037261,0.0039902444317882054,0.00029079977451644464,0.0032585495828767177,5.9400192919769346e-05,2.5567221555494394e-05,0.017005266308639598,2.5219823644142615e-05,1.2410456254948047e-05,2.2460361663122404e-06,2.9170605109258196e-05,0.0004693489878939276,1.1605358434992246e-05,0.0081776500244529603,0.0060059198735791823,4.1721277342349786e-05,1.4022556432857927e-05,0.012942817903846679,0.00038643813922961163,7.0374105217133672e-05,0.00010513062969347156,2.763090410558565e-05,2.3429747581695359e-05,0.00010320502514805859,1.2495063822228963e-09,1.6810897015344778e-10,7.51584977297181e-09,6.2204295814309988e-07,1.5030724142568925e-09,0.0021464395245321703,0.0
3.2772170293243306e-06,2382.5273408797166,2724963.8727754289,0.71804847000000005,0.0,0.00024022834018582191,0.17598089560447019,0.0034189904308536377,0.0016175825881444106,0.0018780601542732064,0.010777056345110165,0.00063078729607689169,7.4870495486878888e-07,0.026911548717379729,0.0054053443407370847,0.0007219676310895849,0.0041432031273946771,0.00030556521872100332,0.0033081428885217098,6.3749064462428968e-05,2.7584153012472425e-05,0.015817805214401161,2.5272277446820839e-05,1.2576483372404323e-05,2.1582467184180393e-06,2.9810878970298893e-05,0.0004878745151274907,1.2612299958421532e-05,0.0083119600984037437,0.0060046094210468356,4.057421552692808e-05,1.4165137599725856e-05,0.012842255499552176,0.00040534987075350988,7.4730590267858203e-05,0.00011687188377917637,2.7504185381865904e-05,2.3292600650050883e-05,9.6305826589191131e-05,1.165102173671479e-09,1.5938734036203733e-10,7.110689461497862e-09,5.9333393433725745e-07,1.5758729399936031e-09,0.0021737428040792361,0.0
3.3033654254860553e-06,2390.3160343451523,2724963.8727749167,0.71804847000000005,0.0,0.00024934809350316581,0.17448223563545448,0.0035383046948156438,0.0016616815194918609,0.0019137977123478932,0.011235744969138163,0.00061645387895147648,7.3574289661016989e-07,0.02814272897243357,0.0056909592737717082,0.00073237793869200736,0.004253684219755945,0.0003164363977601271,0.0033420268289924178,6.7185702154792156e-05,2.9171956599692118e-05,0.014946095328969901,2.5274166364970478e-05,1.2673469972152297e-05,2.085104277139762e-06,3.0210136554216543e-05,0.0005010630935923814,1.3419795186808832e-05,0.0084090669937619874,0.005994597674124252,3.9651278488772032e-05,1.4263626051485835e-05,0.012739819652906404,0.00041983274015585428,7.8097727204742707e-05,0.00012629626687220055,2.7219461706941242e-05,2.3031015454319885e-05,9.0946874561157238e-05,1.1004802233830743e-09,1.5201764784997089e-10,6.7791995706103628e-09,5.7065107796506136e-07,1.6299925352437376e-09,0.0021844317442661926,0.0
3.3291296848870871e-06,2398.2649720784962,2724963.8727745949,0.71804847000000005,0.0,0.00025870550244933715,0.17297077712178749,0.0036589406988491819,0.0017065405103897629,0.0019486763528133223,0.011701098386990457,0.00060171241824279122,7.2202359773968844e-07,0.029395996929994721,0.005982554676202477,0.00074265796241200401,0.0043583991978665224,0.0003269078748969145,0.0033724345949702932,7.0724786534386431e-05,3.0800638551906131e-05,0.01410458060043974,2.5244265084330504e-05,1.2744915803792767e-05,2.0076706969898908e-06,3.0530910502702951e-05,0.0005133848006209134,1.4261914465586204e-05,0.0085012456730882164,0.0059770198107121407,3.8693062851884047e-05,1.4353772654648651e-05,0.012616253833192256,0.00043434850986111468,8.1497135433712323e-05,0.0001361100027851969,2.6783743062537886e-05,2.264016457797995e-05,8.557197408413033e-05,1.0362098451665217e-09,1.441744292215185e-10,6.4343800685060018e-09,5.475057574524567e-07,1.682672667962909e-09,0.0021860507603376688,0.0
3.3529740505389785e-06,2405.8657653197306,2724963.8727746094,0.71804847000000005,0.0,0.00026771053729069143,0.1715407869733849,0.0037734158973666016,0.0017494001759229092,0.001980624690348683,0.012143752584015599,0.00058755061240641849,7.0855452328012859e-07,0.030591749654239251,0.0062615379639432336,0.00075216803914368937,0.0044511874127505253,0.00033632935033301879,0.0033977802278556202,7.4140157264634127e-05,3.2365560513557768e-05,0.013342331688707741,2.518826609648671e-05,1.2788973610285418e-05,1.9318902900030004e-06,3.0760270249513594e-05,0.00052413117226437426,1.508450131610281e-05,0.0085830603922392133,0.0059538206160552184,3.7765975981558119e-05,1.4431268267200947e-05,0.012481991429745726,0.00044799435781038479,8.471346175726914e-05,0.00014566435931028733,2.6249295191444434e-05,2.2162782411342497e-05,8.0558495451485323e-05,9.765823919985075e-10,1.3649753400994393e-10,6.1030096288743472e-09,5.2551174709827693e-07,1.7306456493285236e-09,0.002179157953458763,0.0
3.3758802403254293e-06,2413.3896543413298,2724963.8727746252,0.71804847000000005,0.0,0.00027668753278846695,0.17013852968723411,0.0038860467584721377,0.0017918792581357521,0.0020109848594239681,0.01257993169570497,0.00057350322103801477,6.949753735799904e-07,0.031773181409184309,0.0065378922707446498,0.00076127589765983498,0.0045361925769704138,0.00034508368105542559,0.0034194522928287833,7.755189967163201e-05,3.3921636210303504e-05,0.012626064313686361,2.5108660344192387e-05,1.2810734378301032e-05,1.85593520527053e-06,3.0916990488890505e-05,0.00053380755311946144,1.5915708678389412e-05,0.0086581106666228716,0.0059251635445087469,3.6841471664039668e-05,1.4500500377691696e-05,0.01233517520516593,0.00046128859756793255,8.7864481037085013e-05,0.00015527273702752817,2.5624526802874649e-05,2.1602903570629679e-05,7.5743564193042338e-05,9.1949631924787923e-10,1.2883251652451149e-10,5.7768491405081439e-09,5.039755753056929e-07,1.775819600784663e-09,0.0021645396764907727,0.0
3.4013070925473242e-06,2421.9977001837619,2724963.8727745777,0.71804847000000005,0.0,0.00028704249884537857,0.16854886366063701,0.0040142409402950255,0.0018406382448483707,0.0020442699985308106,0.013076764790714953,0.00055743560018448426,6.7923659623981374e-07,0.033122398024725157,0.0068543355993098461,0.0007713214549058755,0.0046253552018754246,0.00035439879594056077,0.0034402673788282712,8.149345605590566e-05,3.5709912362847293e-05,0.011850440484075887,2.4990527628040796e-05,1.2810675321822131e-05,1.7686712034320772e-06,3.1015553422747096e-05,0.00054374837681353983,1.6887557464691849e-05,0.0087368691833067044,0.0058859292762562989,3.5779292119018134e-05,1.4571562065865194e-05,0.012152042015010557,0.0004762487394174212,9.1429076210026633e-05,0.00016643287557934752,2.481387491668046e-05,2.0870913174774982e-05,7.0439360167480348e-05,8.5670918248124498e-10,1.2009473027348736e-10,5.4094050224450007e-09,4.7972687987180191e-07,1.8246617951904482e-09,0.0021387392534381834,0.0
3.4298107619076277e-06,2431.9696060952369,2724963.8727738373,0.71804847000000005,0.0,0.00029915846799995969,0.16672497999402897,0.0041620705211545764,0.0018974535661745863,0.0020810143701456944,0.013649658919782509,0.00053887954458909759,6.608553557976461e-07,0.034682320334696724,0.0072212913493955788,0.00078245256667442168,0.0047182067907557829,0.0003642513832909405,0.0034593127902888539,8.6110291313138516e-05,3.7791082524072473e-05,0.01100674072030848,2.4820732411476837e-05,1.2779584331820236e-05,1.6680635260925866e-06,3.1029234550494265e-05,0.00055381761208265449,1.8041338509190766e-05,0.0088187537594165977,0.0058325041284790404,3.4547575154784747e-05,1.4644261212143028e-05,0.011922082085202118,0.00049325607387931388,9.5502704905987159e-05,0.00017956021707217886,2.3775218597320311e-05,1.9922125494274406e-05,6.4591667837672674e-05,7.8749777871904026e-10,1.1015086808048055e-10,4.9952757639557798e-09,4.5227749087829786e-07,1.8774103375853397e-09,0.0020974200210313425,0.0
3.4514304004974102e-06,2439.7616282160916,2724963.872773414,0.71804847000000005,0.0,0.00030871931893433245,0.16531178991117507,0.0042772153838375911,0.0019421733708595834,0.0021084499993190074,0.014095488996151515,0.00052445862406514808,6.4645976770301038e-07,0.035898995678428858,0.0075083039845391325,0.00079076529713556574,0.0047832181676851476,0.00037124723235159093,0.0034705694804868736,8.9755007272218198e-05,3.9423402156348409e-05,0.010385934799332034,2.4665553171521967e-05,1.2733681566181724e-05,1.5904184230440665e-06,3.097016368650002e-05,0.00056064948614071729,1.8963726145478827e-05,0.0088758004870655612,0.0057852086087578636,3.3587157191863369e-05,1.469470082067098e-05,0.011730752412005321,0.00050630778305991119,9.8642120258098071e-05,0.00018994851625744834,2.2908564746233178e-05,1.9120510836839212e-05,6.0255291427675156e-05,7.3611831807058892e-10,1.0259693077955533e-10,4.6825085110022898e-09,4.3137841229726182e-07,1.9157262966089938e-09,0.0020571368895782914,0.0
3.4730500390871927e-06,2447.7519310882171,2724963.8727732622,0.71804847000000005,0.0,0.00031860983840983524,0.16387267953049059,0.0043950555379692838,0.0019883854791095004,0.002135482907804315,0.014551099150284149,0.00050977180225530592,6.3172808611641986e-07,0.037144537085934716,0.007802848612897117,0.00079893089047682715,0.0048432290345537619,0.00037777999993364388,0.0034789363617739413,9.3524971564349664e-05,4.1101671141654396e-05,0.0097823769007585951,2.4487602423361224e-05,1.2668208820156694e-05,1.5121264620769055e-06,3.0850656973955602e-05,0.00056674978159240458,1.9928375789946493e-05,0.0089279854096403991,0.0057319674855415559,3.2606378185064901e-05,1.4741261638548007e-05,0.011525310806729432,0.00051947482785613176,0.00010181911338683945,0.00020070426582325683,2.1984965971103614e-05,1.8256160623974363e-05,5.6025825551563078e-05,6.8591932056473814e-10,9.5105462787484951e-11,4.3730831959507207e-09,4.1049678602967253e-07,1.9523362505342159e-09,0.0020090576403155439,0.0
3.4946696776769752e-06,2455.9417114787066,2724963.872773069,0.71804847000000005,0.0,0.00032883748542509401,0.16240748651946116,0.004515673033108571,0.0020361725707530622,0.0021620875270566406,0.015016504446540133,0.00049485096273800923,6.1671070227503035e-07,0.038418846917080508,0.0081049511556498255,0.00080691472713181661,0.0048979498163504919,0.0003838026682365518,0.0034842859244940422,9.7421298394210885e-05,4.2825135680858778e-05,0.0091967055024520725,2.4286909971965622e-05,1.2582933570365073e-05,1.4336311317947065e-06,3.0670666017481477e-05,0.0005720879561185707,2.0936537064118127e-05,0.0089748159733282016,0.005672680702738255,3.1607228242997348e-05,1.4784110279195146e-05,0.011306257069432869,0.00053273962824124826,0.00010502791672051147,0.00021182140687076741,2.1014701389617673e-05,1.7337110831852783e-05,5.192019152001372e-05,6.3708249770534774e-10,8.7737328404575764e-11,4.0687862397070926e-09,3.8970682285108756e-07,1.9870063494611644e-09,0.0019531964378388771,0.0
3.514710704891411e-06,2463.7128098128019,2724963.8727733558,0.71804847000000005,0.0,0.00033862474356156485,0.1610258725470041,0.0046300339797897003,0.0020819502114702119,0.0021863444294905397,0.015456674424428697,0.00048083998188520931,6.0257873038463976e-07,0.039625655814697437,0.0083917561210217935,0.00081412070337926281,0.0049437056394120663,0.00038888893256449237,0.0034864377744337465,0.00010114628590627768,4.4462126726422639e-05,0.0086702968972487068,2.4080614582859163e-05,1.2486042226616838e-05,1.3610574213228288e-06,3.0450110943601929e-05,0.00057633140525112207,2.1910923671942242e-05,0.0090129777102394525,0.0056122298403176217,3.0666343704987778e-05,1.4820664189202065e-05,0.011091532846008724,0.00054510471163790695,0.00010802485296078023,0.00022244272466171212,2.008256963559896e-05,1.6443869265902675e-05,4.8237699714209451e-05,5.9316291771823865e-10,8.1065798474312435e-11,3.7926839274273369e-09,3.7057868256507988e-07,2.0172008446862756e-09,0.001894555759018922,0.0
3.5343682663889197e-06,2471.5039660387574,2724963.8727730773,0.71804847000000005,0.0,0.00034851465457995162,0.15964875211241941,0.0047446522834615522,0.0021283020872322474,0.0022097377598097479,0.015896583042505186,0.00046695714158951653,5.88559681444899e-07,0.040833054292027805,0.0086793908057497173,0.00082097503571535802,0.0049837278587834301,0.00039337674122478676,0.0034858226612339283,0.00010490531205654799,4.6103334114238103e-05,0.0081698225601053911,2.3859409375541891e-05,1.2374232091630791e-05,1.2903705829674331e-06,3.0184189392205072e-05,0.00057981507772884009,2.290465525592482e-05,0.0090450443005963312,0.0055477113151323702,2.973127325971685e-05,1.4853697895760106e-05,0.010870510034615165,0.0005572776433484945,0.00011097903717334235,0.00023314837426590223,1.9145677524037179e-05,1.5536365972193842e-05,4.4750802138088635e-05,5.5146715228952931e-10,7.4709387751414767e-11,3.5285846138541934e-09,3.5200444359651199e-07,2.0448038734683727e-09,0.0018307890973518093,0.0
3.5536544280154184e-06,2479.3114928596951,2724963.8727729497,0.71804847000000005,0.0,0.00035849866888931114,0.15827650801216339,0.0048595133749059624,0.0021752363269735308,0.0022322850699148492,0.016336006469221349,0.00045322885873264279,5.7469061949133802e-07,0.042040188854384708,0.0089676571612049734,0.00082746302035644446,0.0050181292449054766,0.00039726378196244328,0.0034825014078351296,0.0001086934651800802,4.7746197186695615e-05,0.0076944458576574323,2.3624331791258624e-05,1.2248349016244469e-05,1.2217787534600698e-06,2.9876434257513866e-05,0.00058256383346480458,2.3916719224087333e-05,0.009070883987866556,0.0054792956074002936,2.8803554517282456e-05,1.4883522838291629e-05,0.010644150703033718,0.00056924169249965751,0.00011388457722447958,0.00024391987405396294,1.8211892738758015e-05,1.4622828726108689e-05,4.1457824286490524e-05,5.1196985922461189e-10,6.8685317314136108e-11,3.276855532086604e-09,3.3400916030942493e-07,2.0697624663612682e-09,0.0017624420897787373,0.0
3.5737753690573356e-06,2487.6309563584973,2724963.8727728017,0.71804847000000005,0.0,0.00036921185636395185,0.15682256827936883,0.0049819432034969215,0.0022258075423847927,0.0022553606319648048,0.016802665610761099,0.00043882209860614756,5.6013835743912227e-07,0.043323049020669302,0.0092747753123172023,0.00083394704015657525,0.0050486944458733637,0.0004007396843300006,0.0034760684553247004,0.00011274906208046704,4.9492576555972845e-05,0.0072153653759930653,2.3360154728648913e-05,1.209993861655477e-05,1.1512962259733407e-06,2.9507122392602889e-05,0.00058471078251735821,2.5012142410747864e-05,0.0090913893882911771,0.0054024207086753396,2.7826280326946539e-05,1.491204920998291e-05,0.010398529705638756,0.00058171920925962468,0.00011691506311762473,0.0002554298161174277,1.7229511687363471e-05,1.3652890587580064e-05,3.8164039705117818e-05,4.723515778030561e-10,6.2653262593160445e-11,3.0228826100797415e-09,3.1552304793230576e-07,2.0933641404541008e-09,0.0016853583915861642,0.0
3.5935491579770469e-06,2495.9813698260014,2724963.8727714727,0.71804847000000005,0.0,0.00038003432803336356,0.15537160053709262,0.0051048953901135837,0.0022771694257110475,0.0022775711029456632,0.017269382898787822,0.00042461025618404779,5.4579239815916552e-07,0.044606728998444325,0.0095828911106534218,0.00083999942792190973,0.0050732566720694573,0.0004035459121660391,0.0034666968926458713,0.00011683427498668486,5.12384917604388e-05,0.0067616538166860064,2.30818723146587e-05,1.1937163956896202e-05,1.0833570455571899e-06,2.9097732239875758e-05,0.00058609183678853978,2.6128155924733426e-05,0.0091045696187085547,0.0053213036632233403,2.68579977656952e-05,1.493764644788386e-05,0.010148351144509229,0.00059394637048208081,0.00011988286253976204,0.00026699934170160323,1.6262749590175654e-05,1.2690635103620923e-05,3.5073228686859788e-05,4.3506266361432687e-10,5.7000368074183111e-11,2.7826235459962808e-09,2.9768716101460167e-07,2.1139399710046223e-09,0.0016042762185820999,0.0
3.6133229468967582e-06,2504.5061633033952,2724963.872770186,0.71804847000000005,0.0,0.00039114495675659355,0.15389884543400723,0.0052305058494986683,0.0023302455899241923,0.0022992965701287009,0.017744054709769072,0.00041037602217359017,5.3143899434001184e-07,0.045912676066409482,0.0098971846882804932,0.000845696756830429,0.005092226316573749,0.00040571618808685298,0.0034542082332507545,0.0001210135581610794,5.3010673942034784e-05,0.0063251681487377096,2.2785289301611851e-05,1.1757743005758005e-05,1.0169657807080074e-06,2.8644142469404196e-05,0.00058674142363134517,2.7283165348156519e-05,0.0091102544380458495,0.0052345682967798266,2.5883401948928256e-05,1.4960967200814533e-05,0.0098901161676909523,0.00060610351924757157,0.00012282943225401586,0.00027881011726260034,1.5301023717248883e-05,1.1727176193568195e-05,3.2131124875840491e-05,3.9946313445357518e-10,5.1638803413088495e-11,2.5522298367773532e-09,2.8022176355764265e-07,2.1317303433418402e-09,0.0015184290468943673,0.0
3.6330967358164696e-06,2513.2067213554092,2724963.8727687928,0.71804847000000005,0.0,0.00040253815439978986,0.15240450473202655,0.0053588161014483547,0.0023851007538038308,0.0023205144236437682,0.018226574979592479,0.00039615040180756699,5.1711395229749141e-07,0.047240315871740546,0.010217572104814533,0.00085099962238139562,0.0051054539848256735,0.00040722127599181028,0.0034385127803155508,0.00012528082011629407,5.4805370197373435e-05,0.0059061293748111894,2.2470643861375938e-05,1.1561876723687879e-05,9.5233012423991655e-07,2.8148485254569426e-05,0.00058665353897895708,2.8476678331847699e-05,0.0091078314470352268,0.0051421204778574203,2.4903987773948304e-05,1.4982149181119806e-05,0.0096245233177070962,0.00061815069082629659,0.00012574247727500628,0.00029084535644718559,1.4350171484736245e-05,1.0770205278992742e-05,2.9340331630111451e-05,3.655974798015664e-10,4.6582259176412616e-11,2.332204791368126e-09,2.6316613487321246e-07,2.1465534953469408e-09,0.0014284299112855446,0.0
3.6528705247361809e-06,2522.0843387331352,2724963.8727671667,0.71804847000000005,0.0,0.00041420597784181523,0.15088885764689189,0.0054898625643036011,0.0024417990327295636,0.0023412013443297485,0.018716813576758244,0.00038196455650321953,5.0285200232200279e-07,0.048588976546355855,0.010543946816416053,0.00085586724380992349,0.0051128058998510017,0.00040803451635556864,0.0034195258488363849,0.00012962833010043937,5.6618140962444895e-05,0.0055047060946297058,2.213821679956654e-05,1.1349842048309461e-05,8.8963423401328382e-07,2.7613172313664837e-05,0.00058582516411826292,2.9707802521356476e-05,0.0090966611634136878,0.005043874045263963,2.3921277793819693e-05,1.5001328637109909e-05,0.0093523081544743484,0.00063004265353852325,0.00012860818304310492,0.00030308590320669084,1.3415532342333163e-05,9.827291339797567e-06,2.6702347063173566e-05,3.3349676895215761e-10,4.183983686701417e-11,2.1229512894810461e-09,2.4655698196442304e-07,2.1582370643983335e-09,0.0013349900856626422,0.0
3.6726443136558923e-06,2531.1401239489023,2724963.872765779,0.71804847000000005,0.0,0.00042613800454674151,0.14935226960709694,0.0056236763069907594,0.002500403860847932,0.0023613332247671556,0.019214614196974567,0.00036784954853237892,4.8868664869980468e-07,0.049957881474983597,0.010876177352810889,0.00086025766122651008,0.005114165329433016,0.00040813228819428562,0.0033971691355624421,0.00013404654175865998,5.84438047387237e-05,0.005121011011369552,2.1788335480268896e-05,1.112199735099174e-05,8.2903855612291985e-07,2.7040873730248236e-05,0.00058425633302443486,3.0975183071580743e-05,0.009076082731848888,0.0049397564170949228,2.2936836143427434e-05,1.5018639652441858e-05,0.0090742398658392801,0.00064172859923229057,0.00013141115071516098,0.00031551005920360569,1.2501937844965829e-05,8.9057858499339887e-06,2.4217660153908367e-05,3.031895914770457e-10,3.7416353887656298e-11,1.9247774181473927e-09,2.3042841623664394e-07,2.1666207539654103e-09,0.0012389156583035845,0.0
3.6924181025756036e-06,2540.3748752056135,2724963.8727640067,0.71804847000000005,0.0,0.00043832125841463776,0.14779520092298803,0.005760282974225788,0.0025609779901507351,0.0023808850930335827,0.019719792246101403,0.00035383607339180598,4.7465003847903743e-07,0.051346142232580751,0.011214104962357333,0.00086412796900098342,0.0051094339939204711,0.00040749447276293855,0.0033713722135941906,0.00013852392484899951,6.02763897175807e-05,0.0047550977545770638,2.142137784252383e-05,1.0878787306940782e-05,7.7067994334681623e-07,2.6434491269975761e-05,0.00058195016485418512,3.227693749122674e-05,0.0090454217554178599,0.0048297155209423058,2.195228417300427e-05,1.5034213473696596e-05,0.0087911173022620168,0.0006531519063130869,0.00013413436343715976,0.00032809342549680761,1.1613707996397729e-05,8.0127206419442937e-06,2.1885842034358914e-05,2.7467954171682788e-10,3.3312694887204344e-11,1.73790369896176e-09,2.1481191403757664e-07,2.1715589104053836e-09,0.0011411003680286138,0.0
3.7121918914953149e-06,2549.788925919544,2724963.8727624957,0.71804847000000005,0.0,0.00045074019965542548,0.14621821512339242,0.00589970291803506,0.0026235835816095297,0.0023998310432610023,0.020232132754243799,0.0003399541854788641,4.6077285377826694e-07,0.052752751886268143,0.011557541280445756,0.00086743458646533641,0.0050985334296586027,0.00040610490823835644,0.003342074135185029,0.00014304681236136177,6.2109095296317371e-05,0.0044069581513947343,2.1037776366801429e-05,1.0620746942990205e-05,7.1467202685645775e-07,2.5797126334902579e-05,0.00057891285699026196,3.3610589537062741e-05,0.0090040005167633594,0.0047137281013671451,2.0969317219304798e-05,1.5048177876402142e-05,0.008503764450146006,0.0006642500035436167,0.00013675919393478194,0.00034080876829739527,1.075465093725461e-05,7.1546982217252826e-06,1.9705631268596724e-05,2.4795342278119586e-10,2.9526218982625467e-11,1.5624671222896646e-09,1.9973625134258244e-07,2.1729229262811999e-09,0.0010425141092600535,0.0
3.7319656804150263e-06,2559.381958074543,2724963.8727609599,0.71804847000000005,0.0,0.00046337679202426002,0.14462198667820605,0.0060419515649288418,0.002688282402020604,0.002418144177965955,0.020751388371913669,0.00032623302323496977,4.4708423219729018e-07,0.054176578890962855,0.011906266089799741,0.00087013356588173485,0.0050814062798665814,0.00040395182322455802,0.003309225121390486,0.00014759927164962518,6.3934266673270205e-05,0.0040765200928223845,2.0638021857642555e-05,1.0348504628678027e-05,6.6110579942795289e-07,2.513204289212104e-05,0.00057515363475836177,3.4973004607640338e-05,0.008951150803234895,0.0045918093856046381,1.9989721988783718e-05,1.5060656579325795e-05,0.0082130253788739449,0.00067495436573587926,0.00013926546426011382,0.00035362591975414198,9.9280640154104504e-06,6.3377747471770668e-06,1.767500880517833e-05,2.230293723284309e-10,2.6051167711605133e-11,1.398524338495856e-09,1.8522742009664266e-07,2.1706034072371527e-09,0.00094418659942949071,0.0
3.7481410565110688e-06,2567.3615530548623,2724963.8727606484,0.71804847000000005,0.0,0.00047386147011846326,0.14330247898982576,0.0061604252369036753,0.0027428069822552827,0.0024326346781894576,0.021181096859260413,0.00031514790681861417,4.3604615555581118e-07,0.055353225198108313,0.012195286416197132,0.00087185883311285733,0.0050627406595510254,0.00040161777033895099,0.0032796872919485538,0.00015133256731603964,6.5415770589663175e-05,0.0038192835781487161,2.0299386918128162e-05,1.0115746526546674e-05,6.1915205279520042e-07,2.4569741075701647e-05,0.00057155010534114552,3.6106209559846929e-05,0.0088989700454780128,0.0044877101142958694,1.9192219300795539e-05,1.5069843040771425e-05,0.007973276156412459,0.00068336624939104495,0.00014121243617370272,0.00036416326102533929,9.2780060934714627e-06,5.7038623493795616e-06,1.6123279153173204e-05,2.0393322338264201e-10,2.3434250424137468e-11,1.272952911692129e-09,1.7379658551407839e-07,2.1659045444787865e-09,0.00086469046816178797,0.0
3.7632255015731799e-06,2574.9091536955698,2724963.8727606218,0.71804847000000005,0.0,0.00048374726913360665,0.14206127170184166,0.0062726248492863635,0.0027949834524621572,0.0024457355617303034,0.021585673415742971,0.00030493707705737228,4.2589545336254841e-07,0.056459471361057709,0.012467712422714298,0.00087305375978340236,0.0050415509901546975,0.00039897528759485779,0.0032499664609524173,0.0001548110543407912,6.6783215035388436e-05,0.003589893385168364,1.9974477130890206e-05,9.8909476499749747e-06,5.8156635491276132e-07,2.4032356180081278e-05,0.00056776866667289339,3.7175831323174486e-05,0.0088427365006968923,0.0043871501793167709,1.845264317506105e-05,1.5077641278870268e-05,0.0077485903367840083,0.00069089046644859535,0.00014293264085747149,0.00037401409529790269,8.6941828689145811e-06,5.1430084061666545e-06,1.4763200605872338e-05,1.8717853311593109e-10,2.1171484980313477e-11,1.1627310845347584e-09,1.6350224886243124e-07,2.1592149372339226e-09,0.00079187706689584809,0.0
3.778309946635291e-06,2582.5577670101975,2724963.8727605985,0.71804847000000005,0.0,0.00049372675817941237,0.14081020082163856,0.0063864835445968608,0.0028484712120446162,0.0024584250158543024,0.021993809060996947,0.00029486003837272468,4.1589398018694053e-07,0.057573685569167726,0.012742792359497353,0.00087382952964643089,0.0050167125844493253,0.00039588405251597192,0.0032181413001498241,0.00015827645888703216,6.8132493649392879e-05,0.0033705212617916587,1.9641072978457919e-05,9.6590817180347389e-06,5.4548102620396501e-07,2.3484004135240159e-05,0.00056358859426164734,3.8255497134256611e-05,0.0087789407588263636,0.0042833094318538174,1.7718021226724356e-05,1.5084747887274324e-05,0.0075232324167901765,0.00069806771527801815,0.0001445500213508692,0.00038387091788507092,8.1328471848983999e-06,4.6132147503906834e-06,1.3485378516032151e-05,1.7141559444141203e-10,1.907468803198562e-11,1.0590860199921548e-09,1.5356879896287394e-07,2.1502756387039926e-09,0.0007208258731261878,0.0
3.7933943916974021e-06,2590.3054286891215,2724963.8727605534,0.71804847000000005,0.0,0.00050378889597752527,0.13954975564234853,0.0065020034428883797,0.0029032984547231878,0.0024706895110534273,0.02240533851154777,0.0002849274482855527,4.0605222375144886e-07,0.05869515948181242,0.013020373309456278,0.0008741673279128951,0.0049882360755030049,0.00039234680250413927,0.0031842128332224603,0.00016171803100339566,6.9458922612239534e-05,0.0031610347157532783,1.9299492035771508e-05,9.4205730467001268e-06,5.1090452375911511e-07,2.2926233752033846e-05,0.00055901818449794209,3.93426252637912e-05,0.0087073607746774948,0.0041762929664111393,1.6989337728230794e-05,1.5091209940605089e-05,0.0072975882194112269,0.00070485956368105773,0.00014605387094517548,0.00039371582185894591,7.5946797432057403e-06,4.1159149642064977e-06,1.2287955863904326e-05,1.5662560434190958e-10,1.713792823799432e-11,9.6193112336137522e-10,1.4400296710261855e-07,2.1390729622591242e-09,0.0006519989350907147,0.0
3.8087964748453105e-06,2598.315763045136,2724963.8727603327,0.71804847000000005,0.0,0.00051413632879060791,0.13825365058042186,0.0066216719936276151,0.0029606922203411056,0.0024827593916497983,0.022828850041797272,0.00027494513330372187,3.9617838335218174e-07,0.059846954604011328,0.013306207506130506,0.00087404126355058813,0.0049554260495226557,0.00038827972827494691,0.0031474073755917292,0.00016519549722185959,7.0784580522216959e-05,0.0029571770225373874,1.8942635656416073e-05,9.1706607525087653e-06,4.7715893647201776e-07,2.2348596496024043e-05,0.00055395821099992306,4.0457366845829371e-05,0.0086260443818286844,0.0040638871768400022,1.6252510230700358e-05,1.5097189855946194e-05,0.0070672959095355904,0.00071135556234297025,0.00014746096923481055,0.00040373618502871275,7.069613088017493e-06,3.6427872925931849e-06,1.1146157897766315e-05,1.4250110768579515e-10,1.5318861592557475e-11,8.6931257739398339e-10,1.3462075169184298e-07,2.1252935413835785e-09,0.00058447365827959702,0.0
3.8239606768562523e-06,2606.297283747871,2724963.8727599764,0.71804847000000005,0.0,0.00052438444461039627,0.13696915573712176,0.0067411886662741942,0.0030186237873132777,0.0024941812694163341,0.023248897275943172,0.00026528391486653523,3.8663967927834781e-07,0.060986756577958046,0.013589820250905806,0.00087343396440040107,0.0049194655897723018,0.00038383282545595068,0.0031090501608206133,0.00016857053152382863,7.2056131794039945e-05,0.0027661993560004947,1.8583686529734454e-05,8.9188069450392449e-06,4.4546939609314743e-07,2.1773416074505507e-05,0.00054859818095442329,4.1556315984914741e-05,0.0085377050913738595,0.0039502955005037369,1.5535279732113222e-05,1.5102511376148074e-05,0.0068410528696500475,0.00071727632800514831,0.00014870839933509906,0.00041355015414587927,6.5771207196253403e-06,3.2118778108748502e-06,1.0099522765856226e-05,1.2953681548304044e-10,1.3677353242264582e-11,7.8448506444178625e-10,1.2576789957042965e-07,2.1094195769196337e-09,0.00052112353982102834,0.0
3.839055983245512e-06,2614.3320075249776,2724963.8727591815,0.71804847000000005,0.0,0.0005346337363724775,0.13568283958896218,0.0068618370964957679,0.003077726640678497,0.0025050817765188719,0.023669860496757684,0.00025583974580812603,3.7733341218594649e-07,0.062126233859179467,0.013874111281094035,0.00087233596773141596,0.0048801015999362426,0.00037897866299964496,0.0030687993236558275,0.0001718690823849697,7.3283342293362758e-05,0.0025854827499762205,1.8219267005482526e-05,8.6628994075622797e-06,4.1542648739045617e-07,2.1195970948223707e-05,0.00054290034991053677,4.2648206256658809e-05,0.0084415005187191555,0.0038345474552169633,1.4830543635857238e-05,1.5107292381058725e-05,0.0066167024323246877,0.00072266056792807194,0.00014980334715874297,0.000423247992315526,6.111145288224173e-06,2.8176314237899273e-06,9.1316393361454749e-06,1.1752512879328457e-10,1.2183418100853184e-11,7.0615321847794348e-10,1.1733709338974622e-07,2.0913559311274695e-09,0.00046151476568682715,0.0
3.8548982948651155e-06,2622.8550277208824,2724963.8727582046,0.71804847000000005,0.0,0.00054542866504540756,0.13432538012370973,0.0069902575372891192,0.0031413282945894462,0.0025160018990600147,0.024114446452158777,0.00024612255065954578,3.6777890146945384e-07,0.063326328801812493,0.014174356326314027,0.00087063633021833211,0.004835012298724314,0.00037343728497795634,0.0030243693153924811,0.00017525033978713731,7.4523856264770952e-05,0.002405668967059051,1.7829644962010141e-05,8.3893420441065973e-06,3.8549242388486927e-07,2.0586279658221676e-05,0.0005365440239978223,4.3787862060281631e-05,0.0083316040677025374,0.0037104694750770871,1.4102119191745402e-05,1.5111798529119418e-05,0.0063825808863927636,0.00072771922920768705,0.0001507834731349849,0.00043332588347023179,5.648164138065721e-06,2.4409945041012293e-06,8.192480337695985e-06,1.0585423894195226e-10,1.0757875316839444e-11,6.3030612877099055e-10,1.0890044260429448e-07,2.0699940958212087e-09,0.00040300024384758225,0.0
3.8715247018034919e-06,2631.892621998215,2724963.8727584006,0.71804847000000005,0.0,0.000556786005730891,0.13289336474146801,0.0071270256009972202,0.0032098528330513619,0.0025268715228138764,0.024583821700370032,0.00023614714144204436,3.5799543944103463e-07,0.064589313282484268,0.014491267298899482,0.00086823072107619951,0.0047835989171771277,0.0003671450571319593,0.0029753768355501274,0.00017869263802911423,7.5766511992691969e-05,0.0022275131651579264,1.7413384028282733e-05,8.0974568220719227e-06,3.5580844337587195e-07,1.9944069973321033e-05,0.00052947270360238947,4.497210552011185e-05,0.0082064343314443133,0.003577734702530035,1.3351451876122925e-05,1.5116010040101982e-05,0.0061387850475272581,0.00073232537076688695,0.00015161351635731719,0.000443765708523789,5.1907626293007418e-06,2.0859506353006977e-06,7.2878876347614792e-06,9.4586765697698147e-11,9.4092224437030811e-12,5.5746264940849397e-10,1.004993611262029e-07,2.0449636934579086e-09,0.00034634855704901636,0.0
3.8900482105797943e-06,2642.0624322334029,2724963.8727588058,0.71804847000000005,0.0,0.00056945549005311166,0.1312902662581428,0.0072818140987944728,0.0032883929656358289,0.0025382446128123415,0.025109716717810919,0.00022531200324877974,3.4740226905106997e-07,0.065999041404349493,0.014846145337003248,0.00086477790890273449,0.0047214865142754525,0.00035958374710859847,0.0029180165952626463,0.00018237598977736031,7.7070299278625366e-05,0.002041366053648682,1.6941493424345683e-05,7.767439355327834e-06,3.2478423867088805e-07,1.9227837059608829e-05,0.00052113086441947856,4.6270491435452962e-05,0.008055232031326966,0.0034273382698211557,1.2533743998206276e-05,1.5120133083460645e-05,0.0058700396219559595,0.00073654534823067587,0.00015228379877038715,0.00045519632972343898,4.7150151482135447e-06,1.7374089342029327e-06,6.3732725369701567e-06,8.3164080715284405e-11,8.0723409982938286e-12,4.8410220175374717e-10,9.168370422184947e-08,2.0139907410607073e-09,0.00028924444512873587,0.0
3.9046053731861903e-06,2650.1203693866446,2724963.8727590609,0.71804847000000005,0.0,0.00057941205646539048,0.13002565493436144,0.0074052568088947479,0.00335178282486938,0.0025466202019333085,0.025524895550881669,0.00021700902899069474,3.3931258462397576e-07,0.067107677809378499,0.015126090943629012,0.00086147807339449604,0.0046691848141709709,0.00035325322708260921,0.0028709468675056273,0.0001851411342552683,7.802861994662193e-05,0.0019038995261804951,1.6565188088621804e-05,7.5052239857486262e-06,3.0188121805438192e-07,1.8665820094576478e-05,0.0005142465990267465,4.7270270847545672e-05,0.0079278752485040429,0.0033077012851898948,1.190630636624307e-05,1.512298972606923e-05,0.0056613498724778083,0.00073914326587772537,0.00015261262477720311,0.00046400547253996611,4.3656193743105464e-06,1.4967334646390574e-06,5.719986848770202e-06,7.4981278986377709e-11,7.1354411583055977e-12,4.3193645265315851e-10,8.5154369745899435e-08,1.9874233840510566e-09,0.00024891622121988297,0.0
3.9191625357925863e-06,2658.2276535533692,2724963.8727590721,0.71804847000000005,0.0,0.00058935901770518586,0.12875763943646348,0.0075302950686093146,0.0034166772851099278,0.0025544864473040804,0.02594147334697634,0.00020889708185206651,3.3143667243230815e-07,0.068215957606546182,0.015406719307550477,0.0008576510572002444,0.0046138929151844929,0.00034659908132907125,0.0028221853480622176,0.00018777755539583235,7.8923045343368373e-05,0.0017739308024554172,1.6184569135746241e-05,7.2411033748420699e-06,2.8024478100120555e-07,1.8105654090028146e-05,0.00050708548761818596,4.8247514020060607e-05,0.0077932140382826649,0.0031871770914119885,1.1293402195347337e-05,1.5125538136286546e-05,0.0054551846241286742,0.00074107392807736363,0.0001527601057590777,0.0004726399538399234,4.0371790785087142e-06,1.2836847833716612e-06,5.1213269465539533e-06,6.7460376869337436e-11,6.2912558499367308e-12,3.8434831196023384e-10,7.8971263833859865e-08,1.9589531637377047e-09,0.00021259732626229577,0.0
3.9337196983989824e-06,2666.3756881920858,2724963.8727590209,0.71804847000000005,0.0,0.00059928824033431052,0.127486977741087,0.0076569430568008984,0.0034831120050412717,0.0025618301949829171,0.026359197023098156,0.00020097947958477294,3.2378038429045154e-07,0.069322909636462551,0.015687797036942241,0.00085328801002123808,0.0045556922571220017,0.00033963937559766612,0.0027717954340294414,0.00019027173345812824,7.9748582694813417e-05,0.0016512077866368258,1.5800102643402236e-05,6.9756538335556414e-06,2.5984010133587686e-07,1.7548270743665123e-05,0.00049965910712641598,4.9198094950878159e-05,0.0076514954582538623,0.0030661410771537019,1.0696074212128136e-05,1.5127803372221147e-05,0.0052518194709214429,0.00074230786791574784,0.00015272077512686329,0.00048108018045663319,3.7290534524076779e-06,1.0965315895600886e-06,4.5744541094416179e-06,6.0568410551488931e-11,5.5331225169939689e-12,3.4109593132137807e-10,7.3128800615205358e-08,1.9286402191447418e-09,0.00018022334511893937,0.0
3.9482768610053784e-06,2674.555191666911,2724963.8727588537,0.71804847000000005,0.0,0.00060919217599251531,0.12621444790291686,0.007785217127441302,0.003551123846459326,0.0025686385119291868,0.026777805095051722,0.00019325892455921139,3.1634924765133733e-07,0.070427542283161657,0.015969085053469473,0.0008483814476436944,0.0044946711942139813,0.0003323934530500628,0.0027198472757867724,0.00019261026501102746,8.0500377117587475e-05,0.0015354727297563556,1.5412269094681092e-05,6.7094615874740797e-06,2.4062956403401505e-07,1.6994528653594886e-05,0.00049197923126311513,5.0117857469394237e-05,0.0075030215585110858,0.0029449848278797191,1.0115314080373177e-05,1.5129808827116491e-05,0.0050515167202466651,0.00074281848277734329,0.00015249029234147796,0.00048930694220899855,3.4405244589382066e-06,9.3336505615072804e-07,4.0764733837458256e-06,5.4266254726912473e-11,4.8545122793596734e-12,3.0192876346612176e-10,6.7620167378908572e-08,1.8965524183089339e-09,0.00015166782201748798,0.0
3.9628340236117745e-06,2682.7562771585312,2724963.8727589361,0.71804847000000005,0.0,0.00061906382823497278,0.12494084467856273,0.0079151356301176215,0.0036207506895309118,0.0025748987576968609,0.027197028505169089,0.00018573753334821669,3.0914845003288656e-07,0.07152884738644856,0.016250339930811115,0.00084292534489426442,0.0044309248097448902,0.00032488182456057846,0.0026664175952180683,0.00019477997742958523,8.1173756456005559e-05,0.0014264639076836351,1.5021562166885543e-05,6.4431204550894327e-06,2.2257313059864775e-07,1.6445214251110782e-05,0.00048405782245847061,5.1002657637563537e-05,0.0073481462286536722,0.0028241095552355858,9.5520437710233347e-06,1.513157628529498e-05,0.0048545245086542696,0.00074258242733634035,0.00015206552339863471,0.00049730157980554495,3.1708122470846087e-06,7.9215164324391885e-07,3.6244526736009876e-06,4.8522688562958554e-11,4.249066065281024e-12,2.6659044444238294e-10,6.2437448965634662e-08,1.8627654174803723e-09,0.00012674826626131957,0.0
3.9785781813019298e-06,2691.6383485766978,2724963.8727588779,0.71804847000000005,0.0,0.0006296965582239495,0.12356311778150787,0.0080575219558903614,0.0036979175209738055,0.002581038350924597,0.027650809216187212,0.00017782882725753645,3.0162534474516239e-07,0.072715027322896406,0.016554206240929393,0.00083640062945038879,0.0043590304481749987,0.00031648355957568375,0.0026070597549603487,0.00019692175494444327,8.1808641399520491e-05,0.0013158323762864905,1.4596347341791297e-05,6.1555867940832906e-06,2.0429477672564307e-07,1.5856919629927184e-05,0.00047523267904009067,5.1915523376579048e-05,0.0071739015344429741,0.0026941608370604372,8.9634932399016949e-06,1.5133243328115341e-05,0.0046454651381221861,0.00074146389173352593,0.000151385284333575,0.00050566608954779701,2.899332784306979e-06,6.6170266394330912e-07,3.1838998660491036e-06,4.28971681929074e-11,3.6695102654145595e-12,2.3238019325658068e-10,5.7188555728491517e-08,1.8244073762434984e-09,0.00010362234507932756,0.0
3.993785291993805e-06,2700.2170491518132,2724963.8727588728,0.71804847000000005,0.0,0.00063991625263654485,0.1222330633369783,0.0081969251906780366,0.0037743350225997994,0.0025863321697993792,0.028089153803605917,0.00017041403007936925,2.9462526618914025e-07,0.073854694653240405,0.016847102821782829,0.00082947991800410572,0.0042868031712838062,0.00030812737452429423,0.0025482796359500869,0.00019877406458467081,8.2324897979360731e-05,0.0012158365275993276,1.418362079037158e-05,5.8790751844721115e-06,1.8782289373750583e-07,1.5295174682299226e-05,0.00046646851401675266,5.2749143592870802e-05,0.0069994645929533509,0.0025698771384119745,8.416227678554875e-06,1.5134633865257772e-05,0.0044477296219424586,0.0007395136620847899,0.00015050975579788077,0.00051344735267287332,2.6560759664278403e-06,5.5523495655620361e-07,2.8026508505803807e-06,3.8001778186132372e-11,3.1771545541934525e-12,2.0299181931072689e-10,5.2458817147106036e-08,1.7856719644538721e-09,8.4747716405562931e-05,0.0
4.0104667840575082e-06,2709.6118803505706,2724963.8727588407,0.71804847000000005,0.0,0.00065106188887224966,0.12077595017922457,0.0083519919708987117,0.0038603430329002368,0.0025914045945666913,0.028569653431250654,0.00016253435364965626,2.8725301076602615e-07,0.075096603628040146,0.017167374669659757,0.00082118786834057438,0.0042045824076306759,0.00029871680857577939,0.0024822957249886445,0.00020054527527126563,8.2776356054677409e-05,0.0011135390571047577,1.3729320739772649e-05,5.577949325743022e-06,1.7102927544686328e-07,1.4687090434614795e-05,0.00045660058631294051,5.3603953234420504e-05,0.0068018396041055413,0.002435460523503301,7.8406854098327631e-06,1.5135934501899093e-05,0.0042358334730278205,0.00073637564915996216,0.0001493035214275239,0.00052162455946861677,2.4094709759477484e-06,4.5768329651485045e-07,2.4305000920614939e-06,3.3193142804409334e-11,2.705606835909179e-12,1.7453271339788584e-10,4.7640024708029192e-08,1.7414120354755597e-09,6.755037379909636e-05,0.0
4.0238910864082756e-06,2717.1493643300118,2724963.8727588337,0.71804847000000005,0.0,0.00065997629209008611,0.11960560856979974,0.0084784344256496388,0.003931253057604822,0.0025949178365333439,0.028955783402191914,0.00015638627628600008,2.8155655124185366e-07,0.076088728473125464,0.017424091572628957,0.00081398374174532001,0.0041362631615492222,0.00029098196399779218,0.0024281520630358056,0.00020176161590415177,8.3048957670787095e-05,0.0010365733859653951,1.3363070711258015e-05,5.337878246700887e-06,1.5843822596793491e-07,1.4204430871741548e-05,0.00044847916188181427,5.4242917490667255e-05,0.0066385382412425175,0.0023291027235914467,7.39680065107976e-06,1.5136826061100735e-05,0.0040692970756625937,0.00073308454978832907,0.0001481481151305336,0.00052791824793901941,2.2255287351237954e-06,3.918392291316646e-07,2.1631929111931279e-06,2.9717130467534379e-11,2.3729784222800922e-12,1.542523164287348e-10,4.4031418604003333e-08,1.7045560693444679e-09,5.6068686982072228e-05,0.0
4.0391759269331952e-06,2725.6945661572781,2724963.8727588393,0.71804847000000005,0.0,0.00067006032523537974,0.11827640790973609,0.0086242194004045643,0.0040138726825943039,0.0025982896056388851,0.029394518728488559,0.00014959529256891753,2.7533035616955676e-07,0.077209333557064344,0.017715020973889536,0.00080520750776519833,0.0040562740855486683,0.00028202589083449367,0.002365484900389723,0.00020290846340303764,8.3257517588177565e-05,0.0009544784627916825,1.2945929539084533e-05,5.0676195777544029e-06,1.450550338808134e-07,1.3662653425429079e-05,0.00043905054257809521,5.4913571828183682e-05,0.0064485434343744524,0.0022103293516964979,6.9126604827547448e-06,1.513768833206235e-05,0.0038841810264649257,0.00072850272971239501,0.00014663555117311059,0.00053475844739720672,2.0309230502056705e-06,3.2863139058738973e-07,1.8908012979728651e-06,2.6152181571702478e-11,2.0397804281508887e-12,1.3374604115364501e-10,4.0202040276228778e-08,1.6613703047365331e-09,4.522072299813556e-05,0.0
4.052849258385733e-06,2733.2954802465761,2724963.8727589035,0.71804847000000005,0.0,0.00067901640618254382,0.11709111346374003,0.0087562923281195131,0.0040895126033074283,0.0026007303269320681,0.029785909756637682,0.00014370836481755248,2.6999720175576596e-07,0.078202725737260045,0.017973828827452083,0.00079684326171088797,0.0039828518523090861,0.00027390200572562941,0.0023086045163737789,0.00020371095169976946,8.3349761054007376e-05,0.00088580411425087202,1.2573143390500369e-05,4.8291620506975025e-06,1.3390077342611869e-07,1.3185404673337712e-05,0.00043046430578638491,5.5459256803722153e-05,0.0062754062430015719,0.002106446519273331,6.4989012163989363e-06,1.5138333794709587e-05,0.0037227735748603117,0.00072365194774464368,0.00014510859792549419,0.00054057278931995186,1.8694559054538518e-06,2.8117361597458055e-07,1.673554345726616e-06,2.3288014923394932e-11,1.7786079925795464e-12,1.1752283872016489e-10,3.7017096673219104e-08,1.6217439185223538e-09,3.7250679312695794e-05,0.0
4.0665225898382709e-06,2740.8461297152335,2724963.8727587876,0.71804847000000005,0.0,0.00068790603347239701,0.11591008233705181,0.0088899460425944012,0.0041668170671064772,0.0026026199859128418,0.030176020714526391,0.00013799810580101635,2.6488913376219563e-07,0.079186689827366818,0.018231070250073877,0.00078799995589836605,0.0039077846227868118,0.00026569390030237546,0.0022510469834761057,0.00020429495566725596,8.335094183009794e-05,0.00082141332143825969,1.2201181486553681e-05,4.5943125009143935e-06,1.2347940628758781e-07,1.2715493350972257e-05,0.00042174662420595881,5.5951087696911236e-05,0.0060997415717195004,0.0020050261529679018,6.1034285963357391e-06,1.5138870865016461e-05,0.0035654318240868057,0.00071809513560562794,0.00014342195501404709,0.0005460904578201164,1.7192081828811716e-06,2.4099025432842581e-07,1.4790660096735375e-06,2.0707439357507571e-11,1.5485833543752369e-12,1.0311171026437254e-10,3.4048491913080013e-08,1.5812864916999107e-09,3.0673470644026304e-05,0.0
4.0816479637002782e-06,2749.1295566998947,2724963.8727587471,0.71804847000000005,0.0,0.00069765583628222298,0.11460941073037478,0.0090396485048363489,0.0042543023820180723,0.0026040603546089863,0.030605775820912291,0.00013188584896958977,2.5950219606412938e-07,0.080263172300110347,0.018513581619484975,0.00077766795788148713,0.0038229704222839255,0.00025654115235896187,0.0021867044544699914,0.00020467870533645799,8.3244290114797546e-05,0.0007549284279213021,1.1791224791071634e-05,4.3392696307482861e-06,1.1275994403988066e-07,1.2204592761133794e-05,0.00041196403390954137,5.6429613022186457e-05,0.005903022348799386,0.001895928379810712,5.6871582919705676e-06,1.5139349845951378e-05,0.0033962230335445789,0.00071113413874712142,0.00014137620874745121,0.0005518396587101404,1.5652958929461909e-06,2.0367868299862042e-07,1.288017493647306e-06,1.8152431606605446e-11,1.32646080415979e-12,8.9072568770059815e-11,3.1003816363341359e-08,1.5356932318348531e-09,2.4760279151767626e-05,0.0
4.0956386231420053e-06,2756.7174128466672,2724963.8727589189,0.71804847000000005,0.0,0.00070658938320848261,0.11341247813618163,0.0091798646145475459,0.0043370963034423974,0.0026047780021943054,0.031001348572466076,0.0001264216970140402,2.5476667434781344e-07,0.081246782515934535,0.01877278154868121,0.0007676068793621444,0.0037429957048161571,0.00024803038236577185,0.0021266715242058321,0.00020478199190811377,8.3043319470829779e-05,0.00069764077452504623,1.1413943605193294e-05,4.1082898160335963e-06,1.0355917358205584e-07,1.174067536545208e-05,0.00040279866138179189,5.6808533195532826e-05,0.0057193249302361525,0.0017980834160570371,5.3217315811357213e-06,1.513969483855421e-05,0.0032443181800165268,0.00070394506606177203,0.00013932195993414848,0.00055681929957455089,1.4337231154205127e-06,1.7474991194849682e-07,1.1316848698275408e-06,1.6045998874879691e-11,1.1478205132637841e-12,7.7682056209099027e-11,2.839909930942322e-08,1.492859270197197e-09,2.0345797431537567e-05,0.0
4.1111986242505784e-06,2765.0619260256776,2724963.872758898,0.71804847000000005,0.0,0.00071642133427072706,0.11208911960731148,0.0093377835360613972,0.0044313199458258122,0.0026048751919370396,0.031438781903033772,0.00012055640991050592,2.4977941995658889e-07,0.08232599559855179,0.019058438851314193,0.00075586173004370228,0.0036524960569772357,0.00023854204430194198,0.0020594541551494901,0.00020460639512481985,8.2703215533892462e-05,0.00063841798290199228,1.0997108914206999e-05,3.8575128732482869e-06,9.4085086980790017e-08,1.1234840954687408e-05,0.00039248961289746134,5.7155465664682051e-05,0.0055136506908273044,0.0016928913041107283,4.9370830624877414e-06,1.5139978149513286e-05,0.0030806522531760692,0.0006951191721423529,0.00013686262221027142,0.00056196953180991983,1.2987887529200464e-06,1.4778327729969566e-07,9.7845997254847871e-07,1.3965152983260113e-11,9.7576433108434532e-13,6.6614531868994064e-11,2.5726939914356462e-08,1.4446222529555399e-09,1.6402715328912728e-05,0.0
4.1266559028161562e-06,2773.2420577350749,2724963.8727588947,0.71804847000000005,0.0,0.00072607153948893259,0.11078357430606148,0.0094967181768286536,0.0045271830767817612,0.002604234398325073,0.031870378854526225,0.00011494805777245788,2.4511618340977986e-07,0.08338164682738794,0.019339255501439011,0.00074363142379721132,0.0035611510441940788,0.00022912085669098232,0.0019923524155234474,0.00020412370347995033,8.2243203867970281e-05,0.00058400254710912062,1.0586531379571597e-05,3.6153015238300788e-06,8.5416167080473913e-08,1.0743243321846443e-05,0.00038214527773082951,5.7420015864801493e-05,0.0053085076296367061,0.0015923065916816173,4.5771641632239374e-06,1.5140164721015267e-05,0.0029236257952907881,0.00068550653909135262,0.00013424662793930928,0.000566676768822085,1.175847368170014e-06,1.2546423043542754e-07,8.4547467212589304e-07,1.2143803011363307e-11,8.2914079868190465e-13,5.7096642311507497e-11,2.3292155738105666e-08,1.3962356626698822e-09,1.329433847548559e-05,0.0
4.142113181381734e-06,2781.3027516594011,2724963.8727589012,0.71804847000000005,0.0,0.0007355959622976087,0.10948799020449909,0.0096576958031736031,0.0046253239502838436,0.0026028532127226516,0.03229870349890826,0.00010955420412191585,2.407421457619528e-07,0.08441983933970261,0.019616909261826347,0.00073085957491853828,0.0034685542287185029,0.00021973267794701674,0.0019250699443703581,0.00020332968751530551,8.1661440130725542e-05,0.00053372318939359873,1.0180074829930507e-05,3.3804853826894202e-06,7.7439391775665761e-08,1.0262838062012324e-05,0.00037171582685042884,5.7602554556208085e-05,0.0051031434957934498,0.0014957143434546345,4.2387389623016033e-06,1.5140265839145601e-05,0.002772173501269958,0.00067507660963634969,0.00013146838749062621,0.00057097388676470963,1.063210997731821e-06,1.0678713446264204e-07,7.2948325721857452e-07,1.0541903674966633e-11,7.0355193866297966e-13,4.8870579224504599e-11,2.1061794034228308e-08,1.3475419254111078e-09,1.0822678197577755e-05,0.0
4.1575704599473118e-06,2789.2341340258813,2724963.8727589259,0.71804847000000005,0.0,0.0007449850369030791,0.10820325727336269,0.0098206994321633507,0.0047257613835764208,0.0026007274001671257,0.032723430819756261,0.00010437156984035823,2.3665577372537799e-07,0.085439538182153663,0.01989119861995408,0.00071756767384647093,0.0033748941525870197,0.00021040502848553458,0.0018577524128374765,0.00020222181954476017,8.095854228150653e-05,0.00048732371856641298,9.7783497951232699e-06,3.1535211150790667e-06,7.0108938058673995e-08,9.7939327012980305e-06,0.00036121924017972721,5.770121864714099e-05,0.0048981392756742908,0.0014031692009630675,3.9211032414905183e-06,1.5140289660810929e-05,0.0026263056917205318,0.00066385753709690245,0.00012853846697323746,0.00057486053480121878,9.6016355265175803e-07,9.1094616612826676e-08,6.2851515745477985e-07,9.1359315490678021e-12,5.9618276378891518e-13,4.1774927644008357e-11,1.902177832066946e-08,1.2986972563724661e-09,8.8516613817565096e-06,0.0
4.1733811489846169e-06,2797.2034200073517,2724963.872758979,0.71804847000000005,0.0,0.00075443863506120291,0.1069012782221464,0.0099894986775220847,0.0048308854048627215,0.0025977795934502773,0.033153817851925539,9.9285254320788789e-05,2.3277139197623226e-07,0.086462383439522117,0.020168086024976176,0.00070345850748511254,0.0032781911846668696,0.00020095424778888315,0.0017890100902419029,0.00020076299275680593,8.0115557383395625e-05,0.00044361998989673036,9.3729515853438758e-06,2.92990994737642e-06,6.3234040950052001e-08,9.3265004343021215e-06,0.00035043200325574021,5.7713763672419533e-05,0.0046894028793098104,0.0013127176631523442,3.616913285010689e-06,1.5140241674910445e-05,0.0024828678684645114,0.00065159816921377253,0.00012539612821548007,0.00057841319721268515,8.6397579920277873e-07,7.7579614695473726e-08,5.3892417868355757e-07,7.877036777446557e-12,5.0262129358206898e-13,3.5536199090763683e-11,1.7117947452390518e-08,1.2487380249739183e-09,7.2412409414923256e-06,0.0
4.1893096415124977e-06,2805.0760810055167,2724963.8727589436,0.71804847000000005,0.0,0.00076379865109187344,0.10560290131373411,0.010161632593635742,0.0049392460112677823,0.0025940173244423542,0.033582939374362727,9.4376609493382229e-05,2.2915735247759563e-07,0.087471206002062971,0.020443100266273617,0.00068874694805241951,0.0031800519974922595,0.00019155221967180351,0.001720025825999325,0.00019896118254910069,7.9141508252430465e-05,0.00040317689011672061,8.9707820476968586e-06,2.7137384482014703e-06,5.6900581394404318e-08,8.8683360677716038e-06,0.00033953196355498982,5.7634739586964436e-05,0.0044806643780455485,0.0012258895799703432,3.3307585588392654e-06,1.5140126363543507e-05,0.0023442213428690418,0.00063848291016117267,0.00012209397334359511,0.00058156395987196479,7.7580880537429011e-07,6.6101256301204393e-08,4.6093827272028953e-07,6.7740047007946527e-12,4.2265445511884204e-13,3.0155404089065902e-11,1.5372995834344546e-08,1.1985662406929289e-09,5.9431774283108501e-06,0.0
4.205292726899324e-06,2812.8094965585847,2724963.872758952,0.71804847000000005,0.0,0.00077301469587393663,0.10431438045602652,0.0103364013918522,0.0050504561605197581,0.0025894426535351665,0.034008695928649892,8.9664167609954521e-05,2.2582945991171789e-07,0.088460664436409708,0.020714922733146783,0.00067351374140504992,0.0030810648568111616,0.00018226408293223339,0.0016512309198624356,0.00019682100199700905,7.8041025693086622e-05,0.00036596386193571244,8.574135204465924e-06,2.5063227996657025e-06,5.1100299212940371e-08,8.4217234505917079e-06,0.00032858148238320358,5.7462049668193772e-05,0.0042733383967799776,0.001143065139336003,3.0631795312367446e-06,1.5139949466967586e-05,0.0022109537894340289,0.0006245923414314353,0.00011865586904001612,0.0005842996230918002,6.9549345766900423e-07,5.6367131455021232e-08,3.9349768240810749e-07,5.811751696237575e-12,3.5474883684548931e-13,2.5544624074052553e-11,1.3783183319179948e-08,1.148536534464743e-09,4.8966326591693268e-06,0.0
4.2226164138748234e-06,2820.9939929694983,2724963.8727589678,0.71804847000000005,0.0,0.0007827925332368886,0.10293495547049941,0.010528069928125402,0.0051737936127094599,0.0025835819640562512,0.034464331092414792,8.4791960625333221e-05,2.2255560285930252e-07,0.089506216610719003,0.021004702222817671,0.00065650775679322192,0.0029734407953281371,0.0001723902180254318,0.0015773211297154346,0.00019413127832056289,7.6713104735055571e-05,0.00032916297520380668,8.1526832667388634e-06,2.2925322405287372e-06,4.5393905113222413e-08,7.9527601484824109e-06,0.00031672035737342121,5.7168647037825417e-05,0.0040516505396494523,0.0010580925685186558,2.7941789575509768e-06,1.5139695088690257e-05,0.0020730395349778069,0.00060876206589176643,0.00011480399840721302,0.00058679268815311689,6.1693883750137789e-07,4.7486494382110887e-08,3.3101037788840361e-07,4.9130745079549725e-12,2.9300442504820033e-13,2.1312471392381496e-11,1.2227449781298656e-08,1.0948337526544035e-09,3.9883629420622182e-06,0.0
4.2414656765970485e-06,2829.6548958517146,2724963.872758978,0.71804847000000005,0.0,0.00079316732597550386,0.10145552038800981,0.010739156465843877,0.0053112852899025505,0.0025761444982975693,0.03495276864851931,7.9761757804084753e-05,2.1938076112861558e-07,0.09061080137399409,0.02131410479942503,0.00063746970238179703,0.0028562468731154582,0.00016190728126729172,0.0014978864424387221,0.00019077786233558919,7.5114816757287643e-05,0.00029296763375637435,7.7048856485233344e-06,2.0731794369244601e-06,3.9815289370995222e-08,7.4606340037058935e-06,0.00030385181902159718,5.672384706363359e-05,0.00381474808223251,0.00097119489841016873,2.5249441080786484e-06,1.5139351505694867e-05,0.0019305560111013268,0.0005906917482794761,0.00011048478619858544,0.00058896261219553564,5.4065359905490223e-07,3.9449957834182798e-08,2.7377767779105354e-07,4.0831690074289116e-12,2.3758674544447513e-13,1.7474888117622155e-11,1.0715141184357067e-08,1.0372151491484202e-09,3.2071895317500886e-06,0.0
4.2595228608413747e-06,2837.7030687972465,2724963.8727589827,0.71804847000000005,0.0,0.00080283403438087,0.10006035678919577,0.010943725119751195,0.0054461911100437679,0.0025679917453936599,0.035413112389738294,7.5200217384181292e-05,2.1671077623325797e-07,0.091635504985497718,0.021604602533245934,0.00061876347188853859,0.0027441900211018651,0.00015214850886814883,0.0014229542108299656,0.00018716216851223495,7.3441221384097066e-05,0.0002617375062132573,7.287145867322322e-06,1.8761393667564068e-06,3.5034424807500382e-08,7.0071415828801219e-06,0.00029158795775654096,5.617574292393273e-05,0.0035927012953791415,0.00089324121489063753,2.288547037762356e-06,1.5138963463242907e-05,0.0018012947241253369,0.00057262917962677142,0.00010624264064706883,0.00059052909558409957,4.7574152610652686e-07,3.3058315902176548e-08,2.2789106311217056e-07,3.4125370908665777e-12,1.9406029360313306e-13,1.4428885780776266e-11,9.4262472253216187e-09,9.8299416314536054e-10,2.6153149350040127e-06,0.0
4.2774465927886965e-06,2845.4423736795816,2724963.8727589622,0.71804847000000005,0.0,0.00081215323856652464,0.09869791542720753,0.011148913117963623,0.0055831512407820928,0.002558916630922994,0.035862352863435323,7.0913604335538525e-05,2.1441242955106732e-07,0.092619220551675319,0.021887139065318102,0.00059979797290988807,0.002633455595999281,0.00014276123201965334,0.0013498898743080339,0.00018320005717644829,7.1650535864385329e-05,0.0002337821614799809,6.8840027344601511e-06,1.6932443461479066e-06,3.0786012622829665e-08,6.574537476927969e-06,0.00027950285774219638,5.5515138253429192e-05,0.0033776585517327406,0.00082082788795111974,2.0733783588000929e-06,1.5138526711521337e-05,0.0016798021078317145,0.00055405086790069093,0.00010195146453678222,0.00059160853023495434,4.1847259138374541e-07,2.7757145236894216e-08,1.8966808658267618e-07,2.850739792957715e-12,1.5851681151693766e-13,1.1915771258371526e-11,8.2866360892511054e-09,9.3027856806535406e-10,2.1454061177261053e-06,0.0
4.296058883077475e-06,2853.2081615169745,2724963.872758959,0.71804847000000005,0.0,0.00082152715491656326,0.09730775270381746,0.011364059149872851,0.0057285385033835658,0.0025484730927702705,0.036320365256469388,6.670827229099372e-05,2.1238837558033268e-07,0.093604537346961808,0.022174330384300781,0.00057974536170649787,0.0025192818559679107,0.00013335121249185398,0.0012755875510157954,0.0001787136420284019,6.9664471216668579e-05,0.00020767955169258132,6.4780949282198339e-06,1.516607264654138e-06,2.6851769301922826e-08,6.1439094880255197e-06,0.00026707305086084835,5.4708717707631971e-05,0.0031606001145160962,0.00075068455179084506,1.8691060677091596e-06,1.5138023699278108e-05,0.0015606101395168567,0.00053416056325657766,9.7432588897073695e-05,0.00059225159253314496,3.6583515493416182e-07,2.3164219198039868e-08,1.5650501440722971e-07,2.3596059187906972e-12,1.2828777259154781e-13,9.7558668752466225e-12,7.2361790922905587e-09,8.7685132640355234e-10,1.7545587610063419e-06,0.0
4.3147673606025487e-06,2860.729088873516,2724963.8727588863,0.71804847000000005,0.0,0.00083062675824302826,0.095936615325398086,0.011582250554963853,0.005877860426504844,0.0025369493562267306,0.03677168297885762,6.2724833184205553e-05,2.1071682927190672e-07,0.094556932774060395,0.022456609045196654,0.0005592859112211302,0.002405647517418326,0.00012425849589187436,0.0012026874289912161,0.0001738475873618629,6.7549502818203916e-05,0.00018417377347644225,6.083679999144762e-06,1.3524886444142053e-06,2.334224810911557e-08,5.7301853645888019e-06,0.00025472834697144308,5.3777949659688063e-05,0.0029493800087714832,0.00068516173668849948,1.6820661370261831e-06,1.5137471664817781e-05,0.0014477161962051721,0.00051364667312389276,9.2848617075567039e-05,0.00059243370292806359,3.1924549806461912e-07,1.9324417578447795e-08,1.2881241734213361e-07,1.9454551317311326e-12,1.0355292919464617e-13,7.9691318371423876e-12,6.3029835132256162e-09,8.2463138355883676e-10,1.4400279070736331e-06,0.0
4.3344214057482282e-06,2868.3161246379314,2724963.8727589268,0.71804847000000005,0.0,0.00083982674469311306,0.094525410118773523,0.011813317186579905,0.0060380768475610932,0.002523762721838923,0.037235674538991313,5.8793064490212545e-05,2.0934185051930627e-07,0.095515622167212766,0.022746255019790464,0.00053753890730741459,0.0022878001798761851,0.00011511799586642492,0.0011282087753154474,0.00016838275957923934,6.5213187561749959e-05,0.00016214852104519563,5.6844995309571889e-06,1.1942343958818605e-06,2.008950974604584e-08,5.3161678413900838e-06,0.00024194925260082441,5.2675295191590592e-05,0.002735532798255621,0.00062146886607187981,1.5038372709873613e-06,1.5136845782066217e-05,0.0013363016709952058,0.00049164126289139487,8.8013069570877568e-05,0.00059215469931854536,2.7641268056681767e-07,1.598422310898416e-08,1.0480926310100054e-07,1.5854644750985318e-12,8.2552129423525688e-14,6.4348552747463686e-12,5.4410962924341766e-09,7.7150225809481281e-10,1.1759055700756378e-06,0.0
4.3570696998521419e-06,2876.6535850881651,2724963.8727589943,0.71804847000000005,0.0,0.00084995902985283164,0.092937459712319329,0.012081578831747453,0.0062268101793157499,0.0025072384360007925,0.037757049074315312,5.4569934972637668e-05,2.0822607125798895e-07,0.096566356174265747,0.02307133210927452,0.00051225877128059985,0.0021543411186079713,0.00010512446821427614,0.0010452731386588739,0.00016168532080505592,6.2395368053688426e-05,0.00013980777076473604,5.2443137770801041e-06,1.029249267675925e-06,1.6834853113837927e-08,4.8651042797548522e-06,0.00022750053686274968,5.1254239528078579e-05,0.002499943751587564,0.00055426785642525276,1.3197409179063178e-06,1.5136070991180213e-05,0.0012166487485919439,0.00046585580987617729,8.2449192502944286e-05,0.0005912794936233669,2.3393371326322925e-07,1.285601091959863e-08,8.2472035100371995e-08,1.2486360937913851e-12,6.3445695869900065e-14,5.021142518355097e-12,4.5811674536469734e-09,7.1262163884369046e-10,9.3683051156598139e-07,0.0
4.379670962210586e-06,2884.5361359052395,2724963.8727589902,0.71804847000000005,0.0,0.0008595583242923888,0.091394692766897212,0.012350977757363496,0.0064193447660829579,0.0024893880511815051,0.038262720773093874,5.0668176487338019e-05,2.0759452758944102e-07,0.097556589040734665,0.023386601556252707,0.00048691277467626892,0.0020240775920432365,9.573887024628741e-05,0.00096580309596010412,0.00015463424614197739,5.9473096526547834e-05,0.00012039607725251723,4.8266317846709337e-06,8.8231511658140267e-07,1.4053663052357316e-08,4.4424370084177215e-06,0.00021341648835347747,4.9686644549945709e-05,0.0022769675147480471,0.00049342683777039271,1.1566858011968574e-06,1.5135245256773644e-05,0.0011061120144551322,0.00043984047816288151,7.6942761242724966e-05,0.00058986607843696263,1.9797381520542514e-07,1.0356374115520582e-08,6.4787654689908653e-08,9.8068195874903434e-13,4.8680915261163302e-14,3.9132889906607137e-12,3.8476591807322203e-09,6.5649339150846474e-10,7.516269485932414e-07,0.0
4.403006973966406e-06,2892.2138065557815,2724963.8727589855,0.71804847000000005,0.0,0.00086892463665094006,0.089846619076696749,0.012630401350881537,0.0066222889946139863,0.002469604219150334,0.038769118542946526,4.6949822507871457e-05,2.0742647369311784e-07,0.098517483806155645,0.023702787558934905,0.00046074703034927405,0.0018930604827275279,8.6668365206072446e-05,0.00088739290980545599,0.00014703887233418909,5.6367446163221153e-05,0.00010301315498386266,4.4183106978078092e-06,7.4809496307943827e-07,1.1610778647464391e-08,4.0343073078930607e-06,0.00019926503983188468,4.792554505367598e-05,0.0020599054269540384,0.00043668922176720083,1.0078483139330442e-06,1.5134341865492369e-05,0.0010007686415959892,0.00041287410303924693,7.1344405290537879e-05,0.00058789744104662445,1.6667857964507813e-07,8.2966652412703525e-09,5.0384617680164966e-08,7.616291505577059e-13,3.6946510344266346e-14,3.0198740435531599e-12,3.2035779815055968e-09,6.0140360115836866e-10,6.0279624835346814e-07,0.0
4.4282967101706337e-06,2900.0059207229742,2724963.8727589906,0.71804847000000005,0.0,0.00087844464154794718,0.088221221466509694,0.012934033392140894,0.0068466536516216875,0.0024467090733861132,0.039299518073397897,4.3255534496109141e-05,2.0777352225155667e-07,0.099488193672298261,0.024035110677631297,0.00043254544618207539,0.0017555157213667524,7.7546718547924631e-05,0.00080677480341570778,0.00013853347958070567,5.2933441228511718e-05,8.6841642887448386e-05,4.0022655572621136e-06,6.2129569769516666e-07,9.3904230613531003e-09,3.62367667380171e-06,0.0001844197066060974,4.5872497896201343e-05,0.0018401138008649423,0.0003816571132946325,8.6658509769552896e-07,1.5133308775128132e-05,0.00089608523780475801,0.00038375427746729842,6.5420484108358212e-05,0.00058524649550052862,1.3849673584474812e-07,6.5388029598879672e-09,3.8269579026073196e-08,5.768852227485466e-13,2.7327922136883934e-14,2.2757918847751304e-12,2.6173223007827508e-09,5.4506956040146721e-10,4.7818408028006159e-07,0.0
4.454560483870508e-06,2907.5212972354443,2724963.8727589804,0.71804847000000005,0.0,0.00088763682901363576,0.086591420873871228,0.013249488759347486,0.0070841064854187197,0.0024214544065627626,0.039829772996053663,3.9764895087093536e-05,2.0868541153522397e-07,0.10041896819747104,0.024369374414140783,0.00040359582665531899,0.0016180137252943892,6.8840565981990358e-05,0.00072799409418580123,0.00012950187399701134,4.9330067906267479e-05,7.258953543984286e-05,3.5992508532867722e-06,5.0842615287536479e-07,7.4878930285452333e-09,3.2310252272514398e-06,0.00016958748508361337,4.3605468251105879e-05,0.0016290291424241521,0.00033102196847761069,7.3944055905752256e-07,1.5132180427656138e-05,0.00079712690010495097,0.00035387926641590006,5.9471403617932561e-05,0.0005819983701843553,1.1456752349687127e-07,5.122745875012341e-09,2.8680856018414593e-08,4.3047320509496083e-13,1.9921443527759823e-14,1.6926841800021825e-12,2.1131470566804568e-09,4.9032414094023982e-10,3.7897574772509054e-07,0.0
4.4865846674260753e-06,2915.9038364718608,2724963.8727590558,0.71804847000000005,0.0,0.00089789661390433733,0.084684827341055521,0.013633096808025214,0.0073790330207398501,0.0023888322462400123,0.040447648283190488,3.5950673078707305e-05,2.1050810670162985e-07,0.10144879559382604,0.0247629079109731,0.00036900702137009447,0.0014582921504598645,5.9248967476314793e-05,0.0006388753964811886,0.00011837357958893286,4.4942291271927805e-05,5.8187988447170228e-05,3.1473890258365522e-06,3.9399670460417088e-07,5.6338094427765517e-09,2.796930908670719e-06,0.0001523673125118781,4.0695281014532779e-05,0.0013952202384317281,0.00027738558336577295,6.0789970851931996e-07,1.513073330072635e-05,0.0006889039754742999,0.00031832082122027215,5.2558150762617479e-05,0.00057746385002032828,9.145600099213723e-08,3.8268182816510571e-09,2.0099101744660366e-08,2.994948677578687e-13,1.349456142125838e-14,1.1761922791775852e-12,1.6184148843382021e-09,4.2876035107332918e-10,2.8837891867385885e-07,0.0
4.5205388608459785e-06,2923.8814761899157,2724963.8727590819,0.71804847000000005,0.0,0.00090766101710843287,0.082759990427693192,0.014036955167747521,0.007697131415005205,0.0023523476706970316,0.041068157775303024,3.2392612451021204e-05,2.1322623251897028e-07,0.10241766625321048,0.025164672400429598,0.00033348357754825274,0.0012990678997973533,5.0249559183650101e-05,0.00055275288952783604,0.00010663728724601074,4.0368318556449039e-05,4.5891293938678205e-05,2.7145839172866277e-06,2.9689246526411086e-07,4.1238762632142554e-09,2.3874534204905939e-06,0.00013521144974205012,3.7490170607259184e-05,0.0011750045355512638,0.00022913810761887953,4.9253666571145449e-07,1.51291190604666e-05,0.00058781221137132219,0.00028209877429500848,4.5702913524500949e-05,0.00057209909912764084,7.2787581775645889e-08,2.836116679444006e-09,1.3722274224757592e-08,2.0245521483341723e-13,8.8853925007101785e-15,7.9655145696641082e-13,1.2108956104771198e-09,3.6963645016906531e-10,2.1830956651430863e-07,0.0
4.5583861561564237e-06,2931.7190665581006,2724963.8727590577,0.71804847000000005,0.0,0.00091724532091355779,0.080730502356959374,0.01448143951809419,0.0080566514918274535,0.0023098110264762363,0.04171791845896871,2.8958522854057379e-05,2.1711423412254041e-07,0.10335415796260169,0.025595729970223694,0.00029564114551721815,0.0011344356125375374,4.154125822122753e-05,0.00046677587913174315,9.3885073907895876e-05,3.5452098805893411e-05,3.5104141939916412e-05,2.2860642519106269e-06,2.1329401275302999e-07,2.8755881537290136e-09,1.9883984018261501e-06,0.00011749045872516368,3.3849545252957111e-05,0.0009616809185055106,0.0001844144944751314,3.8833317086657558e-07,1.5127229299455848e-05,0.00049005422609959604,0.00024402856166097131,3.8703831306051671e-05,0.00056560320998606459,5.7440346671021818e-08,2.0632991323866441e-09,8.9163113801818231e-09,1.2976935756819111e-13,5.543840870561869e-15,5.1346113925047873e-13,8.6829790180080222e-10,3.109773270450158e-10,1.6200616670947765e-07,0.0
4.6026886053773092e-06,2939.5712397690659,2724963.8727590488,0.71804847000000005,0.0,0.00092682637266680741,0.078507007783749819,0.014990954590819948,0.0084815540074069384,0.0022581883383821846,0.042423015371124063,2.557044529599309e-05,2.2266947818587845e-07,0.10426908031371906,0.02608097562861272,0.00025414000815651835,0.00095938945420480219,3.295765169260536e-05,0.00037909536301300141,7.9726826672854304e-05,3.0050683123136554e-05,2.5549346483445107e-05,1.8524241584503448e-06,1.4191776714260434e-07,1.8532014703377142e-09,1.5914185817339486e-06,9.8683797193486642e-05,2.9608524474394675e-05,0.00075203577821327308,0.00014229228549808028,2.9286799781534162e-07,1.512490438224537e-05,0.00039334311667460589,0.00020314788505920915,3.1429995873165833e-05,0.00055751006794301644,4.4880631356421963e-08,1.4624118968227185e-09,5.3412049830645627e-09,7.6272055153833218e-14,3.1665473637422207e-15,3.051201599192487e-13,5.8072497420947256e-10,2.5153746391660864e-10,1.1579148346285552e-07,0.0
4.6560466654062719e-06,2947.3101421135716,2724963.8727589753,0.71804847000000005,0.0,0.00093623074584924166,0.076039118905862776,0.015584284895520285,0.0089946398652259521,0.0021945252627680618,0.043194655892507303,2.2270811694121461e-05,2.3055131531770728e-07,0.10513284133206642,0.026642918457799664,0.00020871543375179744,0.00077394286958446066,2.4640818180407391e-05,0.00029087684691503926,6.4198253156305026e-05,2.4186416626670109e-05,1.7339691875977379e-05,1.4191745556470608e-06,8.4426326087547495e-08,1.0649132221049624e-09,1.2022331571660678e-06,7.8833047289763152e-05,2.4698618494123788e-05,0.00055083211446441051,0.00010343387348505762,2.0744357106080428e-07,1.5121954816852997e-05,0.00029878804874379516,0.00015983244830946095,2.4011083397142434e-05,0.00054732951361756432,3.5101175099810714e-08,1.0173982586222371e-09,2.849224811118387e-09,3.9619598323243218e-14,1.5954039308399459e-15,1.6146968495769163e-13,3.5085268176267978e-10,1.9213768585602398e-10,7.8393166482714375e-08,0.0
4.7321125431577076e-06,2955.560839830739,2724963.8727585939,0.71804847000000005,0.0,0.00094618722062649789,0.072894289478604143,0.016381597677289344,0.0097176471971633094,0.0021035966242072364,0.044154627841113445,1.8777124718995351e-05,2.4344153089236748e-07,0.1059722663619197,0.027413196182367046,0.00015333862457850734,0.00055597851855430458,1.5927223766618867e-05,0.00019426928686920253,4.5553811734152039e-05,1.7217369478250588e-05,9.9085537687716312e-06,9.4755756409702545e-07,3.8208795756099989e-08,4.6152614191687193e-10,7.8804854584405439e-07,5.5685148226367425e-05,1.839576854178307e-05,0.00034466209680173696,6.4931533327385637e-05,1.2584137885894675e-07,1.5117494284020499e-05,0.00019801605490870106,0.00010981578881330244,1.5849042671558066e-05,0.00053245926203139744,2.7312412460092216e-08,6.8081534223624345e-10,1.1388205331539188e-09,1.5172682870368503e-14,5.8877214957382638e-16,6.3985151707782472e-14,1.646340156508347e-10,1.2760105054098062e-10,4.5729928334577071e-08,0.0
4.8446176059839105e-06,2963.180253692035,2724963.8727590963,0.71804847000000005,0.0,0.00095532065526456749,0.068966168481183684,0.017434795936866244,0.010738396255739267,0.0019756102627295994,0.045297888770914403,1.5551040465828199e-05,2.6437133349562793e-07,0.10654960304573645,0.028514779789282574,9.1776417297717238e-05,0.00032358144336481223,7.9968526215777489e-06,0.00010157712092546107,2.5834400190484738e-05,9.9197660917825113e-06,4.2982607602363484e-06,4.9659296314995525e-07,1.0657130372625719e-08,1.2202998631587349e-10,4.0302014797365492e-07,3.1444396844851941e-05,1.1115045886773237e-05,0.00016591534559522105,3.2002622061413363e-05,5.9275300056795342e-08,1.5110419490033069e-05,0.000103551518999021,5.9371830176167188e-05,8.1357569234648032e-06,0.00051050653824930752,2.2236735012140203e-08,4.7527705169331557e-10,2.8082498868227302e-10,3.4970589375691767e-15,1.2994907382017947e-16,1.5651729690429353e-14,4.945593498176635e-11,6.6294839517793744e-11,2.0878825459575839e-08,0.0
5.2597974848639251e-06,2970.6914308974492,2724963.8727589953,0.71804847000000005,0.0,0.00096801608695763991,0.059897329936861837,0.019954061956564722,0.01356375054087958,0.0016552669579792852,0.047418340535227345,1.2736737184597196e-05,3.3113165676053696e-07,0.10541501178958702,0.032523756560349434,9.4721144550877534e-06,3.0091914948239751e-05,4.8570434450139739e-07,7.332120019784131e-06,3.5193379704804699e-06,1.714804967811512e-06,2.0989192532848467e-07,3.5515487628790333e-08,5.7617149043823957e-11,5.7427920000136517e-13,2.5779113138265481e-08,2.6395966148561152e-06,1.5656400313330065e-06,1.6810478335866589e-05,2.1185309830079252e-06,3.5338772047841262e-09,1.5080959906393209e-05,8.5030023079146268e-06,6.7243699532575532e-06,8.9323223946557296e-07,0.00043568227926322654,1.7396048513271838e-08,3.2746016934674342e-10,1.3576843846006118e-12,1.363889139470579e-17,4.619403332218514e-19,7.534956959434313e-17,3.5381397104658932e-13,4.9363261324151403e-12,1.1716570735460797e-09,0.0
6.6864365730650391e-06,2978.1916827516493,2724963.8727590153,0.71804847000000005,3.1659072125253716e-29,0.0010412804700489851,0.051485864140563595,0.021671395499533761,0.016124273269999687,0.0015405559284051391,0.047062485182282433,1.2948094403075642e-05,3.797966465783873e-07,0.098421422395910299,0.04431147569045752,1.2607020633390794e-06,2.9052155092094551e-06,3.3746666446998249e-08,9.0341755414301912e-07,1.287723213871412e-06,7.5085334661664204e-07,2.6542214446532373e-09,3.7453498093211638e-09,6.3543084966990721e-13,5.6411040005897605e-15,1.8334074669723871e-09,2.7272931105238928e-07,5.5062319000501297e-07,5.5453221412958227e-06,6.5256343753016187e-09,5.9914105775855931e-11,1.4966797397386279e-05,1.3926345861318226e-06,2.1867252650452733e-06,3.1553853356844291e-07,0.00024705227013546651,1.0139535532152037e-08,1.9884768450242508e-10,3.9672652671161623e-15,2.9118425199723776e-20,9.4023969228962499e-22,2.3282777008963998e-19,5.5717091834018657e-15,6.9068009695400635e-13,7.4581529243982996e-11,0.0
8.4099154283089131e-06,2985.7834824152428,2724963.8727592346,0.71804847000000005,3.1906553389364523e-29,0.0011061435673046466,0.0486358975613609,0.021905648040304038,0.016708193406109968,0.0015970431701674097,0.045949465428440368,1.2700949009098738e-05,3.7934162200664091e-07,0.093690181921363816,0.052204309934649328,7.2606665752166143e-07,1.4639691855923405e-06,1.6652791642626324e-08,4.5491798552556022e-07,6.6376858073847112e-07,3.8910856542239051e-07,2.4556098843398741e-09,1.8254444931926909e-09,1.8791459215992791e-13,1.5726743130729865e-15,8.7164890087984084e-10,1.3267316677438262e-07,2.9328104898037095e-07,2.7372996796453568e-06,5.3879897397826097e-09,3.8031578711586771e-11,1.4824150269694443e-05,6.6087044276113071e-07,1.0827573782143186e-06,1.6258110000248015e-07,0.00011794296973000841,4.916948772050231e-09,9.9805619546657184e-11,1.9359177966064944e-15,1.4236333934814579e-20,4.6875353189292945e-22,1.1869671589482858e-19,1.5530329846031327e-15,3.376738814769254e-13,1.7074073752008365e-11,0.0
1.1419368016025669e-05,2993.3359508690537,2724963.8727570074,0.71804847000000005,3.1906548886704826e-29,0.0011419360329268237,0.046899041309895417,0.022022356976617641,0.016971568837734131,0.0016328972499906364,0.045312653340422782,1.2552913949583748e-05,3.7549731108199711e-07,0.090708272310287053,0.057202466917522024,3.1793869509444008e-07,3.9132012342625378e-07,4.4271177550130677e-09,1.2206691827964125e-07,1.791676074796934e-07,1.0511527286340708e-07,2.3464130279231278e-09,4.8148361899989156e-10,5.0551406689339282e-14,3.5885284814348571e-16,2.2785528413281475e-10,3.4951665718466558e-08,8.0871334537004758e-08,7.2168002378508251e-07,4.9280506319639992e-09,2.2613171480197521e-11,1.4573390726244532e-05,1.7130150274799606e-07,2.8598272363232428e-07,4.4007110155928972e-08,3.0367108715481742e-05,1.2505730057602863e-09,2.5549766718309839e-11,4.8547185943813139e-16,3.6276272686533801e-21,1.1932147570269766e-22,3.0232056705687354e-20,1.7549879879762912e-16,8.9422853894895306e-14,1.1241831312396929e-12,0.0
1.6577145405543929e-05,3000.8825247462287,2724963.8727566046,0.71804847000000005,3.1906548886713077e-29,0.001140051485634708,0.046344113890868358,0.022059082937629766,0.016913476563016359,0.0016382226208702358,0.045283288499029441,1.2565256016825182e-05,3.6976613222135619e-07,0.08977513429240587,0.058767815451459683,1.827352677917174e-07,3.9224831224271552e-08,4.4491414553207625e-10,1.228359157663677e-08,1.7305319153267823e-08,1.0071985455518259e-08,2.2884207390008144e-09,4.8381616614917428e-11,3.9360042604194374e-14,2.6379625043319005e-16,2.3081105575780059e-11,3.535341032653938e-09,7.8966692567126691e-09,7.0395857693694495e-08,4.7445091785947805e-09,1.7404635621023787e-11,1.4147063219146095e-05,1.7477188856638756e-08,2.7986710085040286e-08,4.3266378220894844e-09,2.8612526734957965e-06,1.1263069282445663e-10,2.2411438929135349e-12,4.172913713170503e-17,3.2644820629351569e-22,1.037500714763185e-23,2.553305299245177e-21,9.7667772517766783e-18,9.1689059701355106e-15,1.0174519841380334e-14,0.0
2.3312337888104052e-05,3008.5057693267081,2724963.8727565557,0.71804847000000005,3.1906548886713077e-29,0.0011244785306168815,0.046206156738446413,0.022068131990953827,0.016741039870124583,0.0016323567393513006,0.045472550190583702,1.2637418121307161e-05,3.6344040243947882e-07,0.089554388902989127,0.059125495767157671,1.6979045465175365e-07,4.1164739117929328e-09,4.5350391662404984e-11,1.2623161964667177e-09,1.09935123432666e-09,5.8190541817926223e-10,2.2336600669247013e-09,4.8230275169885034e-12,3.8380857589523586e-14,2.5860097041407114e-16,2.364909541677067e-12,3.7526090551031057e-10,5.1943519703324057e-10,5.5977826613783533e-09,4.59189740977023e-09,1.639638992776233e-11,1.3602057574702692e-05,2.1153763996604464e-09,2.2000997668578323e-09,3.4359857909056916e-10,1.3345203416930446e-07,4.9605764496686841e-12,9.4983515520863027e-14,2.005401537259312e-18,2.3102431506753342e-23,6.0773685613372145e-25,1.191180701071678e-22,8.9719681193624145e-19,1.0600552127567916e-15,5.8066990987546321e-17,0.0
3.1138287887582113e-05,3016.0082344343123,2724963.8727565506,0.71804847000000005,2.9292494372401274e-29,0.0011081119475912979,0.046105284918277721,0.022073200807510532,0.016562128889277723,0.0016255309466821986,0.045677710351283984,1.2713507283867732e-05,3.5725577528668924e-07,0.08939378084924661,0.05937953372790078,1.6986546583996389e-07,2.429533321098576e-09,2.5750287476423071e-11,7.2061009707179706e-10,3.256547178309643e-10,1.3173945998540654e-10,2.1662969351816802e-09,2.6942311149083486e-12,3.7304596875512746e-14,2.5294890833574498e-16,1.3541820665068596e-12,2.2013085232996319e-10,1.6592736644353084e-10,2.4775223507054708e-09,4.4173883439690721e-09,1.5739034821281584e-11,1.298743424975509e-05,1.3517174252929119e-09,9.5645102647455579e-10,1.5165623420562566e-10,3.9390983568664789e-09,1.3826746451071764e-13,2.5467178020661246e-15,3.1947777868132915e-19,9.4068863261634356e-24,1.8611754344346258e-25,1.8411214956669291e-23,4.9335195585533685e-19,6.6173278352941201e-16,1.107845520579567e-17,0.0
4.0793992558805891e-05,3023.6784891946081,2724963.872755833,0.71804847000000005,3.8231920194386334e-29,0.0010914688297112036,0.046002359274983542,0.022076721770175303,0.016379319921722819,0.0016184217032782027,0.045888694464312055,1.2791354133944508e-05,3.5102716553293516e-07,0.089228912221758785,0.059640045749439936,1.7066554159553931e-07,2.3353341894331669e-09,2.4334713080521604e-11,6.7879767786560682e-10,2.9086988330590593e-10,1.1324707833615942e-10,2.0774418785111985e-09,2.5624986868272167e-12,3.5881194059285706e-14,2.4490665196722043e-16,1.3046611370205231e-12,2.0970704369446576e-10,1.5015153586577325e-10,2.301195331524261e-09,4.200706431275884e-09,1.4953595128022577e-11,1.22582450660033e-05,1.286045703217781e-09,8.9134375054600093e-10,1.409667376236954e-10,5.3625262385927078e-11,1.7955702531501678e-15,3.2474544607091151e-17,2.432460615454598e-19,8.2240344893117465e-24,1.5714682196650126e-25,1.359882005754276e-23,4.4925314830486422e-19,6.3571211398124022e-16,8.9212576115857575e-18,0.0
5.3131811914056356e-05,3031.3992977066546,2724963.8727586409,0.71804847000000005,3.7581496496957549e-29,0.0010748547087480209,0.045897484725520167,0.022078662340554028,0.016195806909366044,0.0016111729569061434,0.04610162642290367,1.286947253321765e-05,3.4485465957899475e-07,0.089060102559041454,0.05990704461200197,1.7157678617624187e-07,2.2712802935865446e-09,2.3116008572161091e-11,6.4239369401843131e-10,2.7432741996198072e-10,1.0621330860360226e-10,1.9586413436801232e-09,2.452694206486572e-12,3.3956344212892836e-14,2.3333238117878115e-16,1.2642109967983505e-12,2.0052565389970843e-10,1.4243933461412077e-10,2.1807517746802762e-09,3.9265671805168959e-09,1.3966605795074997e-11,1.1374911347767723e-05,1.2228856476504263e-09,8.4886379717267761e-10,1.3371071454901596e-10,2.2538684362996804e-13,-1.2256840389953847e-15,-7.9255402140935828e-17,1.979355432764077e-19,7.1501965042332462e-24,1.3287613756498188e-25,1.0206893584540244e-23,4.1123347590557133e-19,6.1140358137387313e-16,7.4259481488778155e-18,0.0
6.9917181714982676e-05,3039.0341690898376,2724963.8727581035,0.71804847000000005,3.7582168218453743e-29,0.001058565938190807,0.045792402957442316,0.022079003482873345,0.01601486014700353,0.0016039185898350068,0.046312737112925252,1.2946373585700537e-05,3.388454797488793e-07,0.088890395495737629,0.060175914505244947,1.7256106702338e-07,2.1795067747886023e-09,2.1345167827947694e-11,5.9098107452254514e-10,2.5170816609852444e-10,9.6964002895379848e-11,1.7946713697889454e-09,2.2815503169434227e-12,3.125216504202004e-14,2.1620083084521325e-16,1.1904151201013271e-12,1.8635372290324478e-10,1.3144062309676756e-10,2.0095391744142149e-09,3.5669231579361549e-09,1.2678214317441274e-11,1.0261105261635348e-05,1.1303768582404378e-09,7.8601252370211147e-10,1.2331400573543242e-10,-5.5487239169153598e-15,1.6919615108798628e-16,1.0173777283380803e-17,1.6767817457400672e-19,6.0010851522055065e-24,1.1156320969864069e-25,8.8989931451632346e-24,3.6630168456981312e-19,5.7155669688967741e-16,5.8478109064467864e-18,0.0
9.6915811214636185e-05,3046.6257573931016,2724963.8727650926,0.71804847000000005,3.7582168218385993e-29,0.0010425140191718365,0.045686373072255058,0.022077804120273069,0.015835486652765619,0.0015966300074867167,0.046523239330110704,1.3022361972246798e-05,3.3296271222975666e-07,0.088719200158154335,0.060448066926722881,1.7361149893680707e-07,2.0308947176239515e-09,1.846867183284007e-11,5.0945142922367476e-10,2.1642912803502421e-10,8.294837316949429e-11,1.5409451975574854e-09,1.9883303259242496e-12,2.6972002446090454e-14,1.8785802044412837e-16,1.050103896346589e-12,1.6225351030102869e-10,1.1368293713716278e-10,1.7353010286904993e-09,3.036092747590207e-09,1.0784326482936056e-11,8.6755488232229915e-06,9.7916208320831918e-10,6.819789256809837e-10,1.0656322417674826e-10,1.0742235968306157e-16,-5.6376058268096914e-18,-3.3195743020776028e-19,1.1742022575332206e-19,4.3664848546177387e-24,8.0014829135569984e-26,5.9767127539599153e-24,3.0596287055021067e-19,5.0067860390862882e-16,4.0451760933366665e-18,0.0
0.00017747737470557944,3054.1507206313981,2724963.8727782499,0.71804847000000005,3.7582168218386038e-29,0.001026778459650844,0.045578795952800864,0.022075232948402791,0.015658332454680093,0.0015893841751916623,0.046732788651304737,1.3096856410147744e-05,3.2722381411073421e-07,0.088549008372300925,0.060722380531694237,1.7465668895400509e-07,1.6614027985655242e-09,1.137449243230272e-11,3.1261191150174831e-10,1.3252288688004645e-10,5.0514699566164242e-11,9.4178895255393709e-10,1.2332377006460282e-12,1.6580560718791838e-14,1.162681846863326e-16,6.5921580165165612e-13,1.005432407011988e-10,7.0144822545727363e-11,1.0666736524988534e-09,1.8394535872650977e-09,6.5298134170473301e-12,5.2224309913876654e-06,6.0374595851563784e-10,4.2115760386199821e-10,6.5545531848680608e-11,3.0000254791394744e-16,6.3166905425930212e-20,7.0112780950003754e-21,4.2086093337204958e-20,1.6140946186373978e-24,2.9198258390885287e-26,2.0787886879268262e-24,1.8199622788699546e-19,3.1217812980700534e-16,1.4185539159759298e-18,0.0
