 STEP	Time	T	N2	H	O2	OH	H2O	CO	C2H4	CO2	
1	2.9175497644567977385e-09	1500.0000002733963811	0.7180000000000000826	1.2003968248075395469e-12	0.21829999988567400093	2.0254734343733016899e-11	4.2910262337081114103e-11	1.0007618078930024818e-10	0.063699999949884469896	0	
121	8.2367934443019212936e-07	1500.0001882279821075	0.7180000000000000826	4.2312856000909569032e-10	0.21829995970115428916	7.1396028415265964286e-09	1.5125462820117624827e-08	3.5275909940568365499e-08	0.063699982334741570011	4.6731863229715067345e-17	
140	1.6542445554073876175e-06	1500.0004804485852219	0.7180000000000000826	1.0803210077413459068e-09	0.21829989711001809849	1.8228651247189891581e-08	3.8617944709086151559e-08	9.0065550355541354449e-08	0.063699954897514107777	5.4616706790688291156e-16	
153	2.4603120241534205062e-06	1500.0009149209899988	0.7180000000000000826	2.0576181806422816881e-09	0.21829980403204374273	3.4718943816838022396e-08	7.3553124955089267981e-08	1.7154208150345850792e-07	0.063699914096185195067	2.6321704967065055646e-15	
164	3.2701839474554072066e-06	1500.0015804712652425	0.7180000000000000826	3.5548263821926988677e-09	0.21829966143763609998	5.9981885609348402171e-08	1.2707342738250689987e-07	2.9636320555933150399e-07	0.063699851589009731656	9.3194442968077140545e-15	
174	4.0827579324879210222e-06	1500.0026003500490788	0.7180000000000000826	5.8492084439209820875e-09	0.21829944292021843943	9.8695834402821704277e-08	2.0909009595850134696e-07	4.8764411851775074206e-07	0.063699755800496166147	2.8141304367778196095e-14	
184	4.9465286730840588359e-06	1500.0042811812224954	0.7180000000000000826	9.6305704054915254149e-09	0.21829908278249668396	1.625001417275336329e-07	3.4426145426362732558e-07	8.0289343799907248802e-07	0.063699597931816759333	8.2237664442608235316e-14	
193	5.7537710672429384168e-06	1500.00670826346186	0.7180000000000000826	1.5090807749323465551e-08	0.21829856274824968598	2.546327338303249167e-07	5.3944716028346629685e-07	1.2581093576494051566e-06	0.063699369971479430363	2.1143412912951727491e-13	
202	6.5798819518033986321e-06	1500.0105138822332265	0.7180000000000000826	2.3652377948267463102e-08	0.2182977473421773007	3.9909526650929195327e-07	8.4549548440649642888e-07	1.9718811223935353647e-06	0.06369901253303553168	5.3593509659852905025e-13	
214	7.4127780974355189842e-06	1500.0166455795567799	0.7180000000000000826	3.6965544953808499653e-08	0.21829647939241073051	6.2373327223511024513e-07	1.3213981220178426736e-06	3.081790078672798781e-06	0.063698456719234547441	1.3368538119479470941e-12	
232	8.2462418126739430124e-06	1500.0259141830708813	0.7180000000000000826	5.7553595927505226715e-08	0.21829451857960954775	9.7112315888916992211e-07	2.0573547083493612949e-06	4.7982009749647142036e-06	0.063697597184666124304	3.2862522597259372808e-12	
250	9.089396725600137707e-06	1500.0404437928930292	0.7180000000000000826	8.982796510856175861e-08	0.21829144475544287607	1.5157008235302498984e-06	3.2110605243022272883e-06	7.4888922587227080635e-06	0.063696249754906369978	8.0791998851981923139e-12	
267	9.8916386587506292962e-06	1500.0616732237874658	0.7180000000000000826	1.3698466393217482028e-07	0.21828695352650676065	2.3113940256970058785e-06	4.8967642717912557784e-06	1.1420313922668622452e-05	0.06369428099771354268	1.8895719742616320939e-11	
284	1.0697694141787639745e-05	1500.0941419697783203	0.7180000000000000826	2.0910717342338882298e-07	0.21828008452773095538	3.5283457988862760533e-06	7.4749220657142115051e-06	1.7433120652190838175e-05	0.063691269932383373642	4.419560929201110432e-11	
301	1.1506258991543839469e-05	1500.1438047290894247	0.7180000000000000826	3.1942247888011411015e-07	0.21826957799007343231	5.3897416720482010553e-06	1.1418366009051625454e-05	2.6630041891672575938e-05	0.063686664334501597029	1.0337340421675249611e-10	
318	1.2316437571796623855e-05	1500.2197734968203804	0.7180000000000000826	4.8817062429658837163e-07	0.21825350618138356085	8.2371034493663040552e-06	1.7450636346298107921e-05	4.069848804837846015e-05	0.063679619178352742104	2.4179544564040029184e-10	
335	1.3127605541003207695e-05	1500.3359956807569233	0.7180000000000000826	7.4633197837870463421e-07	0.21822891836991795134	1.2593183909426544564e-05	2.6679238080538732804e-05	6.2221299944407879251e-05	0.063668841010589186102	5.6558019606382826444e-10	
352	1.3939308426040276801e-05	1500.5138294332796249	0.7180000000000000826	1.1413470398312919437e-06	0.21819129594980102294	1.9258486602965177768e-05	4.0800149856112052796e-05	9.515362827745497932e-05	0.063652349115466744234	1.3229559329572575592e-09	
369	1.4751184573090581016e-05	1500.7860029871837924	0.7180000000000000826	1.7459094888670159271e-06	0.21813371471031395288	2.945965161128432958e-05	6.2412250998471069667e-05	0.00014555605890638720107	0.063627108324106979031	3.0945741085340480842e-09	
386	1.5562901962184165104e-05	1501.202718356667674	0.7180000000000000826	2.6715200939371692197e-06	0.21804555330704120109	4.5078196240083303725e-05	9.5502073106922799649e-05	0.00022272472097410221463	0.063588462943841628228	7.2387022125857074057e-09	
403	1.6374099185307851127e-05	1501.8410995924061808	0.7180000000000000826	4.0894642597210635081e-06	0.21791049383053212596	6.9004571998508825652e-05	0.00014619424899620314879	0.00034094047134022143581	0.063529260480196775296	1.6932676568050459493e-08	
420	1.7184320965726253332e-05	1502.8199090483160489	0.7180000000000000826	6.2634784600836602194e-06	0.21770340707983781847	0.00010568957984648729657	0.00022392056477776547301	0.00052219297711179532822	0.063438486710656577516	3.9609309629000165073e-08	
437	1.7992937661630797565e-05	1504.3226813606961514	0.7180000000000000826	9.601085329239213861e-06	0.21738545504834119737	0.00016201108670682302752	0.00034325814230439237636	0.00080046213669013603804	0.063299119843555198828	9.2657073177812008978e-08	
454	1.8799036230915939344e-05	1506.6345872934941781	0.7180000000000000826	1.4735360109034887185e-05	0.21689628393363050152	0.00024865491909078189662	0.00052685962435471383591	0.0012285387549403673207	0.063084710650384998032	2.1675748979140505141e-07	
471	1.9601267573959439998e-05	1510.2023402336064919	0.7180000000000000826	2.265773427732926422e-05	0.21614133017234773981	0.00038235855869445567641	0.00081021755808152653294	0.0018891053334516016982	0.062753823546303322267	5.0709684419969867907e-07	
489	2.0444239136711161607e-05	1516.1423344978634304	0.7180000000000000826	3.5845605142382255511e-05	0.21488423055087430003	0.00060494994304747010897	0.0012820460538581490706	0.0029887828634370134512	0.062202897728221163975	1.2472554197217263524e-06	
502	2.104702566245672139e-05	1522.5528995324239077	0.7180000000000000826	5.0075503536323854085e-05	0.21352729923970423243	0.00084516055826186053251	0.0017913436772825338042	0.0041754500075938932174	0.061608281669319614471	2.3893443017231003979e-06	
512	2.1506006400027098208e-05	1529.2401798161049555	0.7180000000000000826	6.4917033318758398872e-05	0.21211151780427911495	0.0010957287620562423513	0.0023227287036071760269	0.0054132268333090720683	0.060987941051722616148	3.9398117072163484846e-06	
520	2.1869485611736044528e-05	1536.0627508349682557	0.7180000000000000826	8.005647818257969478e-05	0.21066679445805416848	0.0013513592453160523047	0.0028649756586868169693	0.0066759531460473774123	0.060354982706887813637	5.8783068254313309783e-06	
526	2.2139526270708993853e-05	1542.2647304516697204	0.7180000000000000826	9.3817072386949299043e-05	0.20935321859728728278	0.0015837347611807875078	0.0033579984333317516171	0.0078237602652684746368	0.05977953493587374878	7.9359346712376975568e-06	
531	2.2362640691126031196e-05	1548.292387095836375	0.7180000000000000826	0.00010718954253213102985	0.20807631809013113489	0.0018095793822993826508	0.0038372552963147833933	0.0089392671169908170803	0.059220199277592214249	1.0191294139765713725e-05	
536	2.25838123176298522e-05	1555.2414519446735994	0.7180000000000000826	0.00012260479551698521953	0.20660392317929565653	0.0020699512085382031946	0.0043898860435404672004	0.010225265206318156011	0.05857528165891755928	1.3087907873183933792e-05	
540	2.2759218796347433991e-05	1561.5696876609777064	0.7180000000000000826	0.00013664178922984305435	0.20526278905584360857	0.0023070674674143475634	0.0048932503555058114511	0.011396359824730762852	0.057987903646525659762	1.5987860750151070851e-05	
544	2.2933151284654615832e-05	1568.6842614214233436	0.7180000000000000826	0.00015242202894689510463	0.20375468611001160135	0.0025736568843843224061	0.0054592819728078861852	0.012712973988113258558	0.057327448333613743869	1.9530682122469126015e-05	
548	2.3105502959969716713e-05	1576.6965502114194351	0.7180000000000000826	0.00017019245578423262098	0.20205588673600174965	0.0028738992142854544697	0.0060968863010775571284	0.014195736345006567183	0.056583539981431348054	2.385896641328246918e-05	
551	2.3233664848151697213e-05	1583.3723136196708765	0.7180000000000000826	0.00018499802389180532939	0.20064013958468221444	0.0031240720844467441755	0.0066282530411697765382	0.015431186334511634919	0.055963626856511544672	2.7724074786480781027e-05	
554	2.3360832794174400879e-05	1590.6886235954641506	0.7180000000000000826	0.0002012237635105769949	0.19908821734875126186	0.0033982652581632977369	0.0072107292372901614017	0.016785216628081679052	0.05528413213740920179	3.2215626794035235648e-05	
557	2.3486963794587587104e-05	1598.7164363431429592	0.7180000000000000826	0.00021902708059758373062	0.19738497985861200301	0.0036991439832906023756	0.0078499972479824688121	0.018270979499230413645	0.054538437133613275332	3.7435196673881800686e-05	
560	2.3612017260461930029e-05	1607.5359474934446098	0.7180000000000000826	0.00023858590163783295135	0.19551330844380782059	0.0040297212624028277625	0.008552481988736742452	0.019903342777872402858	0.053719058800326548175	4.3500825216075269348e-05	
562	2.3694769143286865601e-05	1613.8998076954294447	0.7180000000000000826	0.00025269881026582810503	0.19416248212522771444	0.004268272006069462679	0.009059480161340307397	0.021081253778115253972	0.053127731647693868244	4.8081471287834972954e-05	
564	2.3777015774990291835e-05	1620.6854667838717887	0.7180000000000000826	0.00026774711758625495189	0.1927218614082134851	0.0045226501560287277193	0.0096001799522320886704	0.02233728819895325346	0.052497128526887794353	5.3144640098658252781e-05	
566	2.3858748563334569574e-05	1627.9253793394129843	0.7180000000000000826	0.00028380283789982915527	0.19118451318013879314	0.0047940754793697791872	0.010177183464290648698	0.023677464558742693235	0.051824219320657234633	5.8741158901267847918e-05	
568	2.3939960371926947801e-05	1635.6548714263376496	0.7180000000000000826	0.00030094435165901710231	0.18954289018365030883	0.0050838756499779454504	0.010793323296299858413	0.02510833366747402054	0.051105705650084820579	6.4927200854281012267e-05	
570	2.402064580663142195e-05	1643.9124083364411035	0.7180000000000000826	0.00031925699267244692179	0.18778877427240037168	0.0053934962077139695161	0.011451683839602948625	0.026637027743661671059	0.050337996099975815256	7.1764843973035635934e-05	
572	2.4100801541381854424e-05	1652.7398821810811569	0.7180000000000000826	0.00033883367584659328936	0.1859132157219364756	0.0057245112068362033822	0.012155624055249772061	0.028271312927438400214	0.049517179725225769771	7.9322687467043141805e-05	
574	2.4180426688656387864e-05	1662.1829181474020061	0.7180000000000000826	0.00035977556146128068359	0.18390646896884982331	0.006078634486624610693	0.012908801591586747601	0.030019644857709991415	0.048638998002714671498	8.767653105312755784e-05	
576	2.4259523220690561759e-05	1672.2911968821149458	0.7180000000000000826	0.00038219274849034327564	0.18175792548254054992	0.0064577314384004448275	0.013715197977907083587	0.031891226690800945909	0.047698815538565579597	9.6910123295293427656e-05	
578	2.4338096448489480642e-05	1683.1187885282820389	0.7180000000000000826	0.00040620498453474931542	0.17945604494412528696	0.0068638310597568287508	0.01457914445330855957	0.033896068525981218333	0.046691590046792297297	0.00010711598550129826368	
580	2.4416155566905801017e-05	1694.7244911985847011	0.7180000000000000826	0.00043194237300237382608	0.17698828656661244607	0.007299137969874823495	0.015505347742335541181	0.036045046625394552842	0.045611842404587099598	0.00011839631819339967113	
581	2.445499642153622024e-05	1700.8388834288261933	0.7180000000000000826	0.0004455016558744888909	0.17568799431778600595	0.0075284839717327713821	0.015993375335897987155	0.037177236482309153343	0.045042933997832948489	0.00012447423856686744758	
582	2.4493714275515881195e-05	1707.1721628277296077	0.7180000000000000826	0.00045954604852304915255	0.17434104330838728902	0.0077660438970918793319	0.016498914744457256198	0.038349960011912001545	0.044453627991962792187	0.00013086399766595630152	
583	2.4532311661303411856e-05	1713.7331529803871035	0.7180000000000000826	0.0004740950152593417029	0.17294555637800015924	0.0080121476322064510978	0.017022670489799225646	0.039564844566894741273	0.04384310436515923004	0.0001375815526810733342	
584	2.4570791486834470715e-05	1720.5310300039643607	0.7180000000000000826	0.00048916877827453770101	0.17149958299927298144	0.0082671379252989059955	0.017565374628802667839	0.040823580918679533425	0.043210511079045166305	0.00014464367062641991964	
585	2.4609157063425126256e-05	1727.5753291764958703	0.7180000000000000826	0.00050478832789405017438	0.17000109824244447054	0.0085313705632552843533	0.018127787141992229847	0.042127924123967180892	0.042554963631935512069	0.00015206796851148504722	
586	2.464741213565147272e-05	1734.8759500105104507	0.7180000000000000826	0.00052097542865227287542	0.1684480021351906498	0.008805214477967815076	0.018710696173710163193	0.04347969404337728716	0.041875544785714584328	0.00015987295538745537656	
587	2.4685560913367773667e-05	1742.4431593759375119	0.7180000000000000826	0.00053775262020093136679	0.16683811951166535592	0.0090890517656811338487	0.01931491808867333293	0.044880775429935584886	0.041171304507501831071	0.00016807807634205973457	
588	2.4723608106041789525e-05	1750.2875922057023672	0.7180000000000000826	0.00055514321189247559183	0.16516920046096711383	0.0093832775998000106377	0.019941297303541362373	0.046333117490841062291	0.040441260174440475661	0.00017670375851773319404	
589	2.4761558959604115869e-05	1758.4202492353399521	0.7180000000000000826	0.00057317126968200007072	0.16343892150411531983	0.0096883000142765907103	0.02059070584504667234	0.047838732809443305916	0.039684397098207098431	0.00018577145922923780138	
590	2.4799419296028433845e-05	1766.8524911330555369	0.7180000000000000826	0.00059186159376391070993	0.16164488765026238659	0.010004539530860487306	0.021264042578113710041	0.04939969549541393945	0.038899669435327764722	0.00019530371625802833528	
591	2.4837195555881769822e-05	1775.5960282676689985	0.7180000000000000826	0.00061123968509964440778	0.15978463550762050938	0.01033242859910957212	0.021962232038104274878	0.051018138409427461755	0.038086001560237059405	0.00020532420040169816703	
592	2.4874894844108316869e-05	1784.6629052368732573	0.7180000000000000826	0.00063133169869690974017	0.15785563765275661963	0.010672410813067604793	0.022686222790751071204	0.052696249284003383873	0.037242289990366807262	0.00021585777035782393544	
593	2.4912524979337204666e-05	1794.0654791358704188	0.7180000000000000826	0.0006521643811660101037	0.15585530849380374585	0.011024939862863923634	0.023436985231370319194	0.054436265534240760311	0.036367405966533004891	0.00022693053002246230468	
594	2.4950094547033921984e-05	1803.8163903848781047	0.7180000000000000826	0.00067376498970218748168	0.15378101189900555967	0.011390478173135612505	0.024215508721481794618	0.056240467520777881472	0.035460198807612662575	0.00023856988828452506336	
595	2.4987612956847056071e-05	1813.9285247521781912	0.7180000000000000826	0.0006961611892226926817	0.15163007090203226013	0.011769495173081923403	0.025022797945943243275	0.0581111699922756339	0.034519500176046158391	0.00025080462139832383501	
596	2.5025090504536497729e-05	1824.4149650061649481	0.7180000000000000826	0.00071938092392293277646	0.14939977983972921316	0.012162465135125605925	0.025859868357107709119	0.060050711396010432452	0.033544129410086470644	0.00026366493801787885395	
597	2.5062538438906459146e-05	1835.2889304050672763	0.7180000000000000826	0.00074345225900899472235	0.1470874193262491636	0.01256986451060030166	0.026727740554387750815	0.062061440702890796617	0.032532900099884957956	0.00027718254697827100254	
598	2.5099969034206214761e-05	1846.5637019874238831	0.7180000000000000826	0.00076840318781848826902	0.14469027451945523643	0.012992168681681360784	0.027627433428117135344	0.064145701347746122978	0.031484628107270297426	0.00029139072791158798	
599	2.5137395668503342594e-05	1858.2525313620631096	0.7180000000000000826	0.00079426139896645805982	0.14220565719025859974	0.013429848039072305593	0.028559955876041015488	0.066305811837783931728	0.030398141253089646513	0.00030632440478825967737	
600	2.5174832908577831774e-05	1870.3685304176697173	0.7180000000000000826	0.00082105399756200530496	0.1396309321618461885	0.01388336328498550494	0.029526296879637696502	0.068544042532832624715	0.029272290920657487168	0.00032202022247872138247	
601	2.5212296601930843311e-05	1882.924539085976221	0.7180000000000000826	0.00084880717395638719761	0.13696354874144756053	0.014353159851087505042	0.030527413706571342872	0.070862588052228253632	0.028105965848272403823	0.00033851662643678479252	
602	2.5249803976546976691e-05	1895.9329680102175644	0.7180000000000000826	0.00087754581293504575149	0.13420107781950044168	0.014839661311828183585	0.031564217985978748615	0.073263534717493569715	0.026898108406650290264	0.00035585394561395741319	
603	2.5287373749094438125e-05	1909.4056127074143205	0.7180000000000000826	0.000907293035799741957	0.13134125535546598007	0.015343261665706308186	0.032637559386631632974	0.075748822401087462231	0.025647733676583836515	0.00037407447872526928883	
604	2.5325026242290718542e-05	1923.3534355918720848	0.7180000000000000826	0.00093806966746162929495	0.1283820330005089605	0.015864316351535803773	0.033748206616394070545	0.078320200124383967943	0.024353951655714016489	0.00039322258400178701715	
605	2.5359914034081681029e-05	1937.2370253449289521	0.7180000000000000826	0.00096744194038213271458	0.12555742272297301665	0.016361621102990379917	0.034808330946302812325	0.08077432712587008512	0.023119073008046060747	0.0004117831534357473274	
606	2.5392120740735772428e-05	1950.4465604461208841	0.7180000000000000826	0.00099527741536721927619	0.12288021500265247643	0.016832930189994509129	0.035813131977528875338	0.083100127019514052895	0.021948682998183026427	0.00042963539676007340626	
607	2.5421950904089413295e-05	1962.9700596598850098	0.7180000000000000826	0.0010216638843613561928	0.12034201890991191863	0.017279726804602359158	0.036765759050587286383	0.085304924815218896583	0.020839107009756503708	0.00044679952556192601299	
608	2.5449660289936926742e-05	1974.8464471047984716	0.7180000000000000826	0.0010466828483759660004	0.11793504214551357723	0.017703388022040314476	0.037669136819774434732	0.087395521155331321039	0.019786932903054894883	0.0004632961059097401562	
609	2.5475465674625104458e-05	1986.1118553411715766	0.7180000000000000826	0.0010704101989676517541	0.11565202651498482367	0.018105196275934019173	0.038525989472333960206	0.089378249054040181942	0.01878898268375604752	0.00047914579998357492924	
610	2.5499552334739117429e-05	1996.7999306253907434	0.7180000000000000826	0.0010929167855271858158	0.11348619416788938152	0.018486348913670076766	0.039338860907028753988	0.09125902113877991384	0.017842288903966701391	0.00049436918313823367301	
611	2.5522079850793919262e-05	2006.9420868098991377	0.7180000000000000826	0.0011142688939082209549	0.11143120220152107069	0.018847966260724678678	0.04011013177314699113	0.093043369515851820362	0.016944074739543277253	0.00050898661530418684226	
612	2.5543186655464199524e-05	2016.5677193165465724	0.7180000000000000826	0.0011345286551535979213	0.10948110386466868016	0.01919109850908609638	0.040842034032195682902	0.094736479819707258843	0.016091736967584552992	0.00052301815160436489812	
613	2.5562993634671965076e-05	2025.7043876009747692	0.7180000000000000826	0.0011537543983256555533	0.10763031504346338985	0.019516731665109435245	0.041536663536991293155	0.096343220610432073192	0.015282831264402980606	0.00053648348127539619706	
614	2.5581607005579804111e-05	2034.3779724085209182	0.7180000000000000826	0.0011720009580545700037	0.10587358503001743915	0.019825792735175099685	0.042195991003232208305	0.097868169002020985459	0.014515059384518974248	0.00054940188698094033579	
615	2.5599120636492206761e-05	2042.6128126067876565	0.7180000000000000826	0.0011893199449582384907	0.10420597080574470206	0.020119154286202350218	0.042821871661862950798	0.099315633199524994135	0.01378625788294662001	0.00056179221876036895475	
616	2.5615617931685090355e-05	2050.4318252781313277	0.7180000000000000826	0.0012057599852766367945	0.102622814241407595	0.020397638487661139822	0.043416053816672010857	0.10068967247266005782	0.013094388117905520624	0.00057367287841725842553	
617	2.5631173373928399137e-05	2057.8566119424544922	0.7180000000000000826	0.0012213669347133776499	0.10111972174286040782	0.020662020719047120149	0.04398018648392330171	0.10199411498123069075	0.012437527326934923882	0.00058506181129039153046	
618	2.5645853795389662855e-05	2064.9075531728640271	0.7180000000000000826	0.001236184070457848087	0.099692545967321119504	0.020913032809660864197	0.044515826254839074849	0.10323257378298078546	0.011813860611556712202	0.00059597650318380073885	
619	2.565971943130978961e-05	2071.6038934068533308	0.7180000000000000826	0.0012502522645828370671	0.098337369308246255772	0.021151365964453175406	0.045024443494260490972	0.10440846128976241647	0.011221673697849311041	0.00060643398084572340719	
620	2.5672824798683125752e-05	2077.9638174034998883	0.7180000000000000826	0.0012636101414116788881	0.0970504889034497914	0.021377673419600586729	0.045507427967579720807	0.1055250023879484994	0.010659346365171485163	0.00061645081483844221207	
621	2.568521943301023706e-05	2084.0045195248117125	0.7180000000000000826	0.0012762942209804280496	0.095828402965239312117	0.021592572863600369149	0.04596609397147251308	0.10658524640005304085	0.010125346454680037023	0.00062604312397450455428	
623	2.5708053367514673639e-05	2095.1924566158500056	0.7180000000000000826	0.001299777324245011273	0.093565538641104215034	0.021990453850748645226	0.046815378214582113736	0.10854822744092919307	0.0091366081110800939635	0.00064401641731094314784	
625	2.5728539236611378904e-05	2105.2877182037395869	0.7180000000000000826	0.001320956381389183339	0.091524332482306902659	0.022349319352972577685	0.04758147051278430878	0.11031868232122617191	0.0082447649541498840148	0.00066047399517118684804	
627	2.5746946524668780501e-05	2114.397999279371561	0.7180000000000000826	0.0013400599245285934377	0.089682853080496935383	0.022673035826579843871	0.048272602169182728116	0.11191569644792087601	0.0074402233987569911175	0.00067552915253424068026	
629	2.5763506098239397557e-05	2122.620068964973143	0.7180000000000000826	0.0013572931613453197847	0.088021400164292329382	0.022965075560411402772	0.048896167084391213564	0.11335640876452811321	0.0067143667114332407017	0.00068928855359859223829	
631	2.5778417600640800609e-05	2130.0409702092783846	0.7180000000000000826	0.0013728405301200534948	0.086522260952866872352	0.023228559806833051077	0.049458813204441891276	0.11465622482252539605	0.006059448243460798661	0.00070185243975213573546	
633	2.579185506038928486e-05	2136.7390624169206603	0.7180000000000000826	0.0013868679288262083984	0.085169497552605250013	0.023466296413013391919	0.049966522317224815186	0.11582900267943456452	0.0054684982718063053497	0.00071331483708965718812	
635	2.5803971207840969922e-05	2142.7849341578917119	0.7180000000000000826	0.0013995246716652781638	0.083948760309399975132	0.023680812853399613865	0.050424680106929437029	0.11688721607446037054	0.0049352422182312276344	0.00072376376591430115464	
638	2.5819958614734464942e-05	2150.7682718961586943	0.7180000000000000826	0.0014162302462292005335	0.082337280663776546419	0.023963966697633981573	0.051029487984493450414	0.11828399329156438768	0.0042313258648509818188	0.00073771525145165366827	
641	2.5833665645864252583e-05	2157.6147928156046873	0.7180000000000000826	0.0014305502382779956925	0.080955703189314470736	0.024206699424291343303	0.051548010439166722096	0.11948135199836376619	0.0036278603083260601084	0.00074982440225985374539	
645	2.5848958549918483205e-05	2165.2515719880930192	0.7180000000000000826	0.0014465154903681336825	0.07941514456428119817	0.024477335807328221007	0.05212620001854553764	0.12081632741158701561	0.0029549824543253764599	0.00076349425356471336667	
649	2.5861427722087855773e-05	2171.4739472129149362	0.7180000000000000826	0.0014595176676852454362	0.078160305964734499984	0.024697755859166264231	0.052597155231502358552	0.1219035774018358137	0.0024069240825874455188	0.00077476379248859073706	
654	2.5873830888342139222e-05	2177.6570328131438146	0.7180000000000000826	0.0014724320757029288158	0.076913753636685511239	0.024916699493520485381	0.053065000221739641595	0.12298352456235360497	0.0018625069184578359281	0.00078608309154023950187	
661	2.5886652405954942282e-05	2184.0395349377017737	0.7180000000000000826	0.001485756874141212075	0.07562738962964297984	0.025142613073226068726	0.05354778666517148733	0.1240978293935844079	0.0013007263649221832789	0.00079789799931193408633	
672	2.5899480609374479431e-05	2190.4135135281521798	0.7180000000000000826	0.0014990574616469418481	0.074343154246015896724	0.025368129185946722975	0.054029773884039421217	0.12521015086400111294	0.0007399004664062361564	0.0008098338919439640373	
689	2.6386028486713274241e-05	2196.6468699086767629	0.7180000000000000826	0.0014999718385211753546	0.07359031648226072031	0.025425077258860156321	0.054311274434999549932	0.12541818119491832118	0.00049087477887858996413	0.0012643040115617679847	
699	2.7248479098524091755e-05	2202.6758139889457198	0.7180000000000000826	0.0014911460302851327429	0.073267427409168639496	0.025348715074580235179	0.054430605979562986241	0.12491271127222050574	0.00049086372114431550684	0.0020585305130385029952	
706	2.8174111512812447319e-05	2209.0251472224799727	0.7180000000000000826	0.0014818481126511043929	0.072927264515207354534	0.025268268247049960329	0.054556321494357677693	0.12438020316389490627	0.00049085148108456134151	0.0028952429857547392483	
711	2.9073867381273577824e-05	2215.0809646038869687	0.7180000000000000826	0.0014729770787842552584	0.072602717233305025246	0.025191514991320447525	0.054676265885657625299	0.12387214380954494897	0.00049083921224332455364	0.0036935417891446544088	
715	2.9985236713911257684e-05	2221.1025460576715886	0.7180000000000000826	0.001464153365670965018	0.072279899295417365801	0.025115171278235735169	0.054795571163407275073	0.12336679496993192828	0.00049082641075021040799	0.0044875835165867784121	
718	3.0808800601386320363e-05	2226.4499956241511427	0.7180000000000000826	0.0014563151353865905202	0.07199313386743387555	0.025047354171076376128	0.054901552359711995599	0.1229178867097234229	0.00049081451746430340179	0.005192943239203698727	
721	3.1778097942607420282e-05	2232.63331106931264	0.7180000000000000826	0.0014472489539607586318	0.071661441241005804925	0.024968912840564204403	0.05502413751234017103	0.12239865207940081593	0.00049080012283106715272	0.006008807249897434033	
724	3.2921898512707845476e-05	2239.7818793125520642	0.7180000000000000826	0.0014367638322835107455	0.071277832869930682347	0.024878194900623259306	0.055165909414571584479	0.12179815304172710022	0.00049078258307278920664	0.0069523633577913352202	
726	3.379857876173295348e-05	2245.1565278245502668	0.7180000000000000826	0.0014288780298183231202	0.070989321038763902871	0.024809966565669788058	0.055272536061759934556	0.12134652142329617475	0.00049076873252298035787	0.0076620081481691467568	
728	3.4780980877947464318e-05	2251.0754891722785942	0.7180000000000000826	0.0014201910632653403505	0.070671495469689579738	0.024734806655903114614	0.055389996331155801068	0.12084900637524217948	0.00049075279090911717687	0.0084437513138351290992	
730	3.588369501064101369e-05	2257.593152408971946	0.7180000000000000826	0.0014106223519891145524	0.070321407228867496841	0.024652018033236935274	0.055519380077123314798	0.12030099308163227922	0.00049073436596519211857	0.0093048448611859208013	
732	3.7123739445994693488e-05	2264.7691839095873547	0.7180000000000000826	0.0014000833894573733521	0.069935817158695581797	0.024560834999632869674	0.055661884414379206309	0.11969741284716027552	0.00049071297390078361372	0.010253254216774157492	
734	3.8521057628681062328e-05	2272.6690053285083195	0.7180000000000000826	0.0013884770041288525821	0.069511168759327557343	0.024460416907078563753	0.055818823740616224649	0.11903270078236849461	0.00049068801366862176486	0.011297724792811936201	
736	4.0099138377756102377e-05	2281.3643071213100484	0.7180000000000000826	0.0013756965612389245122	0.069043558881542316241	0.024349841257852108262	0.055991640568105037479	0.11830075010920985956	0.00049065873279207565354	0.012447853889259952176	
737	4.0964462245832894991e-05	2286.0345150978942002	0.7180000000000000826	0.0013688299470556294576	0.068792321143720830401	0.024290431871691536142	0.056084491715764218933	0.11790749172249161136	0.00049064218459734187071	0.0130657914146791055	
738	4.1885795421157470957e-05	2290.9335983030441639	0.7180000000000000826	0.0013616251035328276985	0.068528706149645554624	0.024228096278821917992	0.056181917194369011825	0.11749486297723184258	0.0004906241815921001323	0.013714168114807029006	
739	4.2867452161179390102e-05	2296.0725319013513399	0.7180000000000000826	0.0013540656469754632201	0.068252114068347788378	0.024162692752511837069	0.056284138687934089085	0.11706192563669107209	0.00049060456412481972741	0.014394458643415219273	
740	4.3914154750220823185e-05	2301.4627924034207354	0.7180000000000000826	0.0013461344299983725448	0.067961917065535157323	0.02409407296246210417	0.056391388230052671982	0.11660769773889122225	0.00049058315132043301982	0.015108206421740325714	
741	4.5031080567120659213e-05	2307.1163778720051596	0.7180000000000000826	0.0013378135094107329768	0.067657458118386040735	0.024022081697577770537	0.056503908641960913506	0.11613115175933322321	0.00049055973778763686897	0.015857026535543963103	
742	4.6223915620118049326e-05	2313.045828614504444	0.7180000000000000826	0.0013290841132203290702	0.067338049796313650952	0.023946556581238735012	0.056621953983186645853	0.11563121272366715109	0.00049053408974577379035	0.016642608712627987577	
743	4.7498915589303570574e-05	2319.2642483213462583	0.7180000000000000826	0.0013199266068170325151	0.067002973009511593294	0.02386732777960540175	0.056745790014114373678	0.11510675627378803842	0.0004905059404569703501	0.017466720375706856067	
744	4.8862975611675547026e-05	2325.7853255972481747	0.7180000000000000826	0.0013103204584170760182	0.06665147572782555152	0.02378421770369264221	0.056875694669527937508	0.11455660669211681357	0.00049047498482430995897	0.018331209763595937567	
745	5.0323710280963764095e-05	2332.6233558167746196	0.7180000000000000826	0.0013002442038777175387	0.066282771673423113157	0.023697040706193852472	0.057011958541849865056	0.11397953489044937436	0.0004904408729859463089	0.019238009111220387426	
746	5.1889545624701145549e-05	2339.7932632161896436	0.7180000000000000826	0.0012896754110274803902	0.065896038991914512861	0.023605602774352339029	0.05715488537236066563	0.11337425637181955396	0.00049040320269665529148	0.020189137875829047536	
747	5.3569825178511514333e-05	2347.3106231091178415	0.7180000000000000826	0.001278590643702658472	0.065490418908089792493	0.023509701220580488806	0.057304792548122741869	0.11273942917645722595	0.00049036151024034685744	0.021186705992807003396	
748	5.5374932720515150988e-05	2355.1916840824578685	0.7180000000000000826	0.001266965425739360971	0.065065014374391424989	0.023409124373045851059	0.057462011601612586476	0.11207365182631638667	0.00049031525955687724986	0.022232917139337761425	
749	5.731643478124949406e-05	2363.4533899892485351	0.7180000000000000826	0.0012547742052464007714	0.06461888872278284679	0.023303651269116130301	0.057626888709126564136	0.11137546128704937931	0.00049026382919067131722	0.023330071977488264778	
750	5.9407246738695165128e-05	2372.1134015038001053	0.7180000000000000826	0.001241990319583806358	0.064151064334009175183	0.023193051355434597671	0.057799785182793952942	0.11064333097206088818	0.00049020649657265525766	0.024480571339545176279	
751	6.1661827187152736343e-05	2381.190116937390485	0.7180000000000000826	0.0012285859616030427727	0.063660521342663950461	0.023077084199557687527	0.057981077949400154636	0.10987566882087190789	0.00049014241902478909371	0.025686919306878722852	
752	6.4096406391730547389e-05	2390.702691924618648	0.7180000000000000826	0.0012145321478799415201	0.06314619640238003373	0.02295549921963070325	0.058171160007042657658	0.10907081549413950861	0.00049007061072003780307	0.026951726118207366273	
753	6.6729256088203585092e-05	2400.6710574730468579	0.7180000000000000826	0.0011997986899066244177	0.062606981543433262716	0.022828035440653128563	0.058370440847699482656	0.10822704274127956103	0.0004899899146290438625	0.02827771082239914982	
754	6.9581009774141453828e-05	2411.1159357109886514	0.7180000000000000826	0.0011843541695283114033	0.062041723165913213733	0.022694421288701704248	0.05857934682977769536	0.10734255201510772837	0.00048989896822321558293	0.029667703562748393153	
755	7.2675045121403200501e-05	2422.0588524538802631	0.7180000000000000826	0.0011681659203496949813	0.061449221226586199507	0.022554374438343707115	0.058798321479180806759	0.10641547343325839792	0.00048979616136188037102	0.031124647340919572164	
756	7.6037943451610784666e-05	2433.5221454152579099	0.7180000000000000826	0.0011512000174442051613	0.060828228698415726106	0.022407601733827598595	0.059027825689738466775	0.1054438652212824068	0.00048967958433979597715	0.032651599054952053225	
757	7.9700045688553606995e-05	2445.5289664796973739	0.7180000000000000826	0.0011334212785535599001	0.06017745141104800799	0.022253799212146676417	0.059268337783005053954	0.104425713821614502	0.00048954696346972987903	0.03425172953016272781	
758	8.3696130327656157724e-05	2458.1032758811288659	0.7180000000000000826	0.0011147932811769428307	0.059495548422343794148	0.022092652266717163062	0.059520353372006298831	0.10335893492252050396	0.00048939558076381854592	0.035928322154471732663	
759	8.8066247483616045492e-05	2471.2698253148232652	0.7180000000000000826	0.0010952784016901757902	0.05878113313122824285	0.02192383600569441926	0.059784384951282590337	0.10224137576153902174	0.00048922217316985853845	0.037684769575395939134	
760	9.2856755126809192727e-05	2485.0541258393418502	0.7180000000000000826	0.001074837885168246571	0.05803277542994281224	0.021747015881169545065	0.060060961103144794304	0.1010708192039632275	0.00048902280528367273339	0.039524567691327949781	
761	9.8121620964889091801e-05	2499.4823947182067059	0.7180000000000000826	0.0010534319583202029959	0.057249005323605030304	0.021561848698237032207	0.060350625162107936206	0.099844990312210876726	0.00048879270729539645111	0.041451305838223775901	
762	0.00010392407888148108921	2514.5814728324844509	0.7180000000000000826	0.001031020003535916248	0.056428318639676157409	0.021367984161907056795	0.060653933107555124682	0.098561566444054796166	0.00048852606682053898845	0.043468651576450648144	
763	0.00011033876698541776314	2530.3787005243229942	0.7180000000000000826	0.0010075608205451385725	0.05556918574651292797	0.021165067194286894814	0.060971450345137068183	0.097218192407405146227	0.00048821575870818987534	0.045580327727404876259	
764	0.00011745453277587955651	2546.9017339945862659	0.7180000000000000826	0.00098301301534594936679	0.054670064659832241782	0.020952741369641470631	0.061303746867626809913	0.095812502957132866799	0.00048785299006906654353	0.047790078140351834046	
765	0.00012537818272988381411	2564.1782754968426161	0.7180000000000000826	0.00095733557682881704684	0.053729420642293530819	0.020730653996727070598	0.061651390017638661722	0.09434215611553266323	0.00048742682719639656309	0.050101616823783105825	
766	0.00013423960172233255083	2582.2356765492877457	0.7180000000000000826	0.00093048873505355647346	0.052745755574955220657	0.020498463671223658006	0.062014933641126722408	0.092804882728933391078	0.00048692355425510497379	0.052518552094452587709	
767	0.00014419891383131411798	2601.1003507517302751	0.7180000000000000826	0.00090243525068732152999	0.051717652324375765205	0.020255851607169677447	0.062394901702114001496	0.091198560871743564182	0.00048632578603721878354	0.055044272457872689408	
768	0.00015545677897096566345	2620.7968953035078812	0.7180000000000000826	0.00087314237994506242822	0.050643842650006876127	0.020002538886079671704	0.062791763202410214029	0.089521329169904531597	0.00048561121014788178555	0.057681772501505995665	
769	0.00016826967416214250422	2641.3467563343133406	0.7180000000000000826	0.00084258492706090629479	0.04952331306815322548	0.019738313229689084111	0.063205893081167363601	0.087771762771555628113	0.00048475075085602003849	0.060433382171518015835	
770	0.00018297341316042474804	2662.7661600651144909	0.7180000000000000826	0.00081075010539762763871	0.048355473908859268606	0.019463071606863998481	0.063637509772323394563	0.085949153490711513448	0.0004837057928501435752	0.063300335322994297216	
771	0.00020002090902136840421	2685.0628234547857573	0.7180000000000000826	0.00077764552681613573117	0.04714043774830888045	0.019176890222911628647	0.06408657236074766228	0.08405397011588543188	0.00048242380294263783333	0.066282060222387889636	
772	0.00022004589834856397952	2708.230554710562501	0.7180000000000000826	0.00074331286844354980785	0.045879496415550329036	0.018880144200044766956	0.06455260438837981396	0.08208864568127600958	0.00048083106690395257046	0.069374965379401840049	
773	0.00024314723361270568582	2731.7847856909365873	0.7180000000000000826	0.00070898052930495089434	0.044617471993983651157	0.018583469214128522234	0.065019041252171644318	0.080123556261672126966	0.00047889160600589006107	0.072468589142733477737	
774	0.00026878920001961140607	2754.6126978660881832	0.7180000000000000826	0.0006765231522180583084	0.043423017839696237408	0.018303080570401288052	0.065460510135222430006	0.078266052125468388301	0.00047663000575216314539	0.075394186171241703298	
775	0.00029773478537334743029	2776.1858609499763588	0.7180000000000000826	0.00064593852737309634567	0.042295791366276619394	0.018038975472643561937	0.065877138737630000498	0.07651605853018823844	0.00047396336692737199266	0.078152133998961384465	
776	0.00033118401529380625276	2796.5123608657258956	0.7180000000000000826	0.00061726656962065988045	0.041236845703967787979	0.017791524661273171171	0.066268539542936030773	0.074875942072597748145	0.00047076279367806440857	0.080739118655926811474	
777	0.00037114549627232051822	2815.5739152193377777	0.7180000000000000826	0.00059062475516237034154	0.040249802540197741896	0.017561786724679433885	0.066633376880889993998	0.073352564681862617024	0.00046681429270468429533	0.083145030124503430113	
778	0.00042128552418678271406	2833.3043119883409418	0.7180000000000000826	0.00056629027186668758325	0.039343578700103000456	0.017352236266964745498	0.066968360412757985123	0.071962043721182061828	0.00046173055835062326319	0.085345760068775172735	
779	0.00048916672235922253973	2849.5396660105502633	0.7180000000000000826	0.00054491999838509979064	0.038539711257182286686	0.017168712273347312702	0.067265540964447256833	0.0707424936707035934	0.00045472234592717569951	0.087283899490007560429	
780	0.00059329375511565994161	2863.8863138665378756	0.7180000000000000826	0.00052825646006741792428	0.037895973470707569608	0.01702666404553571794	0.067503591878571522766	0.069794895248083771433	0.00044389904116792257283	0.088806719855866370072	
781	0.00078713889947847211735	2875.2967653073692418	0.7180000000000000826	0.00052161120498108554892	0.037590211983855828515	0.016973075299971784186	0.067616854117417024561	0.069426711831407819653	0.0004240496512313927783	0.089447485911135354852	
782	0.0010007065822194055778	2877.3571887086809511	0.7180000000000000826	0.00051882460673235736726	0.037422304599288046256	0.016953078863072866544	0.067679182789362538064	0.06928017661122204407	0.0004031556752052265131	0.089743276855117209978	
