THERMO
   300.000  1000.000  5000.000
AR                120186AR  1               G  0300.00   5000.00  1000.00      1
 0.02500000E+02 0.00000000E+00 0.00000000E+00 0.00000000E+00 0.00000000E+00    2
-0.07453750E+04 0.04366000E+02 0.02500000E+02 0.00000000E+00 0.00000000E+00    3
 0.00000000E+00 0.00000000E+00-0.07453750E+04 0.04366000E+02                   4
C2H                20387C   2H   1          G  0300.00   5000.00  1000.00      1
 0.04427688E+02 0.02216268E-01-0.06048952E-05 0.09882517E-09-0.07351179E-13    2
 0.06590415E+06-0.11994418E+01 0.03050667E+02 0.06051674E-01-0.04956634E-04    3
 0.02804159E-07-0.08193332E-11 0.06630011E+06 0.05954361E+02                   4
C2H2              121386C   2H   2          G  0300.00   5000.00  1000.00      1
 0.04436770E+02 0.05376039E-01-0.01912816E-04 0.03286379E-08-0.02156709E-12    2
 0.02566766E+06-0.02800338E+02 0.02013562E+02 0.15190446E-01-0.16163189E-04    3
 0.09078992E-07-0.01912746E-10 0.02612444E+06 0.08805378E+02                   4
C2H3               12787C   2H   3          G  0300.00   5000.00  1000.00      1
 0.05933468E+02 0.04017745E-01-0.03966739E-05-0.14412666E-09 0.02378643E-12    2
 0.03185434E+06-0.08530313E+02 0.02459276E+02 0.07371476E-01 0.02109872E-04    3
-0.13216421E-08-0.11847838E-11 0.03335225E+06 0.11556202E+02                   4
C2H4              121286C   2H   4          G  0300.00   5000.00  1000.00      1
 0.03528418E+02 0.11485185E-01-0.04418385E-04 0.07844600E-08-0.05266848E-12    2
 0.04428288E+05 0.02230389E+02-0.08614880E+01 0.02796162E+00-0.03388677E-03    3
 0.02785152E-06-0.09737879E-10 0.05573046E+05 0.02421148E+03                   4
C2H5               12387C   2H   5          G  0300.00   5000.00  1000.00      1
 0.07190480E+02 0.06484077E-01-0.06428064E-05-0.02347879E-08 0.03880877E-12    2
 0.10674549E+05-0.14780892E+02 0.02690701E+02 0.08719133E-01 0.04419838E-04    3
 0.09338703E-08-0.03927773E-10 0.12870404E+05 0.12138195E+02                   4
C2H6              121686C   2H   6          G  0300.00   4000.00  1000.00      1
 0.04825938E+02 0.13840429E-01-0.04557258E-04 0.06724967E-08-0.03598161E-12    2
-0.12717793E+05-0.05239506E+02 0.14625388E+01 0.15494667E-01 0.05780507E-04    3
-0.12578319E-07 0.04586267E-10-0.11239176E+05 0.14432295E+02                   4
CH                121286C   1H   1          G  0300.00   5000.00  1000.00      1
 0.02196223E+02 0.02340381E-01-0.07058201E-05 0.09007582E-09-0.03855040E-13    2
 0.07086723E+06 0.09178373E+02 0.03200202E+02 0.02072875E-01-0.05134431E-04    3
 0.05733890E-07-0.01955533E-10 0.07045259E+06 0.03331587E+02                   4
CH2(T)            120186C   1H   2          G  0250.00   4000.00  1000.00      1
 0.03636407E+02 0.01933056E-01-0.01687016E-05-0.10098994E-09 0.01808255E-12    2
 0.04534134E+06 0.02156560E+02 0.03762237E+02 0.11598191E-02 0.02489585E-05    3
 0.08800836E-08-0.07332435E-11 0.04536790E+06 0.01712577E+02                   4
CH2(S)            31287 C   1H   2          G  0300.00   4000.00  1000.00      1
 0.03552888E+02 0.02066788E-01-0.01914116E-05-0.11046733E-09 0.02021349E-12    2
 0.04984975E+06 0.01686570E+02 0.03971265E+02-0.01699088E-02 0.10253689E-05    3
 0.02492550E-07-0.01981266E-10 0.04989367E+06 0.05753207E+00                   4
CH3               121286C   1H   3          G  0300.00   5000.00  1000.00      1
 0.02844051E+02 0.06137974E-01-0.02230345E-04 0.03785161E-08-0.02452159E-12    2
 0.16437809E+05 0.05452697E+02 0.02430442E+02 0.11124099E-01-0.01680220E-03    3
 0.16218288E-07-0.05864952E-10 0.16423781E+05 0.06789794E+02                   4
CH3O              121686C   1H   3O   1     G  0300.00   3000.00  1000.00      1
 0.03770799E+02 0.07871497E-01-0.02656384E-04 0.03944431E-08-0.02112616E-12    2
 0.12783252E+03 0.02929575E+02 0.02106204E+02 0.07216595E-01 0.05338472E-04    3
-0.07377636E-07 0.02075610E-10 0.09786011E+04 0.13152177E+02                   4
CH4               121286C   1H   4          G  0300.00   5000.00  1000.00      1
 0.01683478E+02 0.10237236E-01-0.03875128E-04 0.06785585E-08-0.04503423E-12    2
-0.10080787E+05 0.09623395E+02 0.07787415E+01 0.01747668E+00-0.02783409E-03    3
 0.03049708E-06-0.12239307E-10-0.09825229E+05 0.13722195E+02                   4
CO                121286C   1O   1          G  0300.00   5000.00  1000.00      1
 0.03025078E+02 0.14426885E-02-0.05630827E-05 0.10185813E-09-0.06910951E-13    2
-0.14268350E+05 0.06108217E+02 0.03262451E+02 0.15119409E-02-0.03881755E-04    3
 0.05581944E-07-0.02474951E-10-0.14310539E+05 0.04848897E+02                   4
CO2               121286C   1O   2          G  0300.00   5000.00  1000.00      1
 0.04453623E+02 0.03140168E-01-0.12784105E-05 0.02393996E-08-0.16690333E-13    2
-0.04896696E+06-0.09553959E+01 0.02275724E+02 0.09922072E-01-0.10409113E-04    3
 0.06866686E-07-0.02117280E-10-0.04837314E+06 0.10188488E+02                   4
H                 120186H   1               G  0300.00   5000.00  1000.00      1
 0.02500000E+02 0.00000000E+00 0.00000000E+00 0.00000000E+00 0.00000000E+00    2
 0.02547162E+06-0.04601176E+01 0.02500000E+02 0.00000000E+00 0.00000000E+00    3
 0.00000000E+00 0.00000000E+00 0.02547162E+06-0.04601176E+01                   4
H2                121286H   2               G  0300.00   5000.00  1000.00      1
 0.02991423E+02 0.07000644E-02-0.05633828E-06-0.09231578E-10 0.15827519E-14    2
-0.08350340E+04-0.13551101E+01 0.03298124E+02 0.08249441E-02-0.08143015E-05    3
-0.09475434E-09 0.04134872E-11-0.10125209E+04-0.03294094E+02                   4
H2O                20387H   2O   1          G  0300.00   5000.00  1000.00      1
 0.02672145E+02 0.03056293E-01-0.08730260E-05 0.12009964E-09-0.06391618E-13    2
-0.02989921E+06 0.06862817E+02 0.03386842E+02 0.03474982E-01-0.06354696E-04    3
 0.06968581E-07-0.02506588E-10-0.03020811E+06 0.02590232E+02                   4
H2O2              120186H   2O   2          G  0300.00   5000.00  1000.00      1
 0.04573167E+02 0.04336136E-01-0.14746888E-05 0.02348903E-08-0.14316536E-13    2
-0.01800696E+06 0.05011369E+01 0.03388753E+02 0.06569226E-01-0.14850125E-06    3
-0.04625805E-07 0.02471514E-10-0.01766314E+06 0.06785363E+02                   4
HCCO               32387H   1C   2O   1     G  0300.00   4000.00  1000.00      1
 0.06758073E+02 0.02000400E-01-0.02027607E-05-0.10411318E-09 0.01965164E-12    2
 0.01901513E+06-0.09071262E+02 0.05047965E+02 0.04453478E-01 0.02268282E-05    3
-0.14820945E-08 0.02250741E-11 0.01965891E+06 0.04818439E+01                   4
CHO               121286H   1C   1O   1     G  0300.00   5000.00  1000.00      1
 0.03557271E+02 0.03345572E-01-0.13350060E-05 0.02470572E-08-0.01713850E-12    2
 0.03916324E+05 0.05552299E+02 0.02898329E+02 0.06199146E-01-0.09623084E-04    3
 0.10898249E-07-0.04574885E-10 0.04159922E+05 0.08983614E+02                   4
N                 120186N   1               G  0300.00   5000.00  1000.00      1
 0.02450268E+02 0.10661458E-03-0.07465337E-06 0.01879652E-09-0.10259839E-14    2
 0.05611604E+06 0.04448758E+02 0.02503071E+02-0.02180018E-03 0.05420529E-06    3
-0.05647560E-09 0.02099904E-12 0.05609890E+06 0.04167566E+02                   4
N2                121286N   2               G  0300.00   5000.00  1000.00      1
 0.02926640E+02 0.14879768E-02-0.05684760E-05 0.10097038E-09-0.06753351E-13    2
-0.09227977E+04 0.05980528E+02 0.03298677E+02 0.14082404E-02-0.03963222E-04    3
 0.05641515E-07-0.02444854E-10-0.10208999E+04 0.03950372E+02                   4
O                 120186O   1               G  0300.00   5000.00  1000.00      1
 0.02542059E+02-0.02755061E-03-0.03102803E-07 0.04551067E-10-0.04368051E-14    2
 0.02923080E+06 0.04920308E+02 0.02946428E+02-0.16381665E-02 0.02421031E-04    3
-0.16028431E-08 0.03890696E-11 0.02914764E+06 0.02963995E+02                   4
O2                121386O   2               G  0300.00   5000.00  1000.00      1
 0.03697578E+02 0.06135197E-02-0.12588420E-06 0.01775281E-09-0.11364354E-14    2
-0.12339301E+04 0.03189165E+02 0.03212936E+02 0.11274864E-02-0.05756150E-05    3
 0.13138773E-08-0.08768554E-11-0.10052490E+04 0.06034737E+02                   4
OH                121286O   1H   1          G  0300.00   5000.00  1000.00      1
 0.02882730E+02 0.10139743E-02-0.02276877E-05 0.02174683E-09-0.05126305E-14    2
 0.03690513E+05 0.05595712E+02 0.03637266E+02 0.01850910E-02-0.16761646E-05    3
 0.02387202E-07-0.08431442E-11 0.03410406E+05 0.13588605E+01                   4
CH2OH             120186H   3C   1O   1     G  0250.00   4000.00  1000.00      1
 0.06327520E+02 0.03608270E-01-0.03201547E-05-0.01938750E-08 0.03509704E-12    2
-0.04474509E+05-0.08329365E+02 0.02862628E+02 0.10015273E-01-0.05285435E-05    3
-0.05138539E-07 0.02246041E-10-0.03349678E+05 0.10397938E+02                   4
CH2O              121286C   1H   2O   1     G  0300.00   5000.00  1000.00      1
 0.02995606E+02 0.06681321E-01-0.02628954E-04 0.04737153E-08-0.03212517E-12    2
-0.15320369E+05 0.06912572E+02 0.16527311E+01 0.12631439E-01-0.01888168E-03    3
 0.02050031E-06-0.08413237E-10-0.14865404E+05 0.13784820E+02                   4
CH2CO             121686C   2H   2O   1     G  0300.00   5000.00  1000.00      1
 0.06038817E+02 0.05804840E-01-0.01920953E-04 0.02794484E-08-0.14588676E-13    2
-0.08583402E+05-0.07657581E+02 0.02974970E+02 0.12118712E-01-0.02345045E-04    3
-0.06466685E-07 0.03905649E-10-0.07632636E+05 0.08673553E+02                   4
CH2CHO            120186O   1H   3C   2     G  0300.00   5000.00  1000.00      1
 0.05975670E+02 0.08130591E-01-0.02743624E-04 0.04070304E-08-0.02176017E-12    2
 0.04903218E+04-0.05045251E+02 0.03409062E+02 0.10738574E-01 0.01891492E-04    3
-0.07158583E-07 0.02867385E-10 0.15214766E+04 0.09558290E+02                   4
HO2               L 5/89H   1O   2          G   200.000  3500.000  1000.000    1
 4.01721090E+00 2.23982013E-03-6.33658150E-07 1.14246370E-10-1.07908535E-14    2
 1.11856713E+02 3.78510215E+00 4.30179801E+00-4.74912051E-03 2.11582891E-05    3
-2.42763894E-08 9.29225124E-12 2.94808040E+02 3.71666245E+00                   4
C4H6                    C   4H   60   00   0G   300.00   3000.00  1000.00      1
 0.98438620E+01 0.15445170E-01-0.57172000E-05 0.10145160E-08-0.68655930E-13    2
 0.90772280E+04-0.28003430E+02 0.11107870E+02-0.63027940E-02 0.53619200E-04    3
-0.59145190E-07 0.21238630E-10 0.96868770E+04-0.29928690E+02                   4
I-C4H5                  C   4H   5    0    0G   300.00   5000.0     1000.0     1
 0.90956680E+01 0.14777760E-01-0.60020560E-05 0.11199920E-08-0.78116340E-13    2
 0.33138790E+05-0.19989900E+02 0.76222620E+01-0.78198420E-02 0.74335610E-04    3
-0.88638960E-07 0.33414190E-10 0.34873060E+05-0.58366290E+01                   4
N-C3H7            120186C   3H   7          G  0300.00   5000.00  1000.00      1
 0.07978290E+02 0.15761134E-01-0.05173243E-04 0.07443892E-08-0.03824978E-12    2
 0.07579402E+05-0.01935611E+03 0.01922536E+02 0.02478927E+00 0.01810249E-04    3
-0.01783265E-06 0.08582996E-10 0.09713281E+05 0.13992715E+02                   4
I-C3H7          I-L 9/84C   3H   7    0    0G   300.000  5000.000 1000.        1
 0.65294638E+01 0.17193288E-01-0.57153220E-05 0.83408080E-09-0.43663532E-13    2
 0.77179102E+04-0.91399021E+01 0.14461584E+01 0.20988975E-01 0.77172672E-05    3
-0.18481391E-07 0.71269024E-11 0.98206094E+04 0.20108200E+02 0.11221480E+05    4
C3H4               40687C   3H   4          G  0300.00   5000.00  1000.00      1
 0.05729144E+02 0.12368045E-01-0.04805626E-04 0.08601364E-08-0.05812802E-12    2
 0.02012984E+06-0.09448668E+02-0.02131968E+01 0.03358713E+00-0.03804870E-03    3
 0.02745838E-06-0.08690044E-10 0.02162048E+06 0.02029392E+03                   4
C3H5               40687C   3H   5          G  0300.00   5000.00  1000.00      1
 6.54761132E+00 1.33152246E-02-4.78333100E-06 7.71949814E-10-4.61930808E-14    2
 1.72714707E+04-9.27486841E+00 3.78794693E+00 9.48414335E-03 2.42343368E-05    3
-3.65604010E-08 1.48592356E-11 1.86261218E+04 7.82822499E+00                   4
C3H6              120186C   3H   6          G  0300.00   5000.00  1000.00      1
 0.06732257E+02 0.14908336E-01-0.04949899E-04 0.07212022E-08-0.03766204E-12    2
-0.09235703E+04-0.13313348E+02 0.14933071E+01 0.02092517E+00 0.04486794E-04    3
-0.16689121E-07 0.07158146E-10 0.10748264E+04 0.16145340E+02                   4
N-C4H5                  C   4H   5    0    0G   300.0    5000.0   1000.00      1
 0.10014330E+02 0.14816500E-01-0.62390490E-05 0.11873550E-08-0.83812640E-13    2
 0.38641150E+05-0.26894940E+02 0.86183830E+01-0.18673580E-01 0.10944920E-03    3
-0.12786270E-06 0.48163990E-10 0.40832320E+05-0.10651440E+02                   4
12-C4H6                 C   4H   60   00   0G   300.00   3000.00  1000.00      1
  0.1781557E+02 -0.4257502E-02  0.1051185E-04 -0.4473844E-08  0.5848138E-12    2
  0.1267342E+05 -0.6983978E+02  0.1023467E+01  0.3495919E-01 -0.2200905E-04    3
  0.6942272E-08 -0.7879187E-12  0.1811799E+05  0.1973750E+02                   4
M-C4H7                  C   4H   70   00   0G   300.00   3000.00  1000.00      1
  0.5521420E+01  0.2683684E-01 -0.1286430E-04  0.3088640E-08 -0.3030856E-12    2
  0.1198044E+05 -0.4495640E+01 -0.1080514E+01  0.4638686E-01 -0.3464697E-04    3
  0.1401374E-07 -0.2395040E-11  0.1375538E+05  0.2933150E+02                   4
3-C4H7                  C   4H   70   00   0G   300.00   3000.00  1000.00      1
  0.5521420E+01  0.2683684E-01 -0.1286430E-04  0.3088640E-08 -0.3030856E-12    2
  0.1198044E+05 -0.4495640E+01 -0.1080514E+01  0.4638686E-01 -0.3464697E-04    3
  0.1401374E-07 -0.2395040E-11  0.1375538E+05  0.2933150E+02                   4
C4H4                    C   4H   40   00   0G   300.00   4000.00  1000.00      1
 0.10697773E+02 0.06982014E-01-0.06567747E-05-0.03884517E-08 0.07200946E-12    2
 0.03034803E+06-0.03128430E+03 0.03233893E+02 0.01865634E+00 0.12703205E-05    3
-0.09410096E-07 0.02956110E-10 0.03301097E+06 0.09922676E+02                   4
C2H3CO                  C   3H   3O   10   0G   300.00   5000.00  1000.00      1
 0.64432070E+01 0.14545680E-01-0.53850820E-05 0.91223820E-09-0.58607090E-13    2
 0.55391400E+04-0.91177710E+01 0.80887340E+00 0.15190580E-01 0.12710790E-04    3
-0.17778580E-07 0.55069860E-11 0.83786520E+04 0.24948870E+02                   4
C3H3                    C   3H   30   00   0G   300.00   5000.00  1000.00      1
 0.73698450E+01 0.77854710E-02-0.30216960E-05 0.55099410E-09-0.37929260E-13    2
 0.38891950E+05-0.14110520E+02 0.56629250E+01 0.43052760E-02 0.18210260E-04    3
-0.25694770E-07 0.10163000E-10 0.39782900E+05-0.32569600E+01                   4
B-C4H6                  C   4H   60   00   0G   300.00   5000.00  1000.00      1
 0.80387070E+01 0.16361490E-01-0.51950590E-05 0.87261840E-09-0.57617240E-13    2
 0.16274420E+05-0.16772050E+02-0.57984030E+00 0.46665740E-01-0.48803730E-04    3
 0.31088930E-07-0.83509690E-11 0.18381660E+05 0.26264080E+02                   4
P-C3H4                  C   3H   40   00   0G   300.00   5000.00  1000.00      1
 0.60892310E+01 0.11866400E-01-0.46685320E-05 0.85588780E-09-0.59055250E-13    2
 0.19466620E+05-0.93572010E+01 0.61101990E+01-0.67416390E-02 0.53216180E-04    3
-0.60988720E-07 0.22487930E-10 0.20406530E+05-0.48582320E+01                   4
A-C3H4                  C   3H   40   00   0G   300.00   5000.00  1000.00      1
 0.63218080E+01 0.11755130E-01-0.46546710E-05 0.85713520E-09-0.59327540E-13    2
 0.19990410E+05-0.11405800E+02 0.45453210E+01 0.45320690E-03 0.41642470E-04    3
-0.52550230E-07 0.20129320E-10 0.21299590E+05 0.17743890E+01                   4
A-C3H5                  C   3H   50   00   0G   300.00   4000.00  1000.00      1
 0.09651539E+02 0.08075596E-01-0.07965424E-05-0.04650696E-08 0.08603281E-12    2
 0.15300955E+05-0.02686773E+03 0.02276486E+02 0.01985564E+00 0.11238421E-05    3
-0.10145757E-07 0.03441342E-10 0.01789496E+06 0.13725151E+02                   4
C2H3CO                  C   3H   3O   10   0G   300.00   5000.00  1000.00      1
 0.64432070E+01 0.14545680E-01-0.53850820E-05 0.91223820E-09-0.58607090E-13    2
 0.55391400E+04-0.91177710E+01 0.80887340E+00 0.15190580E-01 0.12710790E-04    3
-0.17778580E-07 0.55069860E-11 0.83786520E+04 0.24948870E+02                   4
I-C4H3                  C   4H   30   00   0G   300.00   5000.00  1000.00      1
 0.97570450E+01 0.88991060E-02-0.36321540E-05 0.67966640E-09-0.47498080E-13    2
 0.52220940E+05-0.22567330E+02 0.92063570E+01-0.68412580E-02 0.49426770E-04    3
-0.57756540E-07 0.21620850E-10 0.53230880E+05-0.15490760E+02                   4
N-C4H3                  C   4H   30   00   0G   300.00   5000.00  1000.00      1
 0.91143560E+01 0.95471120E-02-0.38843590E-05 0.72623270E-09-0.50737070E-13    2
 0.61621520E+05-0.21296650E+02 0.56986800E+01 0.60107180E-02 0.28706380E-04    3
-0.41907200E-07 0.16944030E-10 0.63201220E+05-0.49851380E+00                   4
C4H2                    C   4H   20   00   0G   300.00   5000.00  1000.00      1
 0.09031407E+02 0.06047252E-01-0.01948788E-04 0.02754863E-08-0.13856080E-13    2
 0.05294735E+06-0.02385067E+03 0.04005191E+02 0.01981000E+00-0.09865877E-04    3
-0.06635158E-07 0.06077413E-10 0.05424065E+06 0.01845736E+02                   4
C3H2                    C   3H   20   00   0G   300.00   5000.00  1000.00      1
 0.06530853E+02 0.05870316E-01-0.01720776E-04 0.02127498E-08-0.08291910E-13    2
 0.05115213E+06-0.11227278E+02 0.02691077E+02 0.14803664E-01-0.03250551E-04    3
-0.08644363E-07 0.05284877E-10 0.05219072E+06 0.08757391E+02                   4
C4H8                    C   4H   80   00   0G   300.00   5000.00  1000.00      1
 0.20535840E+01 0.34350500E-01-0.15883196E-04 0.33089660E-08-0.25361040E-12    2
-0.21397230E+04 0.15543201E+02 0.11811380E+01 0.30853380E-01 0.50865240E-05    3
-0.24654880E-07 0.11110192E-10-0.17904000E+04 0.21062470E+02                   4
A-C3H4O                 C   3H   4O   10   0G   300.00   5000.00  1000.00      1
 0.68803410E+01 0.13655080E-01-0.53734420E-05 0.98568390E-09-0.68047410E-13    2
-0.12312170E+05-0.87491310E+01 0.60178160E+01-0.38976370E-02 0.54682330E-04    3
-0.65085770E-07 0.24362900E-10-0.11060200E+05 0.64990360E+00                   4
H2C4O                   H   2C   4O   10   0G   300.00   5000.00  1000.00      1
 0.82939720E+01 0.92993790E-02-0.37389950E-05 0.69422900E-09-0.48285830E-13    2
 0.24080810E+05-0.17659360E+02 0.64205590E+01 0.65418440E-03 0.35099640E-04    3
-0.45154730E-07 0.17480640E-10 0.25287060E+05-0.45916500E+01                   4
C4H                     C   4H   10   00   0G   300.00   5000.00  1000.00      1
 0.06242882E+02 0.06193682E-01-0.02085931E-04 0.03082203E-08-0.16364826E-13    2
 0.07568019E+06-0.07210806E+02 0.05023247E+02 0.07092375E-01-0.06073762E-07    3
-0.02275752E-07 0.08086994E-11 0.07623812E+06-0.06942594E+00                   4
OC4H6                   C   4H   6O   10   0G   300.00   5000.00  1000.00      1
 0.29266400E+01 0.14879800E-02-0.56848000E-06 0.10097000E-09-0.67500000E-14    2
-0.92280000E+03 0.59810000E+01 0.32986800E+01 0.14082400E-02-0.39632200E-05    3
 0.56415100E-08-0.24448500E-11-0.10209000E+04 0.39500000E+01                   4
HOC4H6                  C   4H   7O   10   0G   300.00   5000.00  1000.00      1
 0.10356620E+02 0.19413930E-01-0.62931360E-05 0.10675170E-08-0.70872000E-13    2
-0.65610430E+04-0.25776970E+02-0.16437110E+01 0.63084990E-01-0.71556350E-04    3
 0.47958070E-07-0.13368940E-10-0.37048470E+04 0.33773300E+02                   4
C5H8              T 2/90C   5H   8    0    0G   200.000  5000.000 1000.        1
 0.77244792E+01 0.28322316E-01-0.11545236E-04 0.21540815E-08-0.15054178E-12    2
-0.78261573E+03-0.19769698E+02 0.26898140E+01 0.20954550E-02 0.11303687E-03    3
-0.15408070E-06 0.62763658E-10 0.23139663E+04 0.15294056E+02                   4
JP10                    C  10H  16O   00   0G   300.00   5000.00  1000.00      1
-4.78290200E+00 9.08977000E-02-4.73497000E-05 9.36283900E-09-3.17350600E-12    2
-9.13640100E+03-1.59228000E+01-4.78290200E+00 9.08977000E-02-4.73497000E-05    3
 9.36283900E-09-3.17350600E-12-9.13640100E+03-1.59228000E+01		       4
C2H3O                   C   2H   3O   10   0G   300.00   5000.00  1000.00      1
 0.62295550E+01 0.82943900E-02-0.30010100E-05 0.53019390E-09-0.35889510E-13    2
 0.49284210E+04-0.74315770E+01 0.22223530E+01 0.18691160E-01-0.11548170E-04    3
 0.18288890E-08 0.82301300E-12 0.60898410E+04 0.13478390E+02                   4
CH3CO                   C   2H   3O   10   0G   300.00   5000.00  1000.00      1
 0.51153110E+01 0.98613270E-02-0.39464200E-05 0.72974800E-09-0.50605210E-13    2
-0.35811130E+04-0.90078660E+00 0.63079430E+01-0.12387940E-01 0.58094930E-04    3
-0.63043300E-07 0.22737730E-10-0.29439700E+04-0.23500130E+01                   4
C2H4O2H                 C   2H   5O   20   0G   300.00   5000.00  1000.00      1
 0.91353040E+01 0.11853070E-01-0.36418600E-05 0.61121730E-09-0.40462160E-13    2
-0.15248430E+02-0.17537470E+02 0.69312110E+00 0.44846830E-01-0.56695650E-04    3
 0.41299960E-07-0.12226990E-10 0.18797770E+04 0.23795920E+02                   4
C2H4O                   C   2H   4O   10   0G   300.00   5000.00  1000.00      1
 0.59249200E+01 0.11120710E-01-0.37434100E-05 0.55414000E-09-0.29550000E-13    2
-0.93028000E+04-0.93790000E+01-0.24174000E+00 0.20761100E-01 0.21481200E-05    3
-0.16948160E-07 0.81075800E-11-0.71720000E+04 0.24432000E+02                   4
CH3CHO                  C   2H   4O   10   0G   300.00   5000.00  1000.00      1
 0.56469620E+01 0.91476260E-02-0.36161100E-05 0.66456890E-09-0.45910180E-13    2
-0.22534160E+05-0.38819790E+01 0.57694260E+01-0.61437480E-02 0.43337420E-04    3
-0.49301540E-07 0.18135580E-10-0.21806880E+05-0.80332070E+00                   4
HCCOH              32387H   2C   2O   1     G  0300.00   4000.00  1000.00      1
 0.07328324E+02 0.03336416E-01-0.03024705E-05-0.01781106E-08 0.03245168E-12    2
 0.07598258E+05-0.14012140E+02 0.03899465E+02 0.09701075E-01-0.03119309E-05    3
-0.05537732E-07 0.02465732E-10 0.08701190E+05 0.04491874E+02                   4
C3H8              L 4/85C   3H   8          G   300.000  5000.000  1000.000    1
 0.75341368E+01 0.18872239E-01-0.62718491E-05 0.91475649E-09-0.47838069E-13    2
-0.16467516E+05-0.17892349E+02 0.93355381E+00 0.26424579E-01 0.61059727E-05    3
-0.21977499E-07 0.95149253E-11-0.13958520E+05 0.19201691E+02                   4
CH3OH             L 8/88C   1H   4O   1    0G   200.000  6000.000 1000.        1
 0.36012593E+01 0.10243223E-01-0.35999217E-05 0.57251951E-09-0.33912719E-13    2
-0.25997155E+05 0.47056025E+01 0.57153948E+01-0.15230920E-01 0.65244182E-04    3
-0.71080873E-07 0.26135383E-10-0.25642765E+05-0.15040970E+01                   4
END
